iteration,mean,std,full_session,pred_mean,c_loss,a_loss,p,concentration
0,9.527,9.9531,21,23.964,0.7084, 2720.1655,0.525,1.1711
1,7.915,8.5721,14,21.1857,0.648, 2463.135,0.5342,1.1064
2,8.878,9.6311,17,16.2083,0.5614, 1866.8113,0.549,1.0509
3,9.337,10.2562,27,10.4378,0.4491, 1190.6393,0.5548,1.0122
4,9.789,10.4709,25,8.0779,0.4088, 917.9794,0.5607,0.979
5,9.456,10.8394,27,8.0262,0.4398, 903.1348,0.566,0.95
6,9.951,11.1574,32,8.8566,0.4456, 994.3798,0.5652,0.9222
7,10.112,11.2641,37,10.3681,0.4011, 1163.9351,0.5635,0.9043
8,10.522,11.9489,36,12.2013,0.4165, 1372.8625,0.5648,0.8967
9,10.246,11.6026,42,13.714,0.3952, 1539.259,0.5684,0.8847
10,10.839,12.131,45,14.6027,0.4183, 1635.0092,0.5639,0.881
11,10.547,11.96,46,14.8394,0.4254, 1669.5488,0.5557,0.8868
12,9.634,11.0863,32,14.1393,0.4033, 1603.0314,0.5423,0.8861
13,8.679,9.1027,13,12.7201,0.3642, 1458.3013,0.5307,0.8759
14,8.231,8.9411,16,11.2194,0.3404, 1297.7598,0.5189,0.8639
15,8.11,9.121,15,9.5634,0.3182, 1116.9968,0.5124,0.8525
16,7.835,8.5131,13,8.2575,0.2912, 966.2034,0.5111,0.8386
17,7.578,8.2725,13,7.4505,0.2842, 869.5909,0.509,0.8246
18,7.952,8.6929,13,6.9099,0.3063, 811.2338,0.507,0.8111
19,7.55,8.4601,9,6.769,0.28, 792.2564,0.5071,0.8011
20,7.45,7.5845,5,6.7797,0.2625, 793.8363,0.5056,0.7884
21,7.517,8.7301,14,7.0441,0.2875, 822.914,0.5056,0.7728
22,7.907,8.9317,16,7.5457,0.3051, 881.6343,0.5049,0.758
23,7.638,8.2103,9,8.1396,0.2639, 950.7604,0.5026,0.746
24,7.714,8.7939,15,8.6054,0.2771, 1007.1429,0.4994,0.7337
25,7.695,8.528,13,9.1174,0.2727, 1067.6768,0.4932,0.7165
26,7.389,8.0338,12,9.1325,0.2607, 1072.2657,0.4899,0.702
27,7.627,8.3389,12,9.2523,0.2749, 1082.0743,0.4887,0.6848
28,7.225,8.1028,11,8.9692,0.2658, 1049.5012,0.4905,0.672
29,6.936,7.1644,7,8.309,0.2395, 967.441,0.4928,0.6619
30,6.841,7.7164,11,7.799,0.2483, 903.6682,0.4953,0.6505
31,7.243,8.1238,12,7.3165,0.2468, 843.8393,0.4982,0.6381
32,7.793,8.0625,11,6.9166,0.2634, 796.6537,0.4984,0.6221
33,7.29,8.7032,15,6.8941,0.2686, 785.9961,0.4986,0.6045
34,7.84,8.7374,12,7.0799,0.2657, 804.2769,0.5012,0.5879
35,7.952,9.4092,17,7.5143,0.2921, 845.4143,0.507,0.5776
36,8.256,9.4325,19,8.0993,0.2929, 905.1617,0.5123,0.5715
37,8.017,9.2232,20,8.5708,0.265, 948.7351,0.5198,0.5651
38,8.867,10.5566,28,9.1017,0.3122, 1000.03,0.5275,0.5593
39,9.575,10.9343,35,9.8878,0.3362, 1074.403,0.5348,0.5513
40,9.38,10.7106,33,10.7272,0.3086, 1155.2803,0.5424,0.547
41,9.611,11.3794,33,11.2096,0.3249, 1197.9515,0.552,0.5486
42,10.166,11.8012,39,11.0966,0.3333, 1181.175,0.5595,0.5577
43,11.106,12.8638,51,11.3485,0.373, 1200.1829,0.5671,0.5662
44,11.196,12.938,56,11.434,0.3624, 1202.1158,0.5768,0.5739
45,10.681,11.9491,47,11.2353,0.342, 1179.3176,0.5864,0.5682
46,12.413,14.2353,75,11.3993,0.4077, 1181.1643,0.5958,0.5524
47,12.164,13.8567,74,12.085,0.3851, 1236.5925,0.6042,0.553
48,13.399,14.6626,90,12.5462,0.4169, 1268.8518,0.6159,0.5497
49,14.734,16.1872,123,14.0784,0.4531, 1404.499,0.6235,0.5456
50,14.959,16.3738,135,15.2468,0.4492, 1501.8441,0.6354,0.5458
51,16.089,17.0355,153,16.5996,0.4696, 1618.0577,0.6503,0.5509
52,16.499,17.3539,163,17.3127,0.4733, 1677.1237,0.6652,0.5711
53,18.124,18.3784,205,17.8213,0.5067, 1707.7266,0.6824,0.5985
54,19.565,18.7164,230,19.4701,0.5098, 1849.2465,0.7013,0.611
55,22.952,20.2046,315,20.9432,0.5541, 1968.5835,0.7116,0.627
56,24.69,20.6661,361,23.8295,0.5672, 2196.6909,0.727,0.656
57,25.337,20.706,380,25.9364,0.5783, 2381.7905,0.745,0.6909
58,27.032,20.6867,421,27.9944,0.5667, 2530.5063,0.764,0.7329
59,28.509,21.218,469,29.0441,0.5672, 2585.249,0.7818,0.7844
60,30.869,21.2374,529,29.1476,0.5516, 2544.8301,0.7967,0.8161
61,31.939,21.1572,558,30.7547,0.5577, 2661.3584,0.8073,0.8652
62,33.874,20.9196,612,34.3442,0.532, 2910.9905,0.8198,0.9203
63,34.579,20.5864,626,37.5963,0.5558, 3148.8105,0.8281,0.9765
64,36.38,19.8251,665,38.1964,0.4933, 3145.0728,0.8359,1.0468
65,37.019,19.8764,686,37.4364,0.5031, 3057.9978,0.8429,1.1134
66,37.796,19.1554,698,37.3873,0.4947, 3009.6746,0.8473,1.1888
67,39.782,18.3895,757,38.9953,0.4496, 3091.0776,0.8527,1.2734
68,38.143,19.319,717,39.2648,0.4847, 3082.9441,0.856,1.3489
69,38.114,19.237,717,38.744,0.4723, 2962.5332,0.864,1.4361
70,38.31,19.1174,719,37.224,0.4706, 2802.6729,0.8714,1.5146
71,39.575,18.6216,755,38.7341,0.454, 2851.6777,0.8785,1.5922
72,40.811,17.6204,778,41.6491,0.423, 2983.9622,0.8875,1.6646
73,41.589,16.7889,790,43.4162,0.4111, 3041.5044,0.8962,1.7341
74,41.444,17.1712,795,43.7376,0.407, 2981.3149,0.9045,1.7923
75,41.617,16.957,798,43.0091,0.4069, 2858.4097,0.9117,1.8622
76,42.004,16.5496,802,41.2141,0.3853, 2657.0356,0.9188,1.9233
77,42.017,16.6206,806,40.3801,0.394, 2544.0037,0.925,1.9887
78,41.946,16.483,800,40.4064,0.3828, 2499.2002,0.9291,2.0397
79,41.695,16.9203,800,41.3379,0.392, 2497.2014,0.9325,2.0906
80,42.912,15.8285,827,42.9918,0.3544, 2553.7053,0.9357,2.134
81,42.756,15.866,821,44.3826,0.3703, 2602.3206,0.9382,2.1807
82,42.235,16.2967,808,44.1306,0.3771, 2543.5496,0.9409,2.2189
83,42.455,16.2291,814,43.1717,0.3723, 2472.3845,0.9425,2.253
84,42.359,16.0545,806,41.6745,0.3749, 2351.9199,0.9438,2.2932
85,42.618,15.7467,812,41.1914,0.3668, 2302.3057,0.9447,2.343
86,41.751,16.7075,798,41.661,0.3817, 2312.8696,0.9447,2.3952
87,42.786,15.6811,817,42.5686,0.3629, 2336.4077,0.9444,2.4478
88,41.255,17.0033,781,42.4861,0.4099, 2328.1797,0.9435,2.5015
89,41.561,17.0322,797,41.6498,0.4104, 2275.3845,0.9425,2.552
90,41.412,16.8039,785,40.6807,0.3974, 2202.917,0.942,2.5944
91,42.83,15.6789,819,41.7056,0.3695, 2257.4038,0.9414,2.6414
92,41.061,16.9705,774,42.2431,0.4169, 2272.0732,0.9413,2.6824
93,41.329,16.9103,782,42.2764,0.4105, 2260.969,0.9413,2.7258
94,40.735,17.2326,767,40.907,0.4151, 2172.6582,0.942,2.766
95,41.717,16.3234,781,40.6165,0.403, 2151.3071,0.9427,2.8041
96,41.264,16.9146,779,40.5499,0.4131, 2126.0852,0.9438,2.8395
97,41.095,16.9831,773,41.0144,0.4192, 2142.1335,0.9442,2.8886
98,40.733,16.8336,753,40.9382,0.4296, 2124.6868,0.9445,2.9311
99,41.004,17.1104,773,41.0364,0.4063, 2123.3665,0.9444,2.9661
100,39.314,18.0654,728,39.8919,0.4614, 2042.8846,0.9447,2.9991
101,40.276,17.59,754,38.6718,0.4277, 1973.9481,0.9452,3.0322
102,40.179,17.4741,744,39.4738,0.4463, 1994.241,0.9457,3.0649
103,39.471,17.8036,725,40.3697,0.4448, 2030.6602,0.9467,3.0938
104,40.237,17.2962,746,40.7487,0.44, 2024.0226,0.9482,3.1219
105,39.987,17.4437,737,40.7988,0.4455, 2031.6864,0.9494,3.1467
106,39.887,17.5849,734,39.5914,0.4429, 1950.527,0.9504,3.1721
107,40.472,17.0115,747,39.1996,0.4374, 1916.6322,0.9516,3.1916
108,39.788,17.7328,739,39.7557,0.445, 1923.8274,0.9527,3.2145
109,39.75,17.2972,720,40.5688,0.4577, 1948.3831,0.954,3.2388
110,39.785,17.4473,731,40.5782,0.4348, 1937.8611,0.9552,3.2583
111,39.683,17.4884,720,40.3986,0.4415, 1915.9659,0.9563,3.2711
112,40.087,17.2395,737,40.0538,0.4251, 1867.699,0.9577,3.2939
113,39.954,17.3166,730,39.6311,0.4459, 1846.7129,0.959,3.3147
114,39.674,17.5744,728,39.5378,0.4475, 1832.0542,0.9601,3.3285
115,40.443,17.0662,745,40.5075,0.4301, 1850.9634,0.9614,3.3437
116,39.438,17.6871,717,40.3237,0.4499, 1839.5676,0.9626,3.36
117,39.038,17.4359,693,38.6474,0.4592, 1736.3041,0.9641,3.3736
118,39.521,17.2901,712,37.859,0.4451, 1684.5118,0.9653,3.4022
119,38.513,17.6853,681,38.0641,0.4586, 1692.1475,0.9665,3.4241
120,40.235,16.9804,730,40.3214,0.4325, 1776.5913,0.9675,3.4423
121,38.709,17.8605,686,40.8287,0.4603, 1778.256,0.9685,3.4637
122,38.66,17.6697,680,38.7952,0.4576, 1684.3197,0.9693,3.4881
123,38.954,17.4878,691,36.8836,0.4469, 1584.4113,0.9703,3.5064
124,38.473,17.5188,666,37.9586,0.4652, 1633.5131,0.9711,3.5118
125,37.592,17.965,649,38.5881,0.4738, 1645.9119,0.972,3.5079
126,38.928,17.471,688,39.8763,0.4428, 1703.3831,0.9726,3.4997
127,37.754,17.9938,651,38.0754,0.4829, 1604.4814,0.9732,3.4956
128,38.08,17.8725,663,36.9543,0.4712, 1565.464,0.9736,3.4901
129,38.271,17.6599,666,37.7072,0.461, 1579.422,0.9741,3.4866
130,38.935,17.4484,690,40.5599,0.4447, 1692.6414,0.9747,3.4859
131,38.119,17.5525,656,40.5146,0.4571, 1694.557,0.9753,3.4832
132,38.681,17.3955,681,38.6751,0.4557, 1609.0121,0.9759,3.4858
133,38.606,17.3028,665,37.0806,0.4413, 1540.5432,0.9764,3.4884
134,38.807,17.3494,676,37.7351,0.4525, 1568.7719,0.9767,3.4939
135,38.296,17.5184,656,39.2587,0.4525, 1617.9449,0.9771,3.498
136,37.835,17.9596,658,39.7342,0.4629, 1619.6912,0.9777,3.506
137,38.13,17.433,645,37.9369,0.4557, 1553.6152,0.9782,3.5159
138,37.971,17.8933,659,37.1226,0.458, 1522.7216,0.9786,3.5282
139,37.753,17.9143,648,37.5773,0.4635, 1538.9675,0.9789,3.5315
140,38.434,17.3542,654,39.0729,0.4536, 1575.0731,0.9793,3.5299
141,38.797,17.3603,677,39.9157,0.4424, 1607.9978,0.9798,3.526
142,38.2,17.6839,657,38.3829,0.453, 1553.614,0.9803,3.5205
143,37.908,17.5442,645,37.458,0.4488, 1510.8579,0.9807,3.5174
144,37.595,17.676,633,37.1348,0.4726, 1487.0529,0.9811,3.5174
145,36.976,17.9542,618,36.9949,0.4739, 1478.2527,0.9815,3.5174
146,38.03,17.5688,648,38.835,0.4532, 1554.8781,0.9819,3.5159
147,37.399,17.7157,624,37.3691,0.4724, 1495.783,0.9822,3.5127
148,39.037,16.9778,672,38.5983,0.4413, 1529.5948,0.9824,3.5215
149,37.025,17.9798,621,37.4594,0.4712, 1510.6411,0.9825,3.5269
150,37.853,17.5634,640,37.2197,0.459, 1468.8906,0.9826,3.5375
151,38.576,16.879,646,39.4949,0.4561, 1566.0494,0.9826,3.5544
152,38.443,17.3276,662,40.0234,0.4456, 1575.6466,0.9827,3.5659
153,38.065,17.3094,638,37.8855,0.4539, 1496.5736,0.9829,3.5706
154,37.744,17.6646,639,35.8681,0.4565, 1428.2393,0.9828,3.5765
155,37.856,17.3417,629,37.1438,0.4607, 1462.4858,0.9827,3.5877
156,36.873,18.1551,617,38.2622,0.4822, 1511.4911,0.9825,3.5948
157,37.488,17.5408,615,38.2012,0.4564, 1482.0598,0.9824,3.6108
158,36.809,18.1979,621,36.6497,0.4891, 1441.8959,0.9823,3.6258
159,37.853,17.1445,627,36.543,0.4603, 1436.0914,0.9822,3.6421
160,37.868,17.3067,633,38.7118,0.4567, 1522.8031,0.982,3.661
161,37.784,17.5176,640,40.1996,0.4549, 1570.4644,0.982,3.6757
162,37.299,17.6858,615,37.7653,0.482, 1470.6199,0.9819,3.6833
163,36.868,18.0483,613,35.2137,0.4719, 1370.474,0.9819,3.7013
164,36.569,18.0953,607,35.2215,0.4816, 1369.0295,0.9818,3.7164
165,37.628,17.5723,629,39.1669,0.4636, 1521.4064,0.9818,3.7266
166,37.782,17.3907,628,40.1883,0.4631, 1542.7025,0.9819,3.7486
167,35.936,18.0734,581,36.288,0.5318, 1400.8845,0.9821,3.7651
168,37.074,17.7793,614,33.889,0.4649, 1307.4912,0.982,3.7896
169,35.287,18.3369,568,34.3803,0.4973, 1322.6038,0.9821,3.8001
170,36.637,17.8481,592,37.4839,0.4885, 1439.8198,0.9823,3.7983
171,37.246,17.7818,622,39.5734,0.4663, 1506.6149,0.9827,3.7939
172,37.443,17.5623,616,39.6627,0.4867, 1522.2931,0.983,3.7881
173,35.231,18.2898,558,34.7936,0.5286, 1338.7817,0.9832,3.7859
174,35.746,18.5359,590,32.1957,0.4902, 1236.5516,0.9834,3.771
175,36.914,17.7254,606,34.8221,0.4975, 1328.4954,0.9835,3.765
176,37.007,17.5945,604,39.4322,0.4703, 1504.3226,0.9836,3.7659
177,36.216,17.9921,591,40.4341,0.4955, 1530.809,0.9839,3.7615
178,37.006,17.8111,614,38.6795,0.4866, 1463.8586,0.9841,3.7635
179,36.746,17.723,600,35.7536,0.4734, 1350.7513,0.9843,3.7717
180,36.304,17.7174,579,33.0282,0.4722, 1252.7795,0.9846,3.7773
181,36.542,17.9551,599,34.4878,0.502, 1314.9594,0.9849,3.775
182,36.858,17.8261,604,37.5386,0.4722, 1421.6191,0.9851,3.7717
183,36.862,17.8577,601,39.7573,0.4731, 1508.3796,0.9853,3.7591
184,36.743,17.8785,594,39.2756,0.4945, 1480.0259,0.9855,3.7439
185,36.609,17.9465,602,36.2386,0.4909, 1375.7385,0.9856,3.7294
186,36.231,18.0993,587,34.1712,0.4805, 1300.5428,0.9856,3.7165
187,36.13,17.9361,582,34.0349,0.4932, 1283.5408,0.9857,3.7096
188,36.836,17.4248,595,36.8697,0.4836, 1402.7832,0.9857,3.7019
189,36.46,17.8646,590,38.9567,0.4703, 1481.8801,0.9857,3.6932
190,37.229,17.7724,620,40.1751,0.4666, 1532.9036,0.9856,3.6845
191,37.077,17.6516,607,38.8643,0.4754, 1481.769,0.9856,3.6815
192,37.34,17.2507,605,36.2156,0.4544, 1368.6061,0.9856,3.692
193,36.58,17.9611,600,34.6119,0.4772, 1324.1747,0.9856,3.6943
194,36.759,17.9232,607,35.0314,0.4743, 1338.6729,0.9856,3.6976
195,36.225,17.975,590,37.0666,0.484, 1424.027,0.9854,3.697
196,36.919,17.7771,604,38.7657,0.4725, 1465.7106,0.9852,3.7085
197,36.458,17.916,590,38.1164,0.4844, 1461.0284,0.985,3.7078
198,36.39,17.8159,584,36.5968,0.4941, 1387.197,0.985,3.71
199,36.886,17.7086,593,35.3198,0.4742, 1346.9514,0.985,3.719
200,36.832,17.8273,604,35.8256,0.4668, 1368.1426,0.9849,3.7194
201,37.092,17.6813,608,37.9763,0.4675, 1448.0635,0.9848,3.7258
202,36.564,17.8587,591,38.7145,0.4729, 1468.1963,0.9849,3.7262
203,36.618,18.0654,608,37.6102,0.4746, 1423.0046,0.9851,3.7319
204,36.172,17.9467,589,35.7554,0.4782, 1367.5372,0.9852,3.7284
205,36.45,17.983,594,34.4009,0.4791, 1293.7799,0.9853,3.7207
206,36.167,18.0682,591,35.6589,0.4812, 1356.1259,0.9855,3.7194
207,36.906,17.727,600,38.5793,0.4638, 1463.3756,0.9856,3.7212
208,37.262,17.2285,602,39.5499,0.4581, 1502.4227,0.9858,3.7207
209,36.714,17.9159,603,37.9381,0.4816, 1436.8756,0.986,3.7164
210,36.038,17.8381,576,34.506,0.4767, 1307.2517,0.9861,3.7117
211,36.452,17.9069,598,34.0224,0.4754, 1294.7413,0.9861,3.7058
212,36.261,18.135,594,35.2936,0.4806, 1335.8456,0.9863,3.6963
213,36.595,18.0266,602,38.5945,0.4771, 1465.3606,0.9864,3.6801
214,36.01,18.0014,582,38.7484,0.4919, 1468.446,0.9865,3.6698
215,36.727,17.9216,605,37.7883,0.4622, 1448.3492,0.9864,3.6623
216,36.818,17.9838,613,36.2123,0.5009, 1375.2926,0.9863,3.6613
217,36.095,17.9067,582,34.6118,0.4795, 1329.6848,0.9862,3.6494
218,36.929,18.021,615,36.2221,0.4865, 1380.4604,0.986,3.6475
219,37.831,17.3321,628,38.2233,0.4459, 1462.3839,0.9858,3.6389
220,36.822,18.2571,623,39.3827,0.4733, 1510.8058,0.9856,3.6298
221,36.435,17.8353,591,38.2314,0.4738, 1468.2006,0.9854,3.6313
222,37.914,17.3586,625,36.8963,0.46, 1432.8914,0.985,3.6314
223,37.258,17.7654,623,36.0605,0.4624, 1390.7281,0.9848,3.6278
224,37.022,17.9527,618,36.9454,0.4535, 1436.012,0.9845,3.621
225,37.508,17.9496,641,37.7579,0.4571, 1460.0452,0.9843,3.6153
226,37.312,17.8976,628,39.0415,0.4762, 1510.7328,0.9841,3.6186
227,37.467,17.6981,622,38.1389,0.4805, 1469.4951,0.9841,3.6254
228,37.197,17.7968,617,36.9091,0.4785, 1431.1323,0.984,3.6306
229,37.243,17.4606,607,35.792,0.4572, 1392.0796,0.984,3.6353
230,37.039,17.9917,623,36.3062,0.4813, 1410.7107,0.9839,3.6359
231,37.552,17.6384,631,37.8294,0.4659, 1463.2607,0.984,3.6359
232,36.812,17.7783,605,38.3606,0.477, 1512.9451,0.9838,3.619
233,36.717,17.9415,607,37.5139,0.4754, 1459.1616,0.9837,3.6029
234,37.534,17.6642,623,36.8008,0.4619, 1429.8973,0.9835,3.5934
235,37.596,17.5415,629,36.9205,0.443, 1437.8767,0.9834,3.5943
236,37.649,17.4706,626,37.2515,0.4506, 1454.6447,0.9832,3.6061
237,36.759,18.1774,616,37.375,0.4784, 1461.8215,0.983,3.6224
238,36.524,18.316,612,37.1342,0.4759, 1449.9645,0.9827,3.6473
239,37.276,17.6727,619,36.8787,0.4608, 1431.9268,0.9825,3.6754
240,37.957,17.4798,633,38.1253,0.4423, 1476.2008,0.9825,3.7057
241,37.132,18.0509,627,37.9842,0.4802, 1475.3265,0.9826,3.7301
242,37.853,17.3075,630,37.6562,0.4592, 1464.9766,0.9826,3.7399
243,36.886,18.0387,611,37.0968,0.4749, 1429.9349,0.9824,3.7609
244,36.864,17.8504,611,35.9156,0.4697, 1376.9219,0.9823,3.7795
245,36.438,17.6963,588,36.043,0.479, 1395.3839,0.9821,3.7841
246,36.298,18.151,587,36.7598,0.4866, 1426.5583,0.9817,3.7872
247,36.56,18.2109,607,37.4249,0.4707, 1437.6937,0.9813,3.7945
248,35.795,18.325,583,37.5194,0.4914, 1442.5413,0.981,3.8061
249,37.102,17.5905,610,37.055,0.4649, 1428.5663,0.9806,3.8278
250,36.807,17.794,604,36.2302,0.4808, 1400.9105,0.9802,3.851
251,37.599,17.381,621,36.5893,0.4748, 1411.6743,0.9796,3.8834
252,36.023,17.9171,578,36.048,0.4729, 1403.0758,0.9789,3.9068
253,36.176,18.2475,593,35.179,0.4981, 1351.8875,0.9784,3.9291
254,36.42,17.9148,597,36.5796,0.4717, 1427.9846,0.9778,3.9472
255,36.081,18.1261,580,36.9688,0.4765, 1432.3868,0.9771,3.9685
256,36.614,17.863,601,37.6332,0.4753, 1461.1951,0.9765,3.9827
257,36.739,17.9027,609,36.8015,0.4782, 1423.2979,0.9761,3.9919
258,36.317,18.3308,603,36.3532,0.4925, 1423.3774,0.9754,4.0013
259,37.012,18.0781,622,36.4775,0.4779, 1426.9493,0.9746,4.0098
260,37.264,18.0441,633,37.5904,0.4775, 1464.209,0.9739,4.0198
261,35.72,18.4351,586,37.4826,0.5036, 1461.5898,0.9738,4.0241
262,36.091,18.389,596,36.2893,0.4908, 1439.045,0.9733,4.0276
263,37.103,17.7853,620,36.4459,0.4786, 1420.4312,0.9731,4.0369
264,35.737,18.4768,592,36.6073,0.4894, 1418.3733,0.9732,4.0608
265,35.276,18.4221,568,34.8275,0.5148, 1366.908,0.9735,4.0757
266,36.13,17.9928,581,34.3344,0.4912, 1336.1884,0.9739,4.0889
267,35.821,18.474,590,35.8779,0.5066, 1384.2472,0.9744,4.108
268,36.13,18.1238,594,37.1475,0.4965, 1443.8883,0.9747,4.1212
269,35.363,18.579,579,36.0266,0.5069, 1381.9215,0.9752,4.1299
270,35.726,18.1615,580,34.7009,0.4854, 1335.7617,0.9758,4.1287
271,34.846,18.6598,564,33.4748,0.5123, 1273.5736,0.9764,4.1372
272,35.705,18.3013,578,34.8766,0.509, 1325.3199,0.9769,4.1418
273,35.515,18.2227,575,37.3976,0.4943, 1428.891,0.9774,4.1394
274,35.196,18.227,560,37.001,0.5047, 1388.2675,0.9779,4.1467
275,34.845,18.2921,551,35.008,0.4957, 1320.4006,0.9783,4.1576
276,35.251,18.3983,568,33.672,0.4984, 1268.3303,0.9785,4.1733
277,35.787,17.9196,569,35.2659,0.4967, 1317.22,0.9785,4.1939
278,35.035,18.1057,551,36.893,0.503, 1366.1294,0.9786,4.2254
279,35.421,18.3049,568,36.8967,0.5005, 1373.0911,0.9785,4.2556
280,34.969,18.6555,563,34.7125,0.5126, 1276.9816,0.9788,4.2779
281,34.567,18.6048,546,33.8185,0.5081, 1252.713,0.9787,4.303
282,34.589,18.3563,538,33.9839,0.5104, 1249.5098,0.9786,4.3251
283,34.831,18.2191,548,35.4464,0.5069, 1282.473,0.9787,4.359
284,34.427,18.0535,526,35.6801,0.5066, 1295.0825,0.979,4.389
285,34.535,17.9662,515,34.3927,0.5019, 1250.4336,0.9793,4.4093
286,34.426,18.1168,519,33.5751,0.5057, 1203.5149,0.9797,4.4269
287,33.954,18.6553,524,33.6212,0.5171, 1202.3503,0.9799,4.4477
288,34.508,17.9194,510,34.2577,0.501, 1218.6936,0.9802,4.4681
289,34.48,18.1269,525,35.5562,0.4928, 1272.2677,0.9804,4.4838
290,34.007,18.2646,515,34.5978,0.5188, 1225.1996,0.9807,4.493
291,34.103,18.1837,511,32.9109,0.521, 1161.7834,0.981,4.5013
292,32.636,18.4624,477,32.0114,0.531, 1129.8634,0.9814,4.4958
293,33.475,18.5394,502,33.5211,0.5242, 1194.6941,0.9816,4.4915
294,33.591,18.3817,507,35.2911,0.5165, 1239.333,0.9817,4.489
295,33.636,18.409,506,35.2458,0.5194, 1242.8898,0.9817,4.4829
296,33.05,18.158,478,32.352,0.5199, 1134.3064,0.9817,4.4799
297,33.556,18.2373,498,31.8478,0.5106, 1126.2439,0.9816,4.4815
298,33.446,18.5701,506,34.2386,0.5061, 1213.0171,0.9813,4.4777
299,33.509,17.9861,485,34.8936,0.501, 1238.5715,0.9811,4.4698
300,34.24,18.5789,530,35.1242,0.5176, 1233.2471,0.9809,4.471
301,34.025,17.8718,499,33.1028,0.5052, 1162.817,0.9807,4.4874
302,33.532,18.6063,504,31.7452,0.5164, 1113.8218,0.9807,4.5035
303,33.149,18.5272,488,33.0042,0.5123, 1175.9183,0.9807,4.5044
304,33.205,18.4447,493,35.0257,0.5048, 1229.5194,0.981,4.5024
305,32.964,18.5619,489,34.0499,0.5206, 1201.1884,0.9812,4.5031
306,33.751,18.1513,493,33.0908,0.5078, 1157.0865,0.9813,4.5053
307,34.027,18.127,509,34.3721,0.4964, 1217.8263,0.9814,4.5021
308,33.315,18.4257,495,34.4442,0.5108, 1208.6843,0.9814,4.5025
309,33.055,18.4608,488,32.7731,0.5191, 1150.4277,0.9814,4.5048
310,33.305,18.6155,507,31.8015,0.5259, 1113.7008,0.9815,4.5099
311,34.275,17.9139,501,35.091,0.5012, 1246.6239,0.9814,4.5061
312,33.612,18.1829,498,35.381,0.5153, 1245.2678,0.9812,4.503
313,34.249,18.005,514,33.6756,0.4908, 1183.1138,0.9813,4.4936
314,34.317,18.0171,511,33.3299,0.509, 1168.687,0.9814,4.4898
315,34.002,18.2493,511,33.9057,0.526, 1194.223,0.9814,4.4865
316,33.671,18.2157,497,35.1254,0.5185, 1229.063,0.9816,4.4884
317,32.94,18.1657,475,32.6894,0.5284, 1165.6249,0.9815,4.4856
318,33.599,18.417,502,33.1963,0.5129, 1165.5903,0.9814,4.4873
319,33.74,18.1986,503,34.9071,0.5055, 1223.5176,0.9814,4.4946
320,33.717,18.4913,513,35.1556,0.5151, 1234.9923,0.9813,4.511
321,32.99,18.4781,490,32.4566,0.5162, 1142.326,0.9812,4.5162
322,33.765,18.2803,495,31.9343,0.5251, 1116.1414,0.9812,4.524
323,32.741,18.3618,472,33.3313,0.503, 1175.4648,0.9809,4.5378
324,33.03,18.4456,490,34.9237,0.509, 1227.7571,0.9802,4.5636
325,33.125,18.4397,489,33.4044,0.5035, 1174.923,0.9797,4.5796
326,32.424,18.6105,470,31.4384,0.5201, 1106.4609,0.9792,4.5965
327,33.42,18.5898,509,34.6781,0.5165, 1214.4478,0.9788,4.6201
328,33.451,18.4857,504,36.0075,0.531, 1263.3177,0.9784,4.6493
329,33.846,18.5707,514,33.0582,0.5186, 1166.9333,0.978,4.6757
330,32.511,18.6964,484,30.3582,0.5181, 1069.6713,0.9778,4.6949
331,33.259,18.3936,498,32.7089,0.5356, 1144.4114,0.9776,4.7162
332,32.073,18.5843,466,33.4682,0.5241, 1162.7871,0.9775,4.7399
333,32.893,18.4347,482,33.4799,0.5212, 1174.1873,0.9774,4.7621
334,32.872,18.4733,483,32.7518,0.5196, 1140.124,0.9773,4.7867
335,32.465,18.6166,478,32.1369,0.5218, 1132.5166,0.9771,4.7999
336,33.307,18.3608,504,34.3195,0.5204, 1189.6472,0.977,4.812
337,32.105,18.5812,465,32.4787,0.5358, 1129.8553,0.9768,4.8244
338,31.968,18.5133,459,30.3355,0.5309, 1048.2611,0.9768,4.8347
339,33.05,18.3703,481,33.9765,0.5289, 1184.3201,0.9767,4.8439
340,31.996,18.4253,456,33.9472,0.5349, 1179.0479,0.9766,4.8553
341,32.071,18.3781,464,31.9547,0.5303, 1108.3348,0.9766,4.8617
342,32.483,18.4074,466,31.6144,0.5258, 1098.9943,0.9766,4.8642
343,31.878,18.6634,463,32.9045,0.526, 1144.9191,0.9766,4.8625
344,32.64,18.3896,474,34.3021,0.5249, 1180.5341,0.9769,4.8552
345,33.075,18.3417,493,33.7474,0.5292, 1172.5479,0.9771,4.8481
346,32.055,18.7043,467,30.7463,0.5367, 1080.7104,0.9769,4.8329
347,33.145,18.3919,485,32.8607,0.5342, 1142.0482,0.9767,4.8178
348,33.166,18.255,481,35.248,0.5077, 1232.7313,0.9764,4.805
349,32.318,18.8689,473,33.0319,0.536, 1164.2512,0.976,4.7891
350,32.902,18.3086,475,31.1006,0.5303, 1095.3125,0.9753,4.7809
351,33.06,18.3988,491,32.1531,0.5272, 1139.8973,0.9746,4.772
352,33.351,18.6708,512,35.152,0.5216, 1252.855,0.9737,4.7714
353,33.894,18.1427,509,34.8936,0.5105, 1249.5171,0.9727,4.7707
354,33.242,18.4475,495,33.1208,0.5296, 1185.5723,0.9718,4.7788
355,33.057,18.7656,503,31.1037,0.5246, 1128.6956,0.971,4.7798
356,33.919,18.3585,518,33.3025,0.5338, 1215.1786,0.9702,4.7712
357,32.783,18.3659,476,34.4087,0.529, 1247.9822,0.9697,4.7689
358,32.62,18.9512,501,32.9659,0.544, 1207.1255,0.9693,4.7692
359,32.992,18.6259,498,32.5785,0.5318, 1187.879,0.9692,4.7743
360,34.085,18.2693,522,34.449,0.5103, 1255.4601,0.9693,4.7903
361,33.74,18.8231,532,35.3757,0.5303, 1293.4976,0.9693,4.8101
362,33.597,18.4812,517,33.2474,0.5268, 1224.451,0.969,4.833
363,33.309,18.6006,511,31.6623,0.5155, 1164.4962,0.9683,4.853
364,33.152,18.5318,503,32.3302,0.5326, 1172.6609,0.9679,4.8771
365,33.905,18.5746,527,36.0745,0.5277, 1312.744,0.9678,4.9013
366,32.718,18.964,507,34.3796,0.5488, 1255.0225,0.9673,4.9294
367,34.34,18.542,538,32.744,0.5211, 1191.2432,0.9672,4.9475
368,33.498,18.5179,506,32.5633,0.5382, 1192.6353,0.967,4.9571
369,33.336,18.7368,518,33.7773,0.538, 1234.1305,0.9668,4.9632
370,33.097,18.8658,510,34.4291,0.527, 1258.2786,0.9665,4.9654
371,33.38,18.8054,508,34.0956,0.5359, 1249.8568,0.9658,4.9685
372,33.565,18.8117,523,33.3161,0.5364, 1240.3527,0.9645,4.9646
373,33.52,18.629,517,32.3548,0.5336, 1188.9951,0.9634,4.966
374,33.307,19.0042,526,33.6731,0.5306, 1257.6121,0.9623,4.9585
375,34.087,18.9036,544,35.3341,0.5392, 1311.1613,0.9611,4.9673
376,33.435,18.8062,526,33.7201,0.5435, 1272.5283,0.96,4.9695
377,32.937,19.1561,517,31.2031,0.5395, 1173.8368,0.9591,4.976
378,33.677,19.279,552,32.3663,0.5527, 1225.0255,0.9589,4.9766
379,34.553,18.8331,559,35.6998,0.5446, 1356.9069,0.9589,4.973
380,33.973,18.9388,544,36.2234,0.5381, 1385.1073,0.9587,4.9643
381,34.25,18.8051,546,34.2963,0.5403, 1305.1188,0.9587,4.9557
382,34.437,18.7903,553,32.3201,0.5315, 1227.4323,0.9594,4.9427
383,34.085,18.8589,548,33.0834,0.5412, 1264.6415,0.9598,4.9306
384,32.976,19.3082,523,34.2604,0.5343, 1303.1172,0.9599,4.922
385,32.864,19.228,518,33.975,0.536, 1289.7402,0.9601,4.9177
386,33.684,19.0992,543,33.202,0.5415, 1269.2626,0.9601,4.9111
387,34.206,18.8578,550,33.3877,0.5224, 1286.9558,0.9592,4.9007
388,34.046,18.8137,547,33.6577,0.5377, 1296.2737,0.9582,4.8856
389,33.911,19.0244,553,34.4941,0.5269, 1330.936,0.957,4.8777
390,34.433,18.8478,561,34.7671,0.5373, 1346.7161,0.9563,4.8686
391,33.463,19.2245,545,33.7585,0.5358, 1323.6471,0.9557,4.8496
392,35.005,18.8504,578,35.0688,0.5294, 1380.0088,0.9552,4.8316
393,33.91,18.9938,542,35.2789,0.5321, 1388.1324,0.9553,4.8111
394,35.319,18.7304,585,35.1204,0.5115, 1381.3386,0.9557,4.7963
395,35.015,18.7397,577,34.8165,0.5162, 1381.9396,0.9555,4.7838
396,34.893,18.865,572,35.0256,0.5245, 1384.6958,0.9555,4.7726
397,34.611,18.9105,564,34.7117,0.5307, 1378.6771,0.9555,4.7594
398,34.594,19.071,573,34.0853,0.5406, 1349.5828,0.9554,4.7543
399,35.012,18.9205,581,35.3384,0.517, 1407.3945,0.9548,4.7533
400,34.275,19.0976,562,35.5406,0.5421, 1409.9799,0.9549,4.7527
401,34.354,18.9656,559,33.9504,0.5351, 1359.421,0.9545,4.7508
402,35.231,18.7467,583,35.019,0.5244, 1393.8798,0.9541,4.7573
403,34.073,19.1203,555,34.7293,0.5275, 1380.692,0.9545,4.7613
404,34.396,18.9852,564,34.3866,0.5297, 1379.8651,0.9548,4.7554
405,35.065,18.5976,573,35.1848,0.506, 1398.5344,0.9552,4.749
406,34.445,18.9264,559,35.0853,0.5343, 1393.1534,0.9555,4.7493
407,35.485,18.6835,589,35.1161,0.5249, 1409.7876,0.9548,4.7481
408,35.605,18.7562,598,35.6678,0.5167, 1432.6345,0.9537,4.7423
409,34.428,19.2563,570,35.4542,0.5242, 1426.6447,0.9532,4.7283
410,34.377,19.0853,570,33.7521,0.5283, 1356.6649,0.953,4.7167
411,35.387,18.8477,588,34.8413,0.5252, 1403.925,0.953,4.708
412,34.917,18.868,578,36.269,0.5221, 1465.1483,0.9531,4.703
413,34.489,18.9754,561,35.0555,0.533, 1416.4535,0.9532,4.7026
414,35.348,18.748,589,34.2936,0.5121, 1385.4192,0.9533,4.7019
415,35.933,18.5123,600,36.2715,0.5198, 1464.3656,0.9532,4.7054
416,34.902,18.8059,574,35.7898,0.5306, 1445.6047,0.9533,4.7072
417,35.574,18.7154,597,35.0475,0.5137, 1412.228,0.9538,4.7067
418,34.714,18.9817,576,33.6429,0.5235, 1366.0961,0.9532,4.7069
419,34.379,19.0916,570,33.6921,0.5296, 1375.54,0.952,4.6963
420,35.759,18.6798,601,35.9592,0.5074, 1465.2512,0.9509,4.6837
421,35.548,18.6965,595,36.4896,0.5194, 1480.3047,0.9508,4.6796
422,35.345,18.8727,593,35.0469,0.5229, 1443.0186,0.9511,4.662
423,35.758,18.5593,598,34.431,0.5086, 1416.2528,0.9511,4.6426
424,36.227,18.7822,621,36.7805,0.5135, 1512.6206,0.9511,4.6267
425,36.445,18.4979,620,38.7378,0.4948, 1601.3206,0.9507,4.613
426,35.617,18.7242,599,36.2902,0.5359, 1499.5579,0.9499,4.607
427,36.316,18.751,627,34.4453,0.5073, 1427.8442,0.9492,4.6019
428,35.397,18.8504,599,33.9814,0.5282, 1421.2953,0.9485,4.5905
429,36.045,18.8165,618,36.4162,0.5181, 1516.9841,0.9478,4.5893
430,35.367,18.9656,600,37.1491,0.5216, 1560.7344,0.9472,4.5876
431,35.422,19.216,613,36.0978,0.5244, 1519.7781,0.9471,4.5789
432,36.019,18.6889,616,34.9277,0.4987, 1472.3656,0.9473,4.5691
433,36.071,18.8606,618,35.5408,0.5206, 1491.1619,0.948,4.565
434,35.612,18.8475,602,36.26,0.5169, 1523.55,0.9491,4.5597
435,35.679,18.839,607,36.9111,0.505, 1547.3066,0.9501,4.5552
436,36.097,18.7835,621,36.5283,0.4981, 1530.6343,0.951,4.5416
437,36.142,18.5862,616,35.938,0.5142, 1497.4438,0.952,4.5231
438,34.587,18.8453,562,33.2751,0.5235, 1384.6669,0.9527,4.5035
439,35.663,18.6531,599,34.9345,0.5278, 1443.6223,0.9531,4.4941
440,36.127,18.6561,608,38.0922,0.5153, 1599.066,0.9525,4.4725
441,36.136,18.5487,611,38.6911,0.502, 1615.6354,0.9518,4.4498
442,36.254,18.6782,623,35.4716,0.524, 1478.2688,0.9516,4.4324
443,35.768,19.0537,612,33.2301,0.5219, 1401.6323,0.951,4.4166
444,37.264,18.1632,643,36.5905,0.5149, 1568.1663,0.9491,4.3957
445,36.053,19.136,629,38.4103,0.5097, 1631.6703,0.9479,4.3782
446,36.079,18.6191,614,37.9476,0.5104, 1618.2585,0.9476,4.3649
447,37.015,18.3948,641,36.434,0.4991, 1559.9893,0.9481,4.3545
448,37.131,18.309,643,35.6899,0.503, 1540.9756,0.9486,4.3379
449,34.867,19.2429,591,34.4026,0.5208, 1479.6973,0.9487,4.3297
450,36.773,18.5346,635,37.0024,0.5067, 1606.9551,0.9481,4.3149
451,36.293,18.4547,617,38.4821,0.5081, 1664.9863,0.9477,4.3008
452,37.307,18.5524,656,38.1471,0.4889, 1643.6873,0.9477,4.2963
453,35.965,19.0988,625,35.607,0.5135, 1543.8383,0.9478,4.2938
454,36.782,18.5154,636,35.1259,0.5076, 1534.7817,0.9471,4.2945
455,36.939,18.4408,642,36.6825,0.5039, 1586.0701,0.9473,4.2979
456,36.104,18.5851,616,37.7066,0.5107, 1648.973,0.9466,4.2983
457,37.745,18.3702,670,38.8355,0.4973, 1695.0272,0.9452,4.3087
458,36.409,18.806,634,37.157,0.5143, 1622.9423,0.9439,4.3281
459,36.208,18.9714,630,35.2543,0.5088, 1550.0583,0.9426,4.35
460,36.321,18.8598,629,34.6338,0.5205, 1523.6649,0.9415,4.3777
461,36.219,18.815,626,36.1,0.5231, 1597.8164,0.94,4.4052
462,36.088,18.9334,625,37.5874,0.5136, 1673.6469,0.9387,4.4222
463,36.718,18.8076,647,37.5572,0.515, 1678.4541,0.9369,4.4372
464,35.914,19.012,623,35.6729,0.5265, 1609.6951,0.9342,4.4444
465,36.287,19.0923,635,35.1101,0.5209, 1602.6605,0.9318,4.4308
466,36.769,18.8857,652,36.3363,0.5165, 1680.2191,0.9288,4.4007
467,36.926,18.9117,656,37.8173,0.5012, 1766.0275,0.9242,4.3793
468,37.292,18.68,665,38.3614,0.5068, 1811.3945,0.9213,4.3562
469,36.532,19.0549,648,37.8632,0.5098, 1800.1338,0.9195,4.354
470,37.372,18.7694,672,36.2869,0.497, 1749.4183,0.9185,4.3537
471,36.932,18.8257,656,35.2235,0.5056, 1709.2148,0.9174,4.355
472,36.833,19.2229,662,35.959,0.5199, 1758.2596,0.9139,4.3672
473,37.935,18.7143,689,37.8341,0.4972, 1873.0448,0.9087,4.3777
474,36.115,19.4093,643,38.0315,0.5414, 1915.7449,0.9017,4.3857
475,36.545,19.1826,651,36.7245,0.5039, 1888.6046,0.8942,4.3859
476,36.783,19.2737,666,35.4705,0.5197, 1865.9658,0.8859,4.383
477,35.964,19.5611,641,35.2017,0.521, 1896.1705,0.8771,4.3797
478,36.033,19.6423,646,35.1952,0.518, 1932.8401,0.8713,4.3789
479,33.726,20.2341,588,34.5935,0.5472, 1941.3239,0.8666,4.3715
480,33.809,20.2502,594,33.4594,0.5406, 1896.8768,0.865,4.3598
481,33.767,20.2497,591,32.5644,0.542, 1860.6746,0.8654,4.3398
482,34.286,19.8508,593,34.0123,0.5466, 1942.7949,0.8646,4.3277
483,34.419,20.0988,604,35.4464,0.5346, 2034.9844,0.8646,4.3086
484,34.085,20.1224,592,35.2717,0.5402, 2028.8636,0.8627,4.2929
485,34.15,20.1555,598,33.5049,0.534, 1927.6733,0.8599,4.2962
486,34.526,20.0211,606,33.5761,0.527, 1956.566,0.8573,4.2932
487,33.375,20.2261,570,33.8302,0.5534, 1988.1534,0.8514,4.2923
488,34.312,20.2096,603,34.1441,0.5443, 2026.6771,0.8445,4.3005
489,31.711,20.7612,543,32.8917,0.5762, 1982.8757,0.8396,4.3091
490,32.924,20.3364,559,31.821,0.5487, 1933.2583,0.8395,4.3176
491,32.946,20.2727,558,32.1381,0.5514, 1967.8201,0.8353,4.3282
492,31.777,20.616,538,32.4165,0.5541, 1992.1182,0.8347,4.3326
493,32.099,20.4146,539,32.5205,0.5502, 2001.4902,0.8384,4.3267
494,32.826,20.3116,559,32.6175,0.5313, 1991.4701,0.8435,4.3192
495,32.534,20.4895,557,32.7528,0.5327, 1974.0256,0.8506,4.3116
496,33.677,19.9773,574,34.1986,0.5344, 2040.9844,0.8531,4.3078
497,33.67,20.1847,576,34.924,0.5169, 2069.3916,0.8556,4.2956
498,32.937,20.4166,569,32.099,0.5655, 1878.5299,0.8597,4.2916
499,34.298,19.8232,589,33.969,0.5399, 1967.0453,0.8671,4.2882
