func,1,2,3,4,5,6,7,8,9,10
ignore,1.549,1.341,1.178,1.073,0.900,0.946,1.337,1.460,1.274,1.175
linear_punish,1.779,1.117,1.104,1.185,0.978,1.192,1.094,1.131,1.158,0.891
uniform_punish,1.579,1.206,1.292,0.930,1.223,1.042,1.461,1.408,0.937,0.889
clip,2.033,1.954,2.200,1.951,1.682,1.973,1.768,2.095,2.000,1.882
regular,2.419,2.553,2.194,2.338,2.612,2.223,2.370,2.186,2.434,2.336
