func,1,2,3,4,5,6,7,8,9,10
ignore,1.549399971961975,1.3410999774932861,1.1777000427246094,1.0734000205993652,0.9003999829292297,0.9455000162124634,1.3365999460220337,1.4596999883651733,1.2742999792099,1.1748000383377075
linear_punish,1.7793999910354614,1.1169999837875366,1.1038000583648682,1.1852999925613403,0.9775000214576721,1.1917999982833862,1.0943000316619873,1.1305999755859375,1.158400058746338,0.8914999961853027
uniform_punish,1.579200029373169,1.2058000564575195,1.291700005531311,0.930400013923645,1.2232999801635742,1.041700005531311,1.4606000185012817,1.4083000421524048,0.9369999766349792,0.8888999819755554
clip,2.0327999591827393,1.9537999629974365,2.200000047683716,1.951300024986267,1.6820000410079956,1.9731999635696411,1.7684999704360962,2.095400094985962,1.9996999502182007,1.881600022315979
regular,2.418800115585327,2.553100109100342,2.1940999031066895,2.3378000259399414,2.6119000911712646,2.2230000495910645,2.3703999519348145,2.1863999366760254,2.4337000846862793,2.3361001014709473
