iteration,1,2,3,4,5,6,7,8,9,10,11
0,0.665, 0.20597014925373133, nan, nan, nan, nan, nan, nan, nan, nan, 0.266
5,0.647, 0.21813031161473087, nan, nan, nan, nan, nan, nan, nan, nan, 0.276
10,0.682, 0.2138364779874214, nan, nan, nan, nan, nan, nan, nan, nan, 0.25
15,0.667, 0.16216216216216217, nan, nan, nan, nan, nan, nan, nan, nan, 0.279
20,0.648, 0.2159090909090909, nan, nan, nan, nan, nan, nan, nan, nan, 0.276
25,0.645, 0.2084507042253521, nan, nan, nan, nan, nan, nan, nan, nan, 0.281
30,0.676, 0.21604938271604937, nan, nan, nan, nan, nan, nan, nan, nan, 0.254
35,0.673, 0.24770642201834864, nan, nan, nan, nan, nan, nan, nan, nan, 0.246
40,0.643, 0.20728291316526612, nan, nan, nan, nan, nan, nan, nan, nan, 0.283
45,0.68, 0.209375, nan, nan, nan, nan, nan, nan, nan, nan, 0.253
50,0.639, 0.2188365650969529, nan, nan, nan, nan, nan, nan, nan, nan, 0.282
55,0.655, 0.2289855072463768, nan, nan, nan, nan, nan, nan, nan, nan, 0.266
60,0.677, 0.21981424148606812, nan, nan, nan, nan, nan, nan, nan, nan, 0.252
65,0.671, 0.20364741641337386, nan, nan, nan, nan, nan, nan, nan, nan, 0.262
70,0.663, 0.23738872403560832, nan, nan, nan, nan, nan, nan, nan, nan, 0.257
75,0.645, 0.19154929577464788, nan, nan, nan, nan, nan, nan, nan, nan, 0.287
80,0.694, 0.21895424836601307, nan, nan, nan, nan, nan, nan, nan, nan, 0.239
85,0.658, 0.2134502923976608, nan, nan, nan, nan, nan, nan, nan, nan, 0.269
90,0.663, 0.228486646884273, nan, nan, nan, nan, nan, nan, nan, nan, 0.26
95,0.662, 0.20118343195266272, nan, nan, nan, nan, nan, nan, nan, nan, 0.27
100,0.647, 0.18980169971671387, nan, nan, nan, nan, nan, nan, nan, nan, 0.286
105,0.688, 0.25, nan, nan, nan, nan, nan, nan, nan, nan, 0.234
110,0.675, 0.17846153846153845, nan, nan, nan, nan, nan, nan, nan, nan, 0.267
115,0.663, 0.21364985163204747, nan, nan, nan, nan, nan, nan, nan, nan, 0.265
120,0.675, 0.2153846153846154, 0.00392156862745098, nan, nan, nan, nan, nan, nan, nan, 0.254
125,0.656, 0.2063953488372093, nan, nan, nan, nan, nan, nan, nan, nan, 0.273
130,0.623, 0.21220159151193635, 0.006734006734006734, nan, nan, nan, nan, nan, nan, nan, 0.295
135,0.649, 0.23076923076923078, nan, nan, nan, nan, nan, nan, nan, nan, 0.27
140,0.649, 0.23076923076923078, 0.007407407407407408, nan, nan, nan, nan, nan, nan, nan, 0.268
145,0.642, 0.16759776536312848, 0.003355704697986577, nan, nan, nan, nan, nan, nan, nan, 0.297
150,0.652, 0.21551724137931033, nan, nan, nan, nan, nan, nan, nan, nan, 0.273
155,0.669, 0.1903323262839879, 0.007462686567164179, nan, nan, nan, nan, nan, nan, nan, 0.266
160,0.641, 0.21727019498607242, 0.0071174377224199285, nan, nan, nan, nan, nan, nan, nan, 0.279
165,0.638, 0.1712707182320442, 0.006666666666666667, nan, nan, nan, nan, nan, nan, nan, 0.298
170,0.627, 0.20911528150134048, 0.010169491525423728, nan, nan, nan, nan, nan, nan, nan, 0.292
175,0.635, 0.21643835616438356, 0.013986013986013986, nan, nan, nan, nan, nan, nan, nan, 0.282
180,0.665, 0.17313432835820897, 0.01444043321299639, nan, nan, nan, nan, nan, nan, nan, 0.273
185,0.641, 0.2200557103064067, 0.02142857142857143, nan, nan, nan, nan, nan, nan, nan, 0.274
190,0.639, 0.17174515235457063, 0.013377926421404682, nan, nan, nan, nan, nan, nan, nan, 0.295
195,0.637, 0.19834710743801653, 0.006872852233676976, nan, nan, nan, nan, nan, nan, nan, 0.289
200,0.641, 0.19220055710306408, 0.020689655172413793, nan, nan, nan, nan, nan, nan, nan, 0.284
205,0.62, 0.1631578947368421, 0.015723270440251572, nan, nan, nan, nan, nan, nan, nan, 0.313
210,0.624, 0.18351063829787234, 0.006514657980456026, nan, nan, nan, nan, nan, nan, nan, 0.305
215,0.602, 0.1507537688442211, 0.020710059171597635, nan, nan, nan, nan, nan, nan, nan, 0.331
220,0.617, 0.1566579634464752, 0.021671826625386997, nan, nan, nan, nan, nan, nan, nan, 0.316
225,0.652, 0.1206896551724138, 0.02287581699346405, nan, nan, nan, nan, nan, nan, nan, 0.299
230,0.601, 0.15789473684210525, 0.01488095238095238, nan, nan, nan, nan, nan, nan, nan, 0.331
235,0.622, 0.1164021164021164, 0.029940119760479042, nan, nan, nan, nan, nan, nan, nan, 0.324
240,0.584, 0.1201923076923077, 0.01912568306010929, nan, nan, nan, nan, nan, nan, nan, 0.359
245,0.592, 0.15931372549019607, 0.026239067055393587, nan, nan, nan, nan, nan, nan, nan, 0.334
250,0.606, 0.1700507614213198, 0.021406727828746176, nan, nan, nan, nan, nan, nan, nan, 0.32
255,0.6, 0.1325, 0.03170028818443804, nan, nan, nan, nan, nan, nan, nan, 0.336
260,0.593, 0.11547911547911548, 0.013888888888888888, nan, nan, nan, nan, nan, nan, nan, 0.355
265,0.581, 0.10978520286396182, 0.021447721179624665, nan, nan, nan, nan, nan, nan, nan, 0.365
270,0.577, 0.14893617021276595, 0.022222222222222223, nan, nan, nan, nan, nan, nan, nan, 0.352
275,0.606, 0.12436548223350254, 0.014492753623188406, nan, nan, nan, nan, nan, nan, nan, 0.34
280,0.602, 0.12814070351758794, 0.01440922190201729, nan, nan, nan, nan, nan, nan, nan, 0.342
285,0.553, 0.12080536912751678, 0.007633587786259542, nan, nan, nan, nan, nan, nan, nan, 0.39
290,0.571, 0.1258741258741259, 0.010666666666666666, nan, nan, nan, nan, nan, nan, nan, 0.371
295,0.548, 0.09070796460176991, 0.009732360097323601, nan, nan, nan, nan, nan, nan, nan, 0.407
300,0.566, 0.10138248847926268, 0.017948717948717947, nan, nan, nan, nan, nan, nan, nan, 0.383
305,0.575, 0.10352941176470588, 0.010498687664041995, nan, nan, nan, nan, nan, nan, nan, 0.377
310,0.55, 0.08666666666666667, 0.019464720194647202, nan, nan, nan, nan, nan, nan, nan, 0.403
315,0.565, 0.10114942528735632, 0.020460358056265986, nan, nan, nan, nan, nan, nan, nan, 0.383
320,0.552, 0.10491071428571429, 0.014962593516209476, nan, nan, nan, nan, nan, nan, nan, 0.395
325,0.555, 0.1303370786516854, 0.025839793281653745, nan, nan, nan, nan, nan, nan, nan, 0.377
330,0.512, 0.09631147540983606, 0.009070294784580499, nan, nan, nan, nan, nan, nan, nan, 0.437
335,0.548, 0.08849557522123894, 0.014563106796116505, nan, nan, nan, nan, nan, nan, nan, 0.406
340,0.501, 0.11022044088176353, 0.0045045045045045045, nan, nan, nan, nan, nan, nan, nan, 0.442
345,0.514, 0.09876543209876543, 0.0182648401826484, nan, nan, nan, nan, nan, nan, nan, 0.43
350,0.52, 0.0875, 0.02054794520547945, nan, nan, nan, nan, nan, nan, nan, 0.429
355,0.485, 0.08349514563106795, 0.025423728813559324, nan, nan, nan, nan, nan, nan, nan, 0.46
360,0.549, 0.10421286031042129, 0.009900990099009901, nan, nan, nan, nan, nan, nan, nan, 0.4
365,0.507, 0.09127789046653144, 0.026785714285714284, nan, nan, nan, nan, nan, nan, nan, 0.436
370,0.498, 0.10358565737051793, 0.011111111111111112, nan, nan, nan, nan, nan, nan, nan, 0.445
375,0.469, 0.07156308851224105, 0.008113590263691683, nan, nan, nan, nan, nan, nan, nan, 0.489
380,0.497, 0.09940357852882704, 0.008830022075055188, nan, nan, nan, nan, nan, nan, nan, 0.449
385,0.462, 0.10594795539033457, 0.016632016632016633, nan, nan, nan, nan, nan, nan, nan, 0.473
390,0.47, 0.06415094339622641, 0.020161290322580645, nan, nan, nan, nan, nan, nan, nan, 0.486
395,0.503, 0.07042253521126761, 0.017316017316017316, nan, nan, nan, nan, nan, nan, nan, 0.454
400,0.465, 0.08598130841121496, 0.014314928425357873, nan, nan, nan, nan, nan, nan, nan, 0.482
405,0.476, 0.08587786259541985, 0.006263048016701462, nan, nan, nan, nan, nan, nan, nan, 0.476
410,0.453, 0.10420475319926874, 0.01020408163265306, nan, nan, nan, nan, nan, nan, nan, 0.485
415,0.45, 0.08181818181818182, 0.015841584158415842, nan, nan, nan, nan, nan, nan, nan, 0.497
420,0.44, 0.08392857142857142, 0.01364522417153996, nan, nan, nan, nan, nan, nan, nan, 0.506
425,0.462, 0.09479553903345725, 0.022587268993839837, nan, nan, nan, nan, nan, nan, nan, 0.476
430,0.453, 0.07495429616087751, 0.01383399209486166, nan, nan, nan, nan, nan, nan, nan, 0.499
435,0.437, 0.08703374777975133, 0.007782101167315175, nan, nan, nan, nan, nan, nan, nan, 0.51
440,0.47, 0.08490566037735849, 0.006185567010309278, nan, nan, nan, nan, nan, nan, nan, 0.482
445,0.422, 0.08996539792387544, 0.019011406844106463, nan, nan, nan, nan, nan, nan, nan, 0.516
450,0.441, 0.09123434704830054, 0.015748031496062992, nan, nan, nan, nan, nan, nan, nan, 0.5
455,0.438, 0.10498220640569395, 0.009940357852882704, nan, nan, nan, nan, nan, nan, nan, 0.498
460,0.425, 0.07652173913043478, 0.011299435028248588, nan, nan, nan, nan, nan, nan, nan, 0.525
465,0.419, 0.0981067125645439, 0.01717557251908397, nan, nan, nan, nan, nan, nan, nan, 0.515
470,0.424, 0.07118055555555555, 0.009345794392523364, nan, nan, nan, nan, nan, nan, nan, 0.53
475,0.42, 0.09827586206896552, 0.021032504780114723, nan, nan, nan, nan, nan, nan, nan, 0.512
480,0.416, 0.09417808219178082, 0.011342155009451797, nan, nan, nan, nan, nan, nan, nan, 0.523
485,0.445, 0.07027027027027027, 0.01744186046511628, nan, nan, nan, nan, nan, nan, nan, 0.507
490,0.403, 0.08207705192629816, 0.009124087591240875, nan, nan, nan, nan, nan, nan, nan, 0.543
495,0.423, 0.06239168110918544, 0.012939001848428836, nan, nan, nan, nan, nan, nan, nan, 0.534
