iteration,mean,pred_mean,abs_mean_diff,r2,residual
0,27.901,26.3518,1.549199999999999,-0.00212532909647023,1.549199999999999
1,26.8049,26.9624,0.15749999999999886,0.011684069904044025,-0.15749999999999886
2,27.9267,27.4903,0.436399999999999,0.0181817012951222,0.436399999999999
3,25.8139,27.5387,1.7247999999999983,0.03108788564209397,-1.7247999999999983
4,27.2934,27.898,0.6046000000000014,0.04338959751211502,-0.6046000000000014
5,27.1184,27.3748,0.2563999999999993,0.03673132464236173,-0.2563999999999993
6,26.8079,28.4171,1.6092000000000013,0.06780787480200356,-1.6092000000000013
7,27.088,28.6834,1.595399999999998,0.11757600351959385,-1.595399999999998
8,26.0654,26.9607,0.8952999999999989,0.14414437055207963,-0.8952999999999989
9,26.868,29.611,2.743000000000002,0.18690989800326352,-2.743000000000002
10,27.5514,29.447,1.8955999999999982,0.12499284341617001,-1.8955999999999982
11,27.291,28.3567,1.0656999999999996,0.18568821953546644,-1.0656999999999996
12,25.7786,24.4927,1.2859000000000016,0.15534680051518834,1.2859000000000016
13,26.4365,27.0582,0.6217000000000006,0.18198860946102946,-0.6217000000000006
14,27.0775,30.4103,3.332799999999999,0.20203331947066605,-3.332799999999999
15,26.671,29.0014,2.330400000000001,0.14566419836986566,-2.330400000000001
16,26.7699,28.2241,1.4542000000000002,0.1827241857763443,-1.4542000000000002
17,26.4615,26.2331,0.2284000000000006,0.17780204553600953,0.2284000000000006
18,26.1456,24.8508,1.2948000000000022,0.16968130003329318,1.2948000000000022
19,26.163,24.973,1.1900000000000013,0.1954124812379574,1.1900000000000013
20,26.5588,25.5504,1.0084000000000017,0.14548768630795306,1.0084000000000017
21,26.1377,26.5458,0.408100000000001,0.18250258364611982,-0.408100000000001
22,25.6038,26.7878,1.184000000000001,0.19294305462940675,-1.184000000000001
23,26.3402,26.7023,0.36210000000000164,0.23445703975355991,-0.36210000000000164
24,26.1255,25.1889,0.9365999999999985,0.1892897091330581,0.9365999999999985
25,26.6401,24.7679,1.8721999999999994,0.13753682613376583,1.8721999999999994
26,26.2415,25.3705,0.8709999999999987,0.1725700657739433,0.8709999999999987
27,26.0888,25.8642,0.2245999999999988,0.18292500596538808,0.2245999999999988
28,25.5677,25.2278,0.3399000000000001,0.17340361471288557,0.3399000000000001
29,24.7367,23.6413,1.095399999999998,0.20814737732143984,1.095399999999998
30,26.0017,23.159,2.8427000000000007,0.16272075975851186,2.8427000000000007
31,24.8772,24.4478,0.42939999999999756,0.18360440197475503,0.42939999999999756
32,25.4186,26.1213,0.7027000000000001,0.178598365282438,-0.7027000000000001
33,24.8475,25.3058,0.45830000000000126,0.20269082982949238,-0.45830000000000126
34,25.1604,24.2434,0.916999999999998,0.20617800886051108,0.916999999999998
35,25.4425,22.7654,2.6770999999999994,0.18143037202442014,2.6770999999999994
36,25.1995,23.1598,2.0397,0.20892855093903928,2.0397
37,25.5993,24.7461,0.8532000000000011,0.1991267491215003,0.8532000000000011
38,25.0816,25.0982,0.01659999999999684,0.203808110069977,-0.01659999999999684
39,24.9817,24.5334,0.4482999999999997,0.1935614334545801,0.4482999999999997
40,26.0706,23.7159,2.3546999999999976,0.17294713635741266,2.3546999999999976
41,24.8703,23.5473,1.3230000000000004,0.18547942541878804,1.3230000000000004
42,25.4279,23.9158,1.5121000000000002,0.20688265772311198,1.5121000000000002
43,25.4175,24.2852,1.1323000000000008,0.19832379890336638,1.1323000000000008
44,24.6797,24.7978,0.11809999999999832,0.22058653278882034,-0.11809999999999832
45,26.2127,24.6104,1.6023000000000032,0.19092269109246562,1.6023000000000032
46,24.6925,23.2036,1.4888999999999974,0.21046867738965735,1.4888999999999974
47,25.0962,23.6143,1.4818999999999996,0.19763608267037247,1.4818999999999996
48,25.4371,24.2688,1.1683000000000021,0.21213062880450695,1.1683000000000021
49,25.0726,24.323,0.7496000000000009,0.24107049779036538,0.7496000000000009
50,25.9144,24.7106,1.203800000000001,0.18645766815604015,1.203800000000001
51,25.4123,25.1352,0.27709999999999724,0.1935925391883151,0.27709999999999724
52,24.8555,23.8074,1.048099999999998,0.21405009976210654,1.048099999999998
53,25.3574,23.641,1.7164000000000001,0.22358243397645206,1.7164000000000001
54,24.7517,24.4661,0.28559999999999874,0.2602156629847451,0.28559999999999874
55,26.1296,26.0484,0.08119999999999905,0.1798090367770252,0.08119999999999905
56,25.0855,25.3797,0.2942,0.20029255460256346,-0.2942
57,24.971,23.9156,1.0553999999999988,0.22031929280766505,1.0553999999999988
58,25.8257,23.4694,2.356300000000001,0.22675505699423204,2.356300000000001
59,24.5211,24.1045,0.41659999999999897,0.25058813182961337,0.41659999999999897
60,25.4209,26.079,0.658100000000001,0.20381517050335796,-0.658100000000001
61,25.2824,26.2686,0.9862000000000002,0.22276130417604845,-0.9862000000000002
62,25.3792,24.8588,0.5204000000000022,0.23456955128184953,0.5204000000000022
63,24.5155,22.8469,1.6685999999999979,0.23236419941982578,1.6685999999999979
64,24.4768,23.289,1.1877999999999993,0.2255723259613247,1.1877999999999993
65,24.9406,24.0379,0.9026999999999994,0.22010092104065093,0.9026999999999994
66,24.8859,25.1712,0.28529999999999944,0.23103955196145853,-0.28529999999999944
67,24.4893,25.0247,0.5353999999999992,0.22935259405322173,-0.5353999999999992
68,24.8952,24.468,0.42719999999999914,0.2689718910888581,0.42719999999999914
69,25.0433,24.3464,0.6968999999999994,0.25754990558965085,0.6968999999999994
70,25.6878,24.2164,1.4713999999999992,0.2064240454772317,1.4713999999999992
71,24.1887,23.5375,0.6511999999999993,0.27589756696604706,0.6511999999999993
72,24.9886,24.9474,0.041200000000003456,0.25155712715941503,0.041200000000003456
73,25.4787,25.9362,0.4574999999999996,0.27355805559740265,-0.4574999999999996
74,24.7574,25.1177,0.36029999999999873,0.260730098610241,-0.36029999999999873
75,25.21,23.9139,1.2960999999999991,0.22539969953037653,1.2960999999999991
76,24.8444,23.6675,1.1768999999999998,0.22906857570031602,1.1768999999999998
77,25.5319,24.6394,0.8925000000000018,0.2563204888919943,0.8925000000000018
78,24.6034,25.9627,1.359300000000001,0.23392671749771043,-1.359300000000001
79,24.9784,25.5457,0.5672999999999995,0.28034843379959273,-0.5672999999999995
80,25.4369,24.2282,1.2087000000000003,0.24105190816617417,1.2087000000000003
81,24.9577,23.0739,1.8838000000000008,0.2522828914018792,1.8838000000000008
82,24.9069,24.1729,0.7340000000000018,0.2545572501619844,0.7340000000000018
83,25.1919,26.5011,1.3092000000000006,0.24247617418217415,-1.3092000000000006
84,24.6639,26.819,2.1550999999999974,0.23664733329990995,-2.1550999999999974
85,25.5401,25.5853,0.04520000000000124,0.2517496833481765,-0.04520000000000124
86,25.2974,23.8927,1.4046999999999983,0.2745816500761684,1.4046999999999983
87,24.9153,24.3147,0.6006,0.27642599217556074,0.6006
88,24.9222,25.9754,1.0532000000000004,0.2799904051665545,-1.0532000000000004
89,23.9755,24.3933,0.4177999999999997,0.26347657237472244,-0.4177999999999997
90,25.5228,24.3789,1.1438999999999986,0.24332266542414516,1.1438999999999986
91,24.9068,24.6314,0.2754000000000012,0.24876785990445727,0.2754000000000012
92,25.1765,26.2579,1.0813999999999986,0.2806249334111278,-1.0813999999999986
93,25.3194,25.9399,0.6204999999999998,0.27836482171127475,-0.6204999999999998
94,25.3343,24.4848,0.849499999999999,0.2681450955876796,0.849499999999999
95,25.8501,24.3829,1.4672000000000018,0.24627707681084865,1.4672000000000018
96,25.2615,25.1478,0.11370000000000147,0.25276597541387413,0.11370000000000147
97,25.2709,26.2752,1.0043000000000006,0.26986189263133575,-1.0043000000000006
98,25.3946,26.5914,1.1967999999999996,0.2752076355843692,-1.1967999999999996
99,24.8042,24.4344,0.36980000000000146,0.27092110041963846,0.36980000000000146
100,25.7272,23.9954,1.7317999999999998,0.2672948427501709,1.7317999999999998
101,25.288,25.138,0.14999999999999858,0.2777442168179348,0.14999999999999858
102,25.3273,26.2562,0.9288999999999987,0.2665802011564392,-0.9288999999999987
103,25.1296,26.4248,1.2952000000000012,0.2787580706464553,-1.2952000000000012
104,25.0125,25.3842,0.3717000000000006,0.27790155297186037,-0.3717000000000006
105,25.6402,24.6779,0.962299999999999,0.2520564786370747,0.962299999999999
106,24.4803,23.8184,0.6618999999999993,0.2831926651427472,0.6618999999999993
107,24.695,24.6843,0.010699999999999932,0.273591816631394,0.010699999999999932
108,25.5565,26.5616,1.0050999999999988,0.2698551774257454,-1.0050999999999988
109,25.0176,26.2897,1.2720999999999982,0.27839249704301705,-1.2720999999999982
110,25.5186,24.9007,0.6178999999999988,0.2346585944881635,0.6178999999999988
111,25.2104,24.0617,1.1487000000000016,0.2904601832806397,1.1487000000000016
112,24.5799,23.9613,0.6185999999999972,0.2928320120992901,0.6185999999999972
113,23.7878,24.8001,1.0122999999999998,0.287554444287176,-1.0122999999999998
114,25.1172,25.5911,0.47390000000000043,0.2581070011377842,-0.47390000000000043
115,25.7025,25.4604,0.24210000000000065,0.27114973435931866,0.24210000000000065
116,25.0293,24.5631,0.4662000000000006,0.2818355688456864,0.4662000000000006
117,24.8248,24.731,0.09379999999999811,0.28912584272753217,0.09379999999999811
118,24.7061,25.502,0.7958999999999996,0.3111634500016853,-0.7958999999999996
119,25.0957,25.2752,0.17950000000000088,0.27725683334394824,-0.17950000000000088
120,25.6164,25.483,0.1333999999999982,0.2700048515561059,0.1333999999999982
121,25.4936,24.9646,0.5289999999999999,0.29698665666787305,0.5289999999999999
122,25.2275,24.918,0.3094999999999999,0.2844668223036424,0.3094999999999999
123,24.4266,24.8006,0.3739999999999988,0.30644420663042227,-0.3739999999999988
124,24.4451,24.5803,0.1352000000000011,0.31021287020789357,-0.1352000000000011
125,26.0072,25.932,0.07520000000000238,0.28225792155637286,0.07520000000000238
126,24.5934,25.4386,0.845200000000002,0.2830436490818864,-0.845200000000002
127,24.7334,24.8855,0.1521000000000008,0.2908537775597082,-0.1521000000000008
128,24.5551,23.8386,0.7164999999999999,0.2889530245573515,0.7164999999999999
129,24.6023,23.7652,0.8370999999999995,0.3282655159527552,0.8370999999999995
130,25.8841,26.5975,0.7134,0.26615645466428384,-0.7134
131,25.3889,26.7824,1.3934999999999995,0.29047781396339556,-1.3934999999999995
132,24.3222,23.7919,0.5303000000000004,0.29681809618235955,0.5303000000000004
133,24.0586,21.7977,2.2608999999999995,0.295183523325956,2.2608999999999995
134,24.5625,23.8185,0.7439999999999998,0.3006800882948627,0.7439999999999998
135,25.7219,27.5273,1.8053999999999988,0.27146331309017,-1.8053999999999988
136,24.5128,26.1901,1.6773000000000025,0.3071724193243821,-1.6773000000000025
137,25.0978,23.7696,1.328199999999999,0.3201983200921218,1.328199999999999
138,25.1308,24.0047,1.126100000000001,0.3096526019963872,1.126100000000001
139,24.2624,25.4774,1.2149999999999999,0.2946318540316437,-1.2149999999999999
140,25.827,26.9266,1.0995999999999988,0.270600150323986,-1.0995999999999988
141,24.718,25.1022,0.3841999999999999,0.3064445500170584,-0.3841999999999999
142,25.7863,24.1858,1.6005000000000003,0.32719599525603804,1.6005000000000003
143,25.1058,24.444,0.6617999999999995,0.3133317731165628,0.6617999999999995
144,24.4113,26.0802,1.6689000000000007,0.2926643774008606,-1.6689000000000007
145,25.884,27.0735,1.189499999999999,0.26765750224347173,-1.189499999999999
146,25.3102,25.8042,0.4940000000000033,0.30215377174833347,-0.4940000000000033
147,25.0309,24.3759,0.6549999999999976,0.31232429666766803,0.6549999999999976
148,24.7538,24.2613,0.4924999999999997,0.2938349617240449,0.4924999999999997
149,24.9929,24.6445,0.34839999999999804,0.3405529343168179,0.34839999999999804
150,25.892,26.0925,0.20050000000000168,0.30517375318839013,-0.20050000000000168
151,24.5886,24.5011,0.08749999999999858,0.3125717581107794,0.08749999999999858
152,24.3422,22.8259,1.5162999999999975,0.30995367301981014,1.5162999999999975
153,25.715,25.1048,0.610199999999999,0.3123093421347197,0.610199999999999
154,24.8858,25.9392,1.0534,0.2972914059027404,-1.0534
155,26.2249,27.3163,1.0913999999999966,0.30129483267884605,-1.0913999999999966
156,25.5575,26.1589,0.6013999999999982,0.2823082663505263,-0.6013999999999982
157,25.4508,23.9503,1.5005000000000024,0.3257734733025386,1.5005000000000024
158,25.1179,24.3971,0.7208000000000006,0.2951254958824949,0.7208000000000006
159,24.4257,25.2006,0.7749000000000024,0.3322518149808197,-0.7749000000000024
160,25.9035,26.5025,0.5990000000000002,0.3182658227803786,-0.5990000000000002
161,24.6471,25.0904,0.4433000000000007,0.30213666241342174,-0.4433000000000007
162,24.9172,23.9336,0.9836000000000027,0.3196103987718075,0.9836000000000027
163,25.3233,25.7116,0.388300000000001,0.31472228062294183,-0.388300000000001
164,25.018,25.6407,0.6226999999999983,0.3056502185228145,-0.6226999999999983
165,26.2319,25.8583,0.3735999999999997,0.2764917661632771,0.3735999999999997
166,24.7174,24.4333,0.28410000000000224,0.29698463190328217,0.28410000000000224
167,25.0932,24.0279,1.0653000000000006,0.3186638706203353,1.0653000000000006
168,25.3826,25.2402,0.14239999999999853,0.29040539989995495,0.14239999999999853
169,25.2444,26.2701,1.0257000000000005,0.3041322814119227,-1.0257000000000005
170,25.731,26.4917,0.7606999999999999,0.2943002241369961,-0.7606999999999999
171,24.9908,24.6768,0.31400000000000006,0.3195680923579305,0.31400000000000006
172,25.0166,23.9806,1.0360000000000014,0.32848101153145504,1.0360000000000014
173,25.4234,25.6701,0.24670000000000059,0.30925874062779013,-0.24670000000000059
174,25.1083,26.2175,1.1092000000000013,0.32430937421086836,-1.1092000000000013
175,26.0675,26.696,0.6285000000000025,0.28785312799799023,-0.6285000000000025
176,24.6608,24.5954,0.0653999999999968,0.3321167957058415,0.0653999999999968
177,24.0765,22.7656,1.3109000000000002,0.3586200938476338,1.3109000000000002
178,25.5862,25.9175,0.3312999999999988,0.3357905708065765,-0.3312999999999988
179,25.1281,26.5746,1.4465000000000003,0.3145403304402812,-1.4465000000000003
180,25.5796,26.1598,0.5802000000000014,0.2868171927330231,-0.5802000000000014
181,25.3474,24.902,0.44539999999999935,0.32432022202771205,0.44539999999999935
182,25.2516,24.2689,0.9827000000000012,0.3094769537378619,0.9827000000000012
183,25.7437,25.4333,0.31040000000000134,0.3493778405088903,0.31040000000000134
184,25.2954,26.2515,0.9560999999999993,0.3249650334353722,-0.9560999999999993
185,25.15,25.749,0.5990000000000002,0.30015446762931774,-0.5990000000000002
186,24.514,23.9439,0.5701,0.3087154416323392,0.5701
187,25.9115,24.5597,1.3518000000000008,0.3076699757503779,1.3518000000000008
188,25.462,25.7396,0.2775999999999996,0.3259240785464539,-0.2775999999999996
189,25.1693,25.757,0.5877000000000017,0.3270206257721169,-0.5877000000000017
190,25.6745,25.3509,0.323599999999999,0.27951605279893244,0.323599999999999
191,24.6368,24.631,0.0058000000000006935,0.32019833055718616,0.0058000000000006935
192,25.3841,26.1203,0.7362000000000002,0.31416519580821667,-0.7362000000000002
193,25.3733,26.5902,1.216899999999999,0.31910935665068085,-1.216899999999999
194,25.1803,25.6788,0.49849999999999994,0.31382137933049525,-0.49849999999999994
195,25.8652,25.0113,0.853900000000003,0.29064416474248844,0.853900000000003
196,24.8673,23.8155,1.0518,0.3111716708274207,1.0518
197,25.6622,25.6184,0.0437999999999974,0.3312068550127595,0.0437999999999974
198,24.3838,25.79,1.4061999999999983,0.31681131101639903,-1.4061999999999983
199,24.3916,23.9526,0.43900000000000006,0.3394123044386914,0.43900000000000006
200,25.9613,24.7744,1.1869000000000014,0.3128771480154513,1.1869000000000014
201,24.5937,25.0278,0.4341000000000008,0.31765740678627064,-0.4341000000000008
202,24.624,24.7784,0.15440000000000254,0.33307725036648694,-0.15440000000000254
203,24.0188,24.1833,0.1645000000000003,0.30042469276378836,-0.1645000000000003
204,24.2581,24.6434,0.38530000000000086,0.3079010749637068,-0.38530000000000086
205,25.8607,25.9989,0.13819999999999766,0.29484842862917937,-0.13819999999999766
206,25.1969,25.9733,0.7763999999999989,0.3283823923888761,-0.7763999999999989
207,25.7639,25.1541,0.6097999999999999,0.33628387167636986,0.6097999999999999
208,25.5302,25.2674,0.26280000000000214,0.345087650482501,0.26280000000000214
209,24.3739,24.4071,0.033200000000000784,0.3301658491439219,-0.033200000000000784
210,25.5594,25.3396,0.21979999999999933,0.2993366370473268,0.21979999999999933
211,25.5292,25.7847,0.2555000000000014,0.3208495870913335,-0.2555000000000014
212,24.499,24.3572,0.14179999999999993,0.3453561679955943,0.14179999999999993
213,24.9541,24.7968,0.15729999999999933,0.3261475387438705,0.15729999999999933
214,24.7009,25.4927,0.7917999999999985,0.34666742081828894,-0.7917999999999985
215,25.3337,25.8869,0.5532000000000004,0.30402990250215634,-0.5532000000000004
216,25.2146,25.5071,0.2925000000000004,0.310583610257128,-0.2925000000000004
217,24.613,23.8387,0.7743000000000002,0.3391269333468788,0.7743000000000002
218,24.986,23.5789,1.4070999999999998,0.3662525426718065,1.4070999999999998
219,24.2565,24.2767,0.02020000000000266,0.32028811589281736,-0.02020000000000266
220,25.8946,27.1632,1.2685999999999993,0.29691504899444954,-1.2685999999999993
221,24.5157,26.0199,1.5042000000000009,0.31752898110695194,-1.5042000000000009
222,24.7453,23.1557,1.5896000000000008,0.3277377312284213,1.5896000000000008
223,24.6521,23.1938,1.4583000000000013,0.35450574181217387,1.4583000000000013
224,23.995,24.3045,0.3094999999999999,0.34270202398027805,-0.3094999999999999
225,24.8169,25.7072,0.8902999999999999,0.3280566299515665,-0.8902999999999999
226,25.0617,25.4863,0.42460000000000164,0.32779931217596436,-0.42460000000000164
227,24.8134,24.0637,0.7497000000000007,0.31377603089131656,0.7497000000000007
228,24.7438,24.5571,0.18670000000000186,0.33397125312703635,0.18670000000000186
229,25.2981,26.0058,0.7076999999999991,0.31740688015764806,-0.7076999999999991
230,24.7399,25.5293,0.7894000000000005,0.3101609889885245,-0.7894000000000005
231,25.0037,24.2103,0.7933999999999983,0.3309281575280578,0.7933999999999983
232,25.0319,24.404,0.6279000000000003,0.33820541451223785,0.6279000000000003
233,24.5867,25.6827,1.096,0.3321008739855982,-1.096
234,25.2811,25.9683,0.6872000000000007,0.35492316009648783,-0.6872000000000007
235,26.013,25.7803,0.23270000000000124,0.2977258832887334,0.23270000000000124
236,24.6936,24.4348,0.2588000000000008,0.3373421001933675,0.2588000000000008
237,25.6186,25.2319,0.38670000000000115,0.3529945370502262,0.38670000000000115
238,24.8726,25.3536,0.48100000000000165,0.35833751328446617,-0.48100000000000165
239,24.2512,24.0154,0.23580000000000112,0.3542938728820276,0.23580000000000112
240,26.0321,25.5197,0.5123999999999995,0.3044290783917617,0.5123999999999995
241,24.5887,25.6797,1.091000000000001,0.3501157793809022,-1.091000000000001
242,24.8806,25.1186,0.23799999999999955,0.34015555145128573,-0.23799999999999955
243,25.3666,24.9684,0.3981999999999992,0.36018832951889523,0.3981999999999992
244,25.0907,25.8259,0.7352000000000025,0.323333640461581,-0.7352000000000025
245,26.0581,26.5243,0.4662000000000006,0.3315712037678151,-0.4662000000000006
246,25.1186,24.709,0.4096000000000011,0.374039039986801,0.4096000000000011
247,25.874,24.7106,1.1633999999999993,0.33240950746921205,1.1633999999999993
248,25.1816,25.4734,0.29180000000000206,0.34444476884394093,-0.29180000000000206
249,25.0799,26.252,1.1721000000000004,0.36093658196882905,-1.1721000000000004
250,25.6051,26.1353,0.5302000000000007,0.3239185637799079,-0.5302000000000007
251,24.701,23.3438,1.3571999999999989,0.3292410026655104,1.3571999999999989
252,25.4052,24.5342,0.8710000000000022,0.3255159229902419,0.8710000000000022
253,25.5595,27.8969,2.337399999999999,0.3119064423087362,-2.337399999999999
254,24.9618,26.8124,1.8506,0.36409760703493144,-1.8506
255,25.8728,24.4859,1.3869000000000007,0.31281283258240344,1.3869000000000007
256,25.3092,23.2637,2.0455000000000005,0.3276301373530278,2.0455000000000005
257,25.5818,26.0231,0.44129999999999825,0.3487200113297586,-0.44129999999999825
258,24.7406,26.7145,1.9739000000000004,0.3293373738025308,-1.9739000000000004
259,25.2149,25.5194,0.3045000000000009,0.3399954505849594,-0.3045000000000009
260,25.229,23.7026,1.5263999999999989,0.32009304342164835,1.5263999999999989
261,24.8331,23.8547,0.9784000000000006,0.33990410866669873,0.9784000000000006
262,24.457,24.8102,0.3531999999999975,0.36803348378809564,-0.3531999999999975
263,25.1785,26.1136,0.935100000000002,0.33570092261585216,-0.935100000000002
264,24.4133,24.537,0.12369999999999948,0.3527139969864428,-0.12369999999999948
265,25.5005,24.8802,0.6203000000000003,0.3056476955232619,0.6203000000000003
266,24.7422,24.4304,0.31180000000000163,0.31829595568410374,0.31180000000000163
267,25.018,25.021,0.0030000000000001137,0.32616314754500186,-0.0030000000000001137
268,24.8551,25.386,0.530899999999999,0.334717208013511,-0.530899999999999
269,25.0971,25.8991,0.8019999999999996,0.34645327364473033,-0.8019999999999996
270,25.3592,25.5029,0.14369999999999905,0.30090367547211483,-0.14369999999999905
271,25.0807,24.5926,0.4880999999999993,0.3408186602231915,0.4880999999999993
272,25.479,25.3734,0.10559999999999903,0.350989945254492,0.10559999999999903
273,25.6777,26.4938,0.8160999999999987,0.3589249490043206,-0.8160999999999987
274,24.6411,25.1014,0.46030000000000015,0.35288311910089587,-0.46030000000000015
275,25.937,24.9414,0.9955999999999996,0.3414401288514587,0.9955999999999996
276,24.0201,23.9571,0.06299999999999883,0.3323970989056453,0.06299999999999883
277,25.3879,25.4524,0.06450000000000244,0.34925357915251787,-0.06450000000000244
278,24.3883,25.3592,0.9709000000000003,0.3596404328820709,-0.9709000000000003
279,24.37,24.0283,0.34169999999999945,0.3507448592357373,0.34169999999999945
280,25.5954,24.5643,1.0311000000000021,0.30698402114892887,1.0311000000000021
281,25.6344,26.939,1.3046000000000006,0.293272229587494,-1.3046000000000006
282,25.1257,26.4083,1.2826000000000022,0.36509048669876354,-1.2826000000000022
283,25.1683,24.2495,0.9187999999999974,0.36507334139843495,0.9187999999999974
284,24.9625,23.4593,1.5031999999999996,0.32808863743527295,1.5031999999999996
285,25.4457,25.4583,0.012600000000002609,0.3395937355732628,-0.012600000000002609
286,24.5351,25.7863,1.2512000000000008,0.3255700198605872,-1.2512000000000008
287,24.827,24.9086,0.08159999999999812,0.3646851776833264,-0.08159999999999812
288,25.4119,25.3888,0.023099999999999454,0.3385813492177324,0.023099999999999454
289,25.0405,25.3512,0.3106999999999971,0.35437721697916424,-0.3106999999999971
290,25.7881,25.9308,0.14270000000000138,0.3390121607156854,-0.14270000000000138
291,24.3041,23.6572,0.6468999999999987,0.3595115607572166,0.6468999999999987
292,24.9302,24.26,0.6701999999999977,0.34300789902074336,0.6701999999999977
293,24.4122,24.7259,0.31370000000000076,0.3475307584421521,-0.31370000000000076
294,24.3262,24.593,0.2667999999999999,0.3661176242356,-0.2667999999999999
295,25.4586,25.6712,0.21259999999999835,0.33284733916645415,-0.21259999999999835
296,25.2778,25.2417,0.03609999999999758,0.3677620374332119,0.03609999999999758
297,24.9121,24.2512,0.660899999999998,0.33929717073439025,0.660899999999998
298,25.1227,24.8913,0.23139999999999716,0.3723790083113889,0.23139999999999716
299,24.9105,26.2546,1.344100000000001,0.3570758446931127,-1.344100000000001
300,26.0477,26.7622,0.714500000000001,0.34544185276145345,-0.714500000000001
301,24.8969,24.0138,0.8830999999999989,0.34774923401791813,0.8830999999999989
302,24.7757,23.3221,1.4536000000000016,0.33692244006063166,1.4536000000000016
303,24.9378,25.7277,0.7898999999999994,0.36218456399008625,-0.7898999999999994
304,24.8545,26.9918,2.1372999999999998,0.34884393161109817,-2.1372999999999998
305,25.6723,26.0116,0.3393000000000015,0.32591469353518454,-0.3393000000000015
306,24.7022,22.8179,1.8842999999999996,0.3599492859145358,1.8842999999999996
307,24.6371,23.6289,1.0081999999999987,0.36229885791161076,1.0081999999999987
308,25.0992,27.0559,1.9567000000000014,0.3220829750341859,-1.9567000000000014
309,24.6152,26.7821,2.1668999999999983,0.3704346145853319,-2.1668999999999983
310,25.0552,24.1869,0.8682999999999979,0.3313612579866261,0.8682999999999979
311,25.4622,23.045,2.4171999999999976,0.33160021034322273,2.4171999999999976
312,24.6872,24.5838,0.1034000000000006,0.37213664213374764,0.1034000000000006
313,24.2283,26.207,1.9787,0.3480458877974347,-1.9787
314,24.3599,24.9678,0.6079000000000008,0.33833770932856033,-0.6079000000000008
315,25.667,24.2178,1.4492000000000012,0.33136083238690184,1.4492000000000012
316,24.5945,23.9135,0.6810000000000009,0.36693283217214456,0.6810000000000009
317,25.3957,25.9782,0.5824999999999996,0.37845088577783836,-0.5824999999999996
318,24.7263,26.0074,1.2811000000000021,0.35014784462477244,-1.2811000000000021
319,25.0794,24.5696,0.5097999999999985,0.39319353733401485,0.5097999999999985
320,26.4297,25.834,0.5957000000000008,0.33398499644534996,0.5957000000000008
321,25.0699,25.3147,0.2447999999999979,0.3649013362537208,-0.2447999999999979
322,25.1753,24.6101,0.5652000000000008,0.37907913473051824,0.5652000000000008
323,24.7627,24.7565,0.006199999999999761,0.37059438767517294,0.006199999999999761
324,24.9662,25.3309,0.36469999999999914,0.37814469427578334,-0.36469999999999914
325,26.131,27.1918,1.0608000000000004,0.3362162713294945,-1.0608000000000004
326,25.0251,25.2309,0.20579999999999998,0.34877231700032696,-0.20579999999999998
327,25.0491,23.4805,1.5686,0.3594037304143838,1.5686
328,25.0652,24.0109,1.0543000000000013,0.3805343391858983,1.0543000000000013
329,24.203,25.3157,1.1127000000000002,0.34695212170922063,-1.1127000000000002
330,26.0244,27.1153,1.0909000000000013,0.3435217726523506,-1.0909000000000013
331,25.0278,25.1845,0.15670000000000073,0.3540501316144875,-0.15670000000000073
332,25.0217,23.5071,1.514599999999998,0.3653402670737611,1.514599999999998
333,24.2504,24.0203,0.2301000000000002,0.3512393715170139,0.2301000000000002
334,24.6658,25.623,0.9572000000000003,0.357630879542413,-0.9572000000000003
335,26.0877,27.1425,1.0547999999999966,0.32642860655257144,-1.0547999999999966
336,24.7619,24.7176,0.044299999999999784,0.3386631951205886,0.044299999999999784
337,24.6808,23.2822,1.3986000000000018,0.3511628128304958,1.3986000000000018
338,25.1915,25.5652,0.3736999999999995,0.3845371797898067,-0.3736999999999995
339,24.5103,25.5084,0.9981000000000009,0.3815938325243231,-0.9981000000000009
340,25.6726,25.4648,0.20779999999999887,0.34204889552915707,0.20779999999999887
341,24.6983,23.8467,0.8516000000000012,0.3315904877079262,0.8516000000000012
342,25.1714,24.3959,0.7754999999999974,0.3589828179600171,0.7754999999999974
343,25.3879,26.4534,1.0655000000000001,0.37495297360283697,-1.0655000000000001
344,24.337,24.5581,0.22109999999999985,0.3721629188465039,-0.22109999999999985
345,25.2887,24.7572,0.5314999999999976,0.3263832563867082,0.5314999999999976
346,24.8122,24.5174,0.29480000000000217,0.3479180754149135,0.29480000000000217
347,25.339,25.7344,0.3954000000000022,0.3609533150781802,-0.3954000000000022
348,24.6839,25.6686,0.9847000000000001,0.38156250076796083,-0.9847000000000001
349,24.3711,23.2807,1.090399999999999,0.3917188567776416,1.090399999999999
350,24.8026,24.1737,0.6289000000000016,0.33564531202955383,0.6289000000000016
351,24.7957,26.459,1.6632999999999996,0.3856085828809612,-1.6632999999999996
352,24.8775,25.9153,1.0377999999999972,0.35755292230069924,-1.0377999999999972
353,25.0323,23.9618,1.0704999999999991,0.36170741765088243,1.0704999999999991
354,24.2912,23.1416,1.1495999999999995,0.3663484066261091,1.1495999999999995
355,25.4309,26.6544,1.2234999999999978,0.321788096447465,-1.2234999999999978
356,24.8754,26.3657,1.4903000000000013,0.32495832433138827,-1.4903000000000013
357,25.9162,24.3545,1.5616999999999983,0.3602697936709427,1.5616999999999983
358,24.491,23.2809,1.2101000000000006,0.38859528498467766,1.2101000000000006
359,24.932,26.2158,1.283800000000003,0.3712384872344777,-1.283800000000003
360,25.9124,27.246,1.333599999999997,0.346775934011609,-1.333599999999997
361,25.2972,25.0011,0.29609999999999914,0.36545539296956064,0.29609999999999914
362,24.5569,23.9104,0.6464999999999996,0.3669972479926106,0.6464999999999996
363,25.4447,26.1751,0.7303999999999995,0.3828454543628491,-0.7303999999999995
364,24.8356,25.8969,1.0612999999999992,0.3578456535143528,-1.0612999999999992
365,25.8645,25.5847,0.27979999999999805,0.36455149898627326,0.27979999999999805
366,24.2981,23.6651,0.6330000000000027,0.37363766648677,0.6330000000000027
367,24.5344,24.1743,0.36010000000000275,0.35346825198858034,0.36010000000000275
368,24.4704,25.0165,0.5460999999999991,0.3855770486239082,-0.5460999999999991
369,24.134,24.6509,0.5168999999999997,0.36161230146766055,-0.5168999999999997
370,25.9936,25.598,0.39560000000000173,0.36029792435163954,0.39560000000000173
371,24.975,24.9318,0.04320000000000235,0.36307636089225415,0.04320000000000235
372,24.6227,24.0631,0.5595999999999997,0.3808889777998453,0.5595999999999997
373,24.9049,25.0186,0.11369999999999791,0.3595412422262293,-0.11369999999999791
374,24.5475,24.4181,0.1294000000000004,0.37478894686994857,0.1294000000000004
375,25.8462,25.831,0.015200000000000102,0.36643512685964896,0.015200000000000102
376,24.6517,25.0489,0.397199999999998,0.3884509412529258,-0.397199999999998
377,25.1145,25.2366,0.12209999999999965,0.3888933407218301,-0.12209999999999965
378,25.3235,25.354,0.03049999999999997,0.38522367072867036,-0.03049999999999997
379,24.0517,23.9913,0.06040000000000134,0.37175019694563727,0.06040000000000134
380,25.1762,24.734,0.4421999999999997,0.3366264656385213,0.4421999999999997
381,24.4131,24.4314,0.018299999999999983,0.36884086862039067,-0.018299999999999983
382,25.0774,26.3204,1.2429999999999986,0.37090992422766833,-1.2429999999999986
