iteration,1,2,3,4,5,6,7,8,9,10,11
0,0.561, 0.22095671981776766, 0.02631578947368421, nan, nan, nan, nan, nan, nan, nan, 0.333
5,0.565, 0.1839080459770115, 0.028169014084507043, nan, nan, nan, nan, nan, nan, nan, 0.345
10,0.564, 0.18577981651376146, 0.014084507042253521, nan, nan, nan, nan, nan, nan, nan, 0.35
15,0.571, 0.13986013986013987, 0.016260162601626018, nan, nan, nan, nan, nan, nan, nan, 0.363
20,0.524, 0.15126050420168066, 0.03217821782178218, nan, nan, nan, nan, nan, nan, nan, 0.391
25,0.519, 0.14137214137214138, 0.014527845036319613, nan, nan, nan, nan, nan, nan, nan, 0.407
30,0.528, 0.17372881355932204, 0.020512820512820513, nan, nan, nan, nan, nan, nan, nan, 0.382
35,0.551, 0.12694877505567928, 0.015306122448979591, nan, nan, nan, nan, nan, nan, nan, 0.386
40,0.539, 0.1648590021691974, 0.012987012987012988, nan, nan, nan, nan, nan, nan, nan, 0.38
45,0.555, 0.1393258426966292, 0.02610966057441253, nan, nan, nan, nan, nan, nan, nan, 0.373
50,0.527, 0.14799154334038056, 0.03225806451612903, nan, nan, nan, nan, nan, nan, nan, 0.39
55,0.546, 0.14096916299559473, 0.041025641025641026, nan, nan, nan, nan, nan, nan, nan, 0.374
60,0.554, 0.1547085201793722, 0.026525198938992044, nan, nan, nan, nan, nan, nan, nan, 0.367
65,0.524, 0.14705882352941177, 0.017241379310344827, nan, nan, nan, nan, nan, nan, nan, 0.399
70,0.492, 0.13976377952755906, 0.02517162471395881, nan, nan, nan, nan, nan, nan, nan, 0.426
75,0.522, 0.13179916317991633, 0.00963855421686747, nan, nan, nan, nan, nan, nan, nan, 0.411
80,0.499, 0.11377245508982035, 0.018018018018018018, nan, nan, nan, nan, nan, nan, nan, 0.436
85,0.514, 0.11728395061728394, 0.02564102564102564, nan, nan, nan, nan, nan, nan, nan, 0.418
90,0.531, 0.16204690831556504, 0.022900763358778626, nan, nan, nan, nan, nan, nan, nan, 0.384
95,0.506, 0.10931174089068826, 0.031818181818181815, nan, nan, nan, nan, nan, nan, nan, 0.426
100,0.517, 0.10559006211180125, 0.027777777777777776, nan, nan, nan, nan, nan, nan, nan, 0.42
105,0.499, 0.13572854291417166, 0.011547344110854504, nan, nan, nan, nan, nan, nan, nan, 0.428
110,0.501, 0.13026052104208416, 0.020737327188940093, nan, nan, nan, nan, nan, nan, nan, 0.425
115,0.515, 0.15670103092783505, 0.02689486552567237, nan, nan, nan, nan, nan, nan, nan, 0.398
120,0.499, 0.15169660678642716, 0.023529411764705882, nan, nan, nan, nan, nan, nan, nan, 0.415
125,0.506, 0.15587044534412955, 0.02158273381294964, nan, nan, nan, nan, nan, nan, nan, 0.408
130,0.469, 0.1393596986817326, 0.0350109409190372, nan, nan, nan, nan, nan, nan, nan, 0.441
135,0.474, 0.14068441064638784, 0.028761061946902654, nan, nan, nan, nan, nan, nan, nan, 0.439
140,0.482, 0.11776061776061776, 0.0175054704595186, nan, nan, nan, nan, nan, nan, nan, 0.449
145,0.42, 0.1206896551724138, 0.03333333333333333, nan, nan, nan, nan, nan, nan, nan, 0.493
150,0.475, 0.1523809523809524, 0.017977528089887642, nan, nan, nan, nan, nan, nan, nan, 0.437
155,0.448, 0.14492753623188406, 0.0211864406779661, nan, nan, nan, nan, nan, nan, nan, 0.462
160,0.46, 0.13703703703703704, 0.02575107296137339, nan, nan, nan, nan, nan, nan, nan, 0.454
165,0.462, 0.15985130111524162, 0.033185840707964605, nan, nan, nan, nan, nan, nan, nan, 0.437
170,0.479, 0.1420345489443378, 0.0044742729306487695, nan, nan, nan, nan, nan, nan, nan, 0.445
175,0.469, 0.13559322033898305, 0.015250544662309368, nan, nan, nan, nan, nan, nan, nan, 0.452
180,0.438, 0.15480427046263345, 0.016842105263157894, nan, nan, nan, nan, nan, nan, nan, 0.467
185,0.462, 0.13382899628252787, 0.012875536480686695, nan, nan, nan, nan, nan, nan, nan, 0.46
190,0.425, 0.1391304347826087, 0.012121212121212121, nan, nan, nan, nan, nan, nan, nan, 0.489
195,0.454, 0.15018315018315018, 0.028017241379310345, nan, nan, nan, nan, nan, nan, nan, 0.451
200,0.444, 0.1366906474820144, 0.029166666666666667, nan, nan, nan, nan, nan, nan, nan, 0.466
205,0.449, 0.14337568058076225, 0.023305084745762712, nan, nan, nan, nan, nan, nan, nan, 0.461
210,0.457, 0.13259668508287292, 0.025477707006369428, nan, nan, nan, nan, nan, nan, nan, 0.459
215,0.454, 0.163003663003663, 0.024070021881838075, nan, nan, nan, nan, nan, nan, nan, 0.446
220,0.433, 0.14814814814814814, 0.022774327122153208, nan, nan, nan, nan, nan, nan, nan, 0.472
225,0.428, 0.1258741258741259, 0.022, nan, nan, nan, nan, nan, nan, nan, 0.489
230,0.44, 0.15535714285714286, 0.02959830866807611, nan, nan, nan, nan, nan, nan, nan, 0.459
235,0.433, 0.14638447971781304, 0.026859504132231406, nan, nan, nan, nan, nan, nan, nan, 0.471
240,0.447, 0.15913200723327306, 0.03225806451612903, nan, nan, nan, nan, nan, nan, nan, 0.45
245,0.417, 0.15437392795883362, 0.02231237322515213, nan, nan, nan, nan, nan, nan, nan, 0.482
250,0.418, 0.15120274914089346, 0.020242914979757085, nan, nan, nan, nan, nan, nan, nan, 0.484
255,0.46, 0.14814814814814814, 0.01956521739130435, nan, nan, nan, nan, nan, nan, nan, 0.451
260,0.41, 0.15254237288135594, 0.008, nan, nan, nan, nan, nan, nan, nan, 0.496
265,0.42, 0.14310344827586208, 0.018108651911468814, nan, nan, nan, nan, nan, nan, nan, 0.488
270,0.437, 0.12966252220248667, 0.018367346938775512, nan, nan, nan, nan, nan, nan, nan, 0.481
275,0.422, 0.13321799307958476, 0.023952095808383235, nan, nan, nan, nan, nan, nan, nan, 0.489
280,0.394, 0.1551155115511551, 0.01953125, nan, nan, nan, nan, nan, nan, nan, 0.502
285,0.415, 0.1264957264957265, 0.025440313111545987, nan, nan, nan, nan, nan, nan, nan, 0.498
290,0.416, 0.1523972602739726, 0.030303030303030304, nan, nan, nan, nan, nan, nan, nan, 0.48
295,0.426, 0.14634146341463414, 0.018367346938775512, nan, nan, nan, nan, nan, nan, nan, 0.481
300,0.43, 0.15789473684210525, 0.029166666666666667, nan, nan, nan, nan, nan, nan, nan, 0.466
305,0.43, 0.1368421052631579, 0.018292682926829267, nan, nan, nan, nan, nan, nan, nan, 0.483
310,0.444, 0.14568345323741008, 0.021052631578947368, nan, nan, nan, nan, nan, nan, nan, 0.465
315,0.443, 0.1526032315978456, 0.04449152542372881, nan, nan, nan, nan, nan, nan, nan, 0.451
320,0.434, 0.14840989399293286, 0.024896265560165973, nan, nan, nan, nan, nan, nan, nan, 0.47
325,0.408, 0.13006756756756757, 0.038834951456310676, nan, nan, nan, nan, nan, nan, nan, 0.495
330,0.418, 0.16151202749140894, 0.02459016393442623, nan, nan, nan, nan, nan, nan, nan, 0.476
335,0.451, 0.15664845173041894, 0.03023758099352052, nan, nan, nan, nan, nan, nan, nan, 0.449
340,0.432, 0.16549295774647887, 0.023206751054852322, nan, nan, nan, nan, nan, nan, nan, 0.463
345,0.41, 0.15932203389830507, 0.020161290322580645, nan, nan, nan, nan, nan, nan, nan, 0.486
350,0.429, 0.1243432574430823, 0.016, nan, nan, nan, nan, nan, nan, nan, 0.492
355,0.442, 0.15412186379928317, 0.019067796610169493, nan, nan, nan, nan, nan, nan, nan, 0.463
360,0.448, 0.14130434782608695, 0.035864978902953586, nan, nan, nan, nan, nan, nan, nan, 0.457
365,0.41, 0.12203389830508475, 0.023166023166023165, nan, nan, nan, nan, nan, nan, nan, 0.506
370,0.442, 0.15770609318996415, 0.027659574468085105, nan, nan, nan, nan, nan, nan, nan, 0.457
375,0.417, 0.15608919382504288, 0.034552845528455285, nan, nan, nan, nan, nan, nan, nan, 0.475
380,0.454, 0.17399267399267399, 0.019955654101995565, nan, nan, nan, nan, nan, nan, nan, 0.442
385,0.407, 0.12984822934232715, 0.027131782945736434, nan, nan, nan, nan, nan, nan, nan, 0.502
390,0.398, 0.15780730897009967, 0.027613412228796843, nan, nan, nan, nan, nan, nan, nan, 0.493
395,0.432, 0.1426056338028169, 0.018480492813141684, nan, nan, nan, nan, nan, nan, nan, 0.478
400,0.468, 0.13157894736842105, 0.02813852813852814, nan, nan, nan, nan, nan, nan, nan, 0.449
405,0.445, 0.14234234234234233, 0.01680672268907563, nan, nan, nan, nan, nan, nan, nan, 0.468
410,0.47, 0.15849056603773584, 0.03139013452914798, nan, nan, nan, nan, nan, nan, nan, 0.432
415,0.445, 0.16036036036036036, 0.02575107296137339, nan, nan, nan, nan, nan, nan, nan, 0.454
420,0.427, 0.13263525305410123, 0.03219315895372234, nan, nan, nan, nan, nan, nan, nan, 0.481
425,0.426, 0.16376306620209058, 0.020833333333333332, nan, nan, nan, nan, nan, nan, nan, 0.47
430,0.441, 0.1806797853309481, 0.024017467248908297, nan, nan, nan, nan, nan, nan, nan, 0.447
435,0.415, 0.147008547008547, 0.014028056112224449, nan, nan, nan, nan, nan, nan, nan, 0.492
440,0.427, 0.13787085514834205, 0.02631578947368421, nan, nan, nan, nan, nan, nan, nan, 0.481
445,0.432, 0.1619718309859155, 0.02100840336134454, nan, nan, nan, nan, nan, nan, nan, 0.466
450,0.435, 0.16991150442477876, 0.023454157782515993, nan, nan, nan, nan, nan, nan, nan, 0.458
455,0.432, 0.1637323943661972, 0.016842105263157894, nan, nan, nan, nan, nan, nan, nan, 0.467
460,0.411, 0.14770797962648557, 0.025896414342629483, nan, nan, nan, nan, nan, nan, nan, 0.489
465,0.435, 0.15752212389380532, 0.03571428571428571, nan, nan, nan, nan, nan, nan, nan, 0.459
470,0.43, 0.17017543859649123, 0.02536997885835095, nan, nan, nan, nan, nan, nan, nan, 0.461
475,0.451, 0.15846994535519127, 0.0367965367965368, nan, nan, nan, nan, nan, nan, nan, 0.445
480,0.437, 0.13854351687388988, 0.0288659793814433, nan, nan, nan, nan, nan, nan, nan, 0.471
485,0.462, 0.1691449814126394, 0.026845637583892617, nan, nan, nan, nan, nan, nan, nan, 0.435
490,0.434, 0.18021201413427562, 0.02586206896551724, nan, nan, nan, nan, nan, nan, nan, 0.452
495,0.436, 0.15780141843971632, 0.031578947368421054, nan, nan, nan, nan, nan, nan, nan, 0.46
