iteration,1,2,3,4,5,6,7,8,9,10,11
0,0.664, 0.23214285714285715, nan, nan, nan, nan, nan, nan, nan, nan, 0.258
5,0.628, 0.24731182795698925, nan, nan, nan, nan, nan, nan, nan, nan, 0.28
10,0.67, 0.23636363636363636, nan, nan, nan, nan, nan, nan, nan, nan, 0.252
15,0.7, 0.2633333333333333, nan, nan, nan, nan, nan, nan, nan, nan, 0.221
20,0.673, 0.2966360856269113, nan, nan, nan, nan, nan, nan, nan, nan, 0.23
25,0.655, 0.20579710144927535, nan, nan, nan, nan, nan, nan, nan, nan, 0.274
30,0.658, 0.2573099415204678, nan, nan, nan, nan, nan, nan, nan, nan, 0.254
35,0.652, 0.21264367816091953, nan, nan, nan, nan, nan, nan, nan, nan, 0.274
40,0.677, 0.24148606811145512, nan, nan, nan, nan, nan, nan, nan, nan, 0.245
45,0.66, 0.19411764705882353, nan, nan, nan, nan, nan, nan, nan, nan, 0.274
50,0.669, 0.22054380664652568, nan, nan, nan, nan, nan, nan, nan, nan, 0.258
55,0.676, 0.24074074074074073, nan, nan, nan, nan, nan, nan, nan, nan, 0.246
60,0.62, 0.22894736842105262, nan, nan, nan, nan, nan, nan, nan, nan, 0.293
65,0.626, 0.19786096256684493, nan, nan, nan, nan, nan, nan, nan, nan, 0.3
70,0.654, 0.22832369942196531, nan, nan, nan, nan, nan, nan, nan, nan, 0.267
75,0.654, 0.26878612716763006, nan, nan, nan, nan, nan, nan, nan, nan, 0.253
80,0.649, 0.21937321937321938, nan, nan, nan, nan, nan, nan, nan, nan, 0.274
85,0.647, 0.24929178470254956, nan, nan, nan, nan, nan, nan, nan, nan, 0.265
90,0.637, 0.24242424242424243, 0.0036363636363636364, nan, nan, nan, nan, nan, nan, nan, 0.274
95,0.66, 0.21176470588235294, nan, nan, nan, nan, nan, nan, nan, nan, 0.268
100,0.635, 0.2054794520547945, nan, nan, nan, nan, nan, nan, nan, nan, 0.29
105,0.636, 0.19505494505494506, nan, nan, nan, nan, nan, nan, nan, nan, 0.293
110,0.667, 0.2072072072072072, nan, nan, nan, nan, nan, nan, nan, nan, 0.264
115,0.689, 0.22508038585209003, nan, nan, nan, nan, nan, nan, nan, nan, 0.241
120,0.65, 0.20857142857142857, nan, nan, nan, nan, nan, nan, nan, nan, 0.277
125,0.635, 0.2054794520547945, nan, nan, nan, nan, nan, nan, nan, nan, 0.29
130,0.644, 0.199438202247191, 0.0035087719298245615, nan, nan, nan, nan, nan, nan, nan, 0.284
135,0.642, 0.23743016759776536, 0.003663003663003663, nan, nan, nan, nan, nan, nan, nan, 0.272
140,0.636, 0.23351648351648352, nan, nan, nan, nan, nan, nan, nan, nan, 0.279
145,0.636, 0.23351648351648352, 0.0035842293906810036, nan, nan, nan, nan, nan, nan, nan, 0.278
150,0.605, 0.19746835443037974, 0.01892744479495268, nan, nan, nan, nan, nan, nan, nan, 0.311
155,0.636, 0.21153846153846154, 0.010452961672473868, nan, nan, nan, nan, nan, nan, nan, 0.284
160,0.637, 0.24242424242424243, 0.04, nan, nan, nan, nan, nan, nan, nan, 0.264
165,0.62, 0.21052631578947367, 0.013333333333333334, nan, nan, nan, nan, nan, nan, nan, 0.296
170,0.607, 0.178117048346056, 0.01238390092879257, nan, nan, nan, nan, nan, nan, nan, 0.319
175,0.602, 0.20100502512562815, 0.006289308176100629, nan, nan, nan, nan, nan, nan, nan, 0.316
180,0.611, 0.15424164524421594, 0.02735562310030395, nan, nan, nan, nan, nan, nan, nan, 0.32
185,0.63, 0.16216216216216217, 0.0064516129032258064, nan, nan, nan, nan, nan, nan, nan, 0.308
190,0.604, 0.15151515151515152, 0.020833333333333332, nan, nan, nan, nan, nan, nan, nan, 0.329
195,0.604, 0.1717171717171717, 0.009146341463414634, nan, nan, nan, nan, nan, nan, nan, 0.325
200,0.613, 0.18087855297157623, 0.028391167192429023, nan, nan, nan, nan, nan, nan, nan, 0.308
205,0.599, 0.13216957605985039, 0.005747126436781609, nan, nan, nan, nan, nan, nan, nan, 0.346
210,0.589, 0.14841849148418493, 0.02, nan, nan, nan, nan, nan, nan, nan, 0.343
215,0.575, 0.18588235294117647, 0.017341040462427744, nan, nan, nan, nan, nan, nan, nan, 0.34
220,0.601, 0.13032581453634084, 0.01729106628242075, nan, nan, nan, nan, nan, nan, nan, 0.341
225,0.622, 0.10582010582010581, 0.011834319526627219, nan, nan, nan, nan, nan, nan, nan, 0.334
230,0.606, 0.1218274111675127, 0.017341040462427744, nan, nan, nan, nan, nan, nan, nan, 0.34
235,0.573, 0.1451990632318501, 0.00821917808219178, nan, nan, nan, nan, nan, nan, nan, 0.362
240,0.587, 0.09685230024213075, 0.005361930294906166, nan, nan, nan, nan, nan, nan, nan, 0.371
245,0.576, 0.12971698113207547, 0.013550135501355014, nan, nan, nan, nan, nan, nan, nan, 0.364
250,0.582, 0.10047846889952153, 0.007978723404255319, nan, nan, nan, nan, nan, nan, nan, 0.373
255,0.552, 0.11383928571428571, 0.007556675062972292, nan, nan, nan, nan, nan, nan, nan, 0.394
260,0.554, 0.09865470852017937, 0.017412935323383085, nan, nan, nan, nan, nan, nan, nan, 0.395
265,0.541, 0.10021786492374728, 0.021791767554479417, nan, nan, nan, nan, nan, nan, nan, 0.404
270,0.557, 0.12866817155756208, 0.015544041450777202, nan, nan, nan, nan, nan, nan, nan, 0.38
275,0.574, 0.10328638497652583, 0.015706806282722512, nan, nan, nan, nan, nan, nan, nan, 0.376
280,0.551, 0.11804008908685969, 0.020202020202020204, nan, nan, nan, nan, nan, nan, nan, 0.388
285,0.534, 0.09227467811158799, 0.0070921985815602835, nan, nan, nan, nan, nan, nan, nan, 0.42
290,0.544, 0.1074561403508772, 0.007371007371007371, nan, nan, nan, nan, nan, nan, nan, 0.404
295,0.527, 0.08456659619450317, 0.011547344110854504, nan, nan, nan, nan, nan, nan, nan, 0.428
300,0.499, 0.07984031936127745, 0.006507592190889371, nan, nan, nan, nan, nan, nan, nan, 0.458
305,0.52, 0.12291666666666666, 0.028503562945368172, nan, nan, nan, nan, nan, nan, nan, 0.409
310,0.499, 0.0998003992015968, 0.019955654101995565, nan, nan, nan, nan, nan, nan, nan, 0.442
315,0.514, 0.09670781893004116, 0.018223234624145785, nan, nan, nan, nan, nan, nan, nan, 0.431
320,0.5, 0.092, 0.004405286343612335, nan, nan, nan, nan, nan, nan, nan, 0.452
325,0.469, 0.08662900188323917, 0.012371134020618556, nan, nan, nan, nan, nan, nan, nan, 0.479
330,0.498, 0.10557768924302789, 0.015590200445434299, nan, nan, nan, nan, nan, nan, nan, 0.442
335,0.487, 0.09161793372319688, 0.017167381974248927, nan, nan, nan, nan, nan, nan, nan, 0.458
340,0.482, 0.08301158301158301, 0.014736842105263158, nan, nan, nan, nan, nan, nan, nan, 0.468
345,0.493, 0.06903353057199212, 0.0211864406779661, nan, nan, nan, nan, nan, nan, nan, 0.462
350,0.476, 0.07061068702290077, 0.012320328542094456, nan, nan, nan, nan, nan, nan, nan, 0.481
355,0.49, 0.09607843137254903, 0.006507592190889371, nan, nan, nan, nan, nan, nan, nan, 0.458
360,0.462, 0.07806691449814127, 0.008064516129032258, nan, nan, nan, nan, nan, nan, nan, 0.492
365,0.459, 0.05730129390018484, 0.01568627450980392, nan, nan, nan, nan, nan, nan, nan, 0.502
370,0.484, 0.0872093023255814, 0.01910828025477707, nan, nan, nan, nan, nan, nan, nan, 0.462
375,0.448, 0.07427536231884058, 0.011741682974559686, nan, nan, nan, nan, nan, nan, nan, 0.505
380,0.46, 0.08518518518518518, 0.020242914979757085, nan, nan, nan, nan, nan, nan, nan, 0.484
385,0.433, 0.08465608465608465, 0.011560693641618497, nan, nan, nan, nan, nan, nan, nan, 0.513
390,0.47, 0.05849056603773585, 0.006012024048096192, nan, nan, nan, nan, nan, nan, nan, 0.496
395,0.459, 0.11645101663585952, 0.012552301255230125, nan, nan, nan, nan, nan, nan, nan, 0.472
400,0.454, 0.08241758241758242, 0.015968063872255488, nan, nan, nan, nan, nan, nan, nan, 0.493
405,0.437, 0.08170515097690942, 0.009671179883945842, nan, nan, nan, nan, nan, nan, nan, 0.512
410,0.442, 0.0913978494623656, 0.015779092702169626, nan, nan, nan, nan, nan, nan, nan, 0.499
415,0.446, 0.08664259927797834, 0.023715415019762844, nan, nan, nan, nan, nan, nan, nan, 0.494
420,0.427, 0.06631762652705062, 0.001869158878504673, nan, nan, nan, nan, nan, nan, nan, 0.534
425,0.455, 0.06788990825688074, 0.021653543307086614, nan, nan, nan, nan, nan, nan, nan, 0.497
430,0.461, 0.08348794063079777, 0.020242914979757085, nan, nan, nan, nan, nan, nan, nan, 0.484
435,0.451, 0.07832422586520947, 0.023715415019762844, nan, nan, nan, nan, nan, nan, nan, 0.494
440,0.405, 0.07899159663865546, 0.014598540145985401, nan, nan, nan, nan, nan, nan, nan, 0.54
445,0.419, 0.08605851979345955, 0.011299435028248588, nan, nan, nan, nan, nan, nan, nan, 0.525
450,0.443, 0.07001795332136446, 0.007722007722007722, nan, nan, nan, nan, nan, nan, nan, 0.514
455,0.428, 0.06468531468531469, 0.011214953271028037, nan, nan, nan, nan, nan, nan, nan, 0.529
460,0.467, 0.06378986866791744, 0.01603206412825651, nan, nan, nan, nan, nan, nan, nan, 0.491
465,0.46, 0.07037037037037037, 0.0099601593625498, nan, nan, nan, nan, nan, nan, nan, 0.497
470,0.434, 0.08833922261484099, 0.015503875968992248, nan, nan, nan, nan, nan, nan, nan, 0.508
475,0.437, 0.09236234458259325, 0.025440313111545987, nan, nan, nan, nan, nan, nan, nan, 0.498
480,0.453, 0.06946983546617916, 0.021611001964636542, nan, nan, nan, nan, nan, nan, nan, 0.498
485,0.426, 0.08885017421602788, 0.021032504780114723, nan, nan, nan, nan, nan, nan, nan, 0.512
490,0.454, 0.07142857142857142, 0.015779092702169626, nan, nan, nan, nan, nan, nan, nan, 0.499
495,0.414, 0.07167235494880546, 0.016544117647058824, nan, nan, nan, nan, nan, nan, nan, 0.535
