iteration,1,2,3,4,5,6,7,8,9,10
0,13.457000732421875,nan,nan,nan,nan,nan,nan,nan,nan,nan
1,13.265578269958496,14.478873252868652,19.500001907348633,nan,nan,nan,nan,nan,nan,nan
2,12.628205299377441,17.514894485473633,18.274192810058594,29.875,50.0,nan,nan,nan,nan,nan
3,11.043478012084961,16.431371688842773,22.822429656982422,25.239999771118164,38.000003814697266,nan,nan,nan,nan,nan
4,11.764444351196289,14.713043212890625,21.69594383239746,24.612245559692383,24.899999618530273,28.999998092651367,nan,nan,nan,nan
5,12.339869499206543,16.334211349487305,20.12704849243164,16.813491821289062,19.423608779907227,27.410959243774414,18.919998168945312,16.5,28.5,nan
6,13.29664134979248,14.578004837036133,19.472923278808594,18.687273025512695,19.780487060546875,24.102272033691406,27.22222137451172,20.375,49.0,50.0
7,11.331506729125977,15.304239273071289,18.60357093811035,16.92150115966797,20.2762451171875,17.168224334716797,19.822221755981445,24.4375,15.0,2.0
8,11.141129493713379,16.347368240356445,17.98263931274414,19.080265045166016,18.582088470458984,21.5076904296875,24.641510009765625,22.77272605895996,5.0,10.0
9,13.81308364868164,17.657894134521484,19.045936584472656,20.10784149169922,20.178260803222656,19.160839080810547,19.95833396911621,13.884614944458008,19.0,32.5
10,13.072519302368164,14.637279510498047,18.407407760620117,19.763755798339844,20.931175231933594,18.331361770629883,16.1182804107666,17.9375,13.0,20.5
11,12.573013305664062,15.766292572021484,17.429935455322266,18.4350643157959,21.676923751831055,18.31658172607422,19.171171188354492,23.08333396911621,16.77777862548828,19.0
12,11.570247650146484,15.318502426147461,19.10028648376465,19.06070327758789,19.844106674194336,20.056522369384766,21.44354820251465,20.9069766998291,24.533334732055664,50.0
13,12.2352933883667,15.73299789428711,20.287832260131836,16.851062774658203,21.200000762939453,20.225000381469727,18.157533645629883,20.775859832763672,22.39999771118164,8.999999046325684
14,12.9201021194458,16.31764793395996,17.862974166870117,18.83094596862793,18.230188369750977,19.44961166381836,18.508285522460938,18.80281639099121,20.826086044311523,41.400001525878906
15,12.744599342346191,16.16105842590332,18.754384994506836,18.444774627685547,22.967531204223633,19.75875473022461,18.75621795654297,19.505746841430664,23.612903594970703,7.714285373687744
16,13.327957153320312,14.518017768859863,20.229413986206055,18.178470611572266,21.704917907714844,19.647686004638672,17.96902847290039,20.32110023498535,19.16666603088379,18.600000381469727
17,12.129729270935059,15.211363792419434,19.243162155151367,19.21390151977539,21.854368209838867,19.87030792236328,19.59918975830078,21.294572830200195,20.60416603088379,27.999998092651367
18,12.953307151794434,14.384422302246094,17.486955642700195,20.495845794677734,21.140188217163086,17.534883499145508,18.455554962158203,18.85714340209961,23.938461303710938,22.312501907348633
19,14.41181468963623,15.35492992401123,17.211593627929688,18.94135856628418,23.085227966308594,18.528125762939453,19.92057991027832,19.220932006835938,24.945945739746094,19.875
20,14.762415885925293,16.389005661010742,17.419889450073242,18.300939559936523,19.262048721313477,20.908309936523438,20.189655303955078,16.850515365600586,18.988372802734375,19.41176414489746
21,12.702213287353516,15.946281433105469,18.32832145690918,20.697885513305664,19.515722274780273,17.42816162109375,19.204402923583984,17.897672653198242,22.29245376586914,22.153844833374023
22,12.158209800720215,15.914414405822754,18.328432083129883,19.017290115356445,22.30303192138672,20.983379364013672,19.4437313079834,21.437246322631836,24.453781127929688,18.920000076293945
23,12.458149909973145,15.764397621154785,20.174333572387695,18.890411376953125,20.519878387451172,19.090394973754883,18.32634735107422,20.84528350830078,21.279720306396484,20.305084228515625
24,14.348775863647461,14.741538047790527,19.25128173828125,18.54986572265625,21.474285125732422,18.911602020263672,18.901784896850586,19.9743595123291,21.108280181884766,23.51388931274414
25,14.163237571716309,14.654117584228516,19.256065368652344,19.440105438232422,24.84149932861328,18.15297508239746,18.813371658325195,19.738677978515625,23.083799362182617,30.60714340209961
26,13.683674812316895,16.89159393310547,17.738420486450195,18.70126724243164,22.513355255126953,19.02864646911621,18.556819915771484,22.385852813720703,23.032258987426758,22.381444931030273
27,13.115044593811035,15.863308906555176,18.187179565429688,19.263853073120117,22.155620574951172,19.30434799194336,19.880887985229492,22.412540435791016,23.730941772460938,24.711864471435547
28,12.815898895263672,15.999999046325684,20.115680694580078,18.51058006286621,20.35087776184082,20.434106826782227,20.06365966796875,19.52580451965332,23.26530647277832,23.91549301147461
29,15.583619117736816,14.296178817749023,19.519773483276367,18.381994247436523,23.875,20.48691177368164,17.005277633666992,22.634145736694336,21.811023712158203,23.512500762939453
30,14.959677696228027,14.819819450378418,19.13846206665039,18.65227699279785,19.477745056152344,18.523929595947266,20.647815704345703,22.130434036254883,25.69503402709961,23.238094329833984
31,14.571428298950195,16.19341468811035,19.380813598632812,19.40876007080078,22.758424758911133,19.107894897460938,18.447500228881836,21.85671615600586,21.567943572998047,21.907217025756836
32,14.755352973937988,17.61111068725586,17.31073570251465,18.994951248168945,24.02645492553711,20.98961067199707,19.34398078918457,20.627628326416016,24.340002059936523,23.925928115844727
33,12.976851463317871,15.530150413513184,20.41927146911621,17.897296905517578,21.96042251586914,21.520618438720703,19.766510009765625,23.074928283691406,22.419462203979492,22.334745407104492
34,15.23251724243164,17.355884552001953,20.20168113708496,20.30789566040039,22.081005096435547,20.538652420043945,20.914154052734375,22.806360244750977,23.62986946105957,24.465587615966797
35,14.425382614135742,17.754838943481445,18.460176467895508,19.417753219604492,25.016437530517578,22.282115936279297,21.58256721496582,22.918365478515625,24.106706619262695,25.06766700744629
36,14.22599983215332,18.164043426513672,19.84318733215332,19.658262252807617,23.19219970703125,21.74384307861328,21.297922134399414,21.336956024169922,23.95857810974121,26.021427154541016
37,13.531978607177734,18.05097198486328,18.16755485534668,19.63959312438965,22.11815643310547,19.81773567199707,20.564285278320312,22.45939064025879,22.638235092163086,20.957746505737305
38,12.91891860961914,18.4033145904541,18.648935317993164,20.426395416259766,21.563583374023438,20.672327041625977,21.311878204345703,26.135068893432617,24.767160415649414,23.996620178222656
39,15.888693809509277,17.807308197021484,17.498695373535156,18.398374557495117,24.020618438720703,22.857513427734375,20.49876594543457,22.288888931274414,23.939725875854492,22.68996810913086
40,13.606802940368652,18.087379455566406,18.966581344604492,21.116710662841797,24.610666275024414,21.147138595581055,21.040189743041992,23.89629554748535,26.932249069213867,26.60588264465332
41,13.869046211242676,17.038095474243164,19.22572135925293,20.033504486083984,25.73150634765625,24.622739791870117,19.655092239379883,21.877450942993164,23.814815521240234,24.946779251098633
42,15.990935325622559,15.574572563171387,19.36193084716797,21.898515701293945,22.082839965820312,25.3465576171875,20.145334243774414,23.28140640258789,22.612022399902344,26.8360652923584
43,13.74654483795166,17.364131927490234,18.134614944458008,19.58648681640625,24.83791160583496,21.403743743896484,23.80375862121582,24.87855339050293,24.075130462646484,25.0
44,15.71291446685791,17.02547836303711,19.3192081451416,19.294944763183594,23.231197357177734,23.873708724975586,22.9505615234375,26.17601776123047,23.91847801208496,25.08116912841797
45,15.007905006408691,17.239809036254883,19.372093200683594,20.655271530151367,24.253482818603516,21.379579544067383,21.848834991455078,25.197589874267578,24.14095687866211,24.1907901763916
46,14.115385055541992,17.617834091186523,17.512048721313477,20.24860191345215,23.589969635009766,21.673418045043945,21.121654510498047,23.906539916992188,24.176467895507812,27.59119415283203
47,13.737313270568848,18.35874366760254,20.377660751342773,20.613513946533203,23.779817581176758,21.397436141967773,21.92893409729004,27.142179489135742,25.548925399780273,28.510835647583008
48,13.733333587646484,18.33333396911621,19.80417823791504,19.560211181640625,25.129032135009766,21.790403366088867,22.88071060180664,25.609336853027344,26.332530975341797,26.316715240478516
49,15.302978515625,18.683706283569336,20.268421173095703,21.755905151367188,24.5443058013916,23.804019927978516,24.44210433959961,26.015708923339844,26.50629997253418,27.410497665405273
50,15.172789573669434,17.257610321044922,19.745988845825195,21.394594192504883,20.955751419067383,21.813697814941406,21.64010238647461,27.177248001098633,26.282878875732422,26.939655303955078
51,12.930893898010254,19.407407760620117,20.565444946289062,22.010929107666016,24.845937728881836,21.56940460205078,23.344999313354492,25.57834815979004,25.111385345458984,29.482093811035156
52,13.231671333312988,18.04218292236328,21.246265411376953,23.377656936645508,22.587255477905273,21.840106964111328,20.19896697998047,27.705554962158203,27.791458129882812,27.560773849487305
53,13.845454216003418,16.23497200012207,21.30628204345703,21.345745086669922,23.399999618530273,24.3115177154541,22.102827072143555,27.88922119140625,26.59079360961914,28.846153259277344
54,16.31702995300293,16.96214485168457,20.129907608032227,22.080684661865234,25.126373291015625,20.64267349243164,22.575836181640625,26.686084747314453,28.089004516601562,29.17559242248535
55,14.523479461669922,18.19230842590332,18.37650489807129,24.037532806396484,25.50528907775879,23.788599014282227,24.002695083618164,26.739521026611328,26.754335403442383,32.42441940307617
56,15.610777854919434,19.469297409057617,19.746437072753906,23.26685333251953,26.013513565063477,23.399038314819336,20.552907943725586,27.798866271972656,27.151899337768555,30.68231964111328
57,14.795731544494629,18.573808670043945,19.361413955688477,21.986412048339844,26.639997482299805,25.264423370361328,22.537128448486328,30.912500381469727,26.70029640197754,31.13888931274414
58,14.86635971069336,18.393259048461914,19.954421997070312,22.96505355834961,25.781818389892578,22.542713165283203,24.0,27.792762756347656,29.43352508544922,31.710914611816406
59,16.175853729248047,19.16498374938965,18.406780242919922,23.468318939208984,26.318052291870117,24.243314743041992,23.72160530090332,27.83279800415039,27.725372314453125,27.279720306396484
60,14.930843353271484,17.62980842590332,21.327823638916016,21.22123908996582,24.26934051513672,24.0787410736084,24.91590690612793,29.235820770263672,26.146703720092773,26.635414123535156
61,16.03137969970703,20.861604690551758,20.78551483154297,23.61627769470215,26.305879592895508,23.84182357788086,23.34465980529785,28.33420753479004,24.591899871826172,30.694534301757812
62,14.556633949279785,20.982969284057617,21.467866897583008,22.139999389648438,26.553125381469727,24.224000930786133,22.430952072143555,30.11256217956543,25.337278366088867,31.032573699951172
63,13.164999961853027,21.15561866760254,20.92328643798828,20.634714126586914,27.182411193847656,23.55999755859375,24.7434024810791,28.125682830810547,24.792818069458008,32.71717071533203
64,15.902828216552734,18.27305030822754,20.408954620361328,22.89924430847168,25.184465408325195,24.055999755859375,24.204999923706055,31.82880401611328,28.17473030090332,28.196786880493164
65,15.309523582458496,19.461538314819336,22.273292541503906,23.0,27.645370483398438,26.118457794189453,26.39896583557129,30.487327575683594,28.746192932128906,32.425086975097656
66,14.210525512695312,20.2481746673584,21.014968872070312,20.661577224731445,28.97256088256836,22.73150634765625,24.305341720581055,31.1325626373291,26.071428298950195,31.3258056640625
67,15.739884376525879,19.11320686340332,21.13370704650879,22.12285041809082,26.237625122070312,25.11928939819336,22.683923721313477,32.12894058227539,24.770938873291016,33.006134033203125
68,14.926406860351562,20.704477310180664,20.457971572875977,20.967004776000977,26.253870010375977,25.79265022277832,25.25520896911621,28.35365867614746,28.679723739624023,32.124610900878906
69,16.04359245300293,19.561838150024414,21.08011817932129,22.383663177490234,25.768024444580078,26.23446273803711,24.939851760864258,32.245452880859375,26.402565002441406,31.236759185791016
70,15.774762153625488,21.134662628173828,20.311527252197266,23.997406005859375,28.04022979736328,27.55362319946289,23.958024978637695,30.281736373901367,26.779794692993164,33.35588073730469
71,15.829076766967773,22.086849212646484,22.043603897094727,25.51069450378418,26.831932067871094,27.548105239868164,23.479713439941406,32.317901611328125,27.821521759033203,30.60660743713379
72,14.720126152038574,19.973751068115234,23.02645492553711,23.324636459350586,28.83933448791504,25.626436233520508,25.046619415283203,31.633758544921875,26.320955276489258,33.03921127319336
73,14.522611618041992,20.303205490112305,25.565086364746094,25.69145965576172,30.494182586669922,27.862796783447266,26.499998092651367,31.383386611938477,26.374345779418945,30.10662841796875
74,16.597902297973633,21.421817779541016,21.43521499633789,22.033056259155273,26.355684280395508,25.173913955688477,27.18999671936035,31.654069900512695,29.375690460205078,31.320987701416016
75,16.275203704833984,18.22906494140625,19.567474365234375,25.62983512878418,27.512659072875977,26.04680061340332,26.131925582885742,31.254901885986328,27.152780532836914,31.568452835083008
76,14.34655475616455,22.060462951660156,22.597057342529297,23.12843894958496,26.769712448120117,26.785184860229492,26.09326171875,28.91714096069336,26.78571128845215,31.31137466430664
77,15.753011703491211,21.69689178466797,21.72857093811035,26.395349502563477,29.91419219970703,25.692506790161133,28.394012451171875,32.705230712890625,25.81215476989746,30.8029842376709
78,14.360730171203613,19.478260040283203,22.096317291259766,25.7680721282959,29.817033767700195,26.512126922607422,25.367244720458984,31.341529846191406,28.60732650756836,29.98101234436035
79,16.902353286743164,23.802867889404297,21.509492874145508,27.601245880126953,29.54938316345215,27.848066329956055,25.53615951538086,31.04166603088379,30.501312255859375,32.213375091552734
80,15.404923439025879,21.804624557495117,24.168222427368164,24.36190414428711,28.41194725036621,26.743244171142578,26.082473754882812,32.249996185302734,25.90666389465332,32.14457702636719
81,16.088064193725586,23.94072151184082,23.987916946411133,25.49541664123535,27.307212829589844,28.211538314819336,26.689395904541016,31.469104766845703,27.45292854309082,33.41666793823242
82,15.416413307189941,23.96791648864746,22.269121170043945,24.64417266845703,28.93510627746582,28.79279327392578,25.22222137451172,32.03611373901367,29.980247497558594,32.689552307128906
83,14.061612129211426,21.82634925842285,22.45505714416504,28.24397850036621,29.97654151916504,28.897436141967773,26.155391693115234,30.88358497619629,29.240293502807617,30.824859619140625
84,17.14634132385254,22.678159713745117,21.57344627380371,24.395498275756836,28.374622344970703,27.531055450439453,27.511001586914062,31.492307662963867,32.97022247314453,33.841941833496094
85,16.660810470581055,21.5390625,22.921510696411133,28.302839279174805,30.39490509033203,30.159883499145508,27.48806381225586,31.72514533996582,30.035615921020508,34.583335876464844
86,15.708971977233887,24.326663970947266,21.02898597717285,28.24840545654297,30.476511001586914,28.82768440246582,28.275957107543945,31.866666793823242,30.47262191772461,35.58157730102539
87,17.247556686401367,23.59183692932129,23.910810470581055,24.72812271118164,31.04918098449707,26.63529396057129,27.16442108154297,33.659156799316406,28.772079467773438,30.68852424621582
88,15.494898796081543,25.023460388183594,23.288515090942383,26.117996215820312,29.139371871948242,27.81355857849121,29.194229125976562,32.271907806396484,28.4710750579834,32.63005828857422
89,17.14145851135254,25.772727966308594,24.954545974731445,26.64776039123535,31.494810104370117,28.31304359436035,28.445682525634766,32.636905670166016,27.88075828552246,36.07476806640625
90,16.87134552001953,22.252662658691406,24.974578857421875,27.84520149230957,29.3853816986084,29.12320899963379,28.08000373840332,32.45645523071289,29.951156616210938,33.626197814941406
91,15.654787063598633,25.126903533935547,23.67574691772461,26.926605224609375,31.60194206237793,30.912281036376953,31.04424476623535,34.15642547607422,31.580211639404297,34.5737190246582
92,16.482994079589844,22.59183692932129,27.237852096557617,27.350000381469727,32.09571075439453,30.362018585205078,31.190752029418945,33.53107452392578,30.358903884887695,37.175228118896484
93,16.486631393432617,24.9188289642334,24.572221755981445,28.65043067932129,29.903779983520508,31.49698829650879,31.008695602416992,35.624290466308594,29.877777099609375,37.26934051513672
94,18.3890380859375,27.248945236206055,23.683141708374023,28.313432693481445,32.68421173095703,29.996784210205078,31.55617904663086,34.84821319580078,27.96596908569336,33.74760437011719
95,15.734904289245605,25.974504470825195,23.705883026123047,31.098039627075195,29.081632614135742,30.850793838500977,29.274728775024414,33.03144836425781,31.0765438079834,35.37192916870117
96,15.197452545166016,24.360107421875,25.755260467529297,27.809858322143555,31.031335830688477,30.601852416992188,31.85268783569336,33.403846740722656,30.522165298461914,36.17973709106445
97,16.44025230407715,24.392749786376953,22.128273010253906,28.85714340209961,31.811941146850586,29.736072540283203,33.55619430541992,33.85093307495117,29.47557830810547,35.404457092285156
98,14.684210777282715,24.238597869873047,26.79894256591797,28.158449172973633,31.037036895751953,31.06232261657715,33.11315155029297,36.037681579589844,30.65083885192871,34.312137603759766
99,17.841367721557617,25.995574951171875,25.47040557861328,26.203174591064453,31.68633460998535,30.57183837890625,31.47798728942871,36.244319915771484,32.65439224243164,38.159420013427734
100,17.130434036254883,26.209630966186523,26.720125198364258,27.691030502319336,31.480133056640625,31.6675968170166,30.682926177978516,34.226585388183594,33.26575469970703,37.35276794433594
101,17.17659568786621,23.387863159179688,27.055015563964844,30.07523536682129,30.148387908935547,31.307918548583984,31.39411735534668,34.07028579711914,31.607629776000977,38.80352020263672
102,15.342560768127441,26.28296661376953,27.101226806640625,27.395427703857422,30.93929672241211,32.119049072265625,31.110797882080078,34.14285659790039,33.67828369140625,37.08049392700195
103,15.644808769226074,28.023332595825195,27.883792877197266,29.399999618530273,30.688472747802734,31.05341339111328,33.79832077026367,35.640411376953125,33.340911865234375,37.894264221191406
104,19.123199462890625,23.11162567138672,27.541664123535156,30.367284774780273,32.908226013183594,32.85585403442383,34.15229415893555,34.953792572021484,31.873491287231445,38.560001373291016
105,17.051393508911133,26.73024559020996,27.120805740356445,29.279996871948242,33.284786224365234,30.473684310913086,35.07624435424805,33.72861099243164,31.759876251220703,38.56687927246094
106,17.04646110534668,27.113889694213867,27.4069766998291,29.228374481201172,31.35087776184082,33.49161911010742,28.514019012451172,36.50282669067383,35.460174560546875,39.71476364135742
107,17.89999771118164,25.882883071899414,28.630373001098633,30.33333396911621,32.98972702026367,32.9415397644043,31.7277774810791,35.070796966552734,32.743202209472656,38.05498123168945
108,14.339080810546875,26.999998092651367,29.176647186279297,27.847618103027344,35.79865646362305,33.78864288330078,35.06486892700195,36.06309127807617,33.23446273803711,39.503379821777344
109,18.58723258972168,25.745454788208008,27.49190902709961,29.601884841918945,30.71724510192871,32.32476043701172,33.64945983886719,33.16969680786133,35.592796325683594,41.85762023925781
110,16.80817985534668,27.228296279907227,27.391754150390625,29.47463035583496,35.6148681640625,32.91147994995117,33.4868049621582,37.715084075927734,34.665706634521484,38.707908630371094
111,16.83578872680664,27.323074340820312,30.254655838012695,31.126245498657227,33.84516143798828,32.40131759643555,34.82012176513672,37.34285354614258,35.67329406738281,40.815284729003906
112,16.528846740722656,28.734426498413086,30.93693733215332,28.98407554626465,34.0,31.934326171875,35.0,36.91279220581055,32.77900695800781,40.308197021484375
113,17.989473342895508,27.8419132232666,31.168319702148438,30.79403305053711,33.312713623046875,33.20382308959961,36.39285659790039,36.55864334106445,35.093997955322266,38.84740447998047
114,18.955236434936523,27.91747283935547,28.900737762451172,31.712121963500977,34.88888931274414,33.424049377441406,34.94620132446289,34.3106803894043,33.92631530761719,40.09476852416992
115,19.193082809448242,28.029939651489258,29.289379119873047,31.068403244018555,33.813114166259766,33.62839889526367,36.296775817871094,37.22516632080078,37.08602523803711,39.220821380615234
116,18.087759017944336,28.53387451171875,29.973770141601562,28.927392959594727,34.06101608276367,33.105262756347656,35.74691390991211,35.85031509399414,36.8273811340332,41.0
117,19.038732528686523,26.343849182128906,32.22883987426758,33.034698486328125,36.158077239990234,35.569129943847656,35.64179229736328,34.1456298828125,35.478126525878906,38.46927261352539
118,16.24571418762207,28.106618881225586,31.716262817382812,35.1363639831543,34.8321418762207,34.632076263427734,34.572757720947266,38.04216766357422,37.97419738769531,38.008548736572266
119,19.27558135986328,29.584156036376953,29.105070114135742,31.36026954650879,35.18831253051758,35.94654083251953,35.842594146728516,38.161094665527344,36.124595642089844,40.6101188659668
120,19.117143630981445,26.249998092651367,31.198530197143555,30.88421058654785,35.230770111083984,35.57474899291992,36.960723876953125,37.51692199707031,34.83880615234375,41.353694915771484
121,17.89912223815918,28.69072151184082,32.69965744018555,31.91872787475586,33.41914367675781,34.18506622314453,35.487422943115234,38.6716423034668,36.67365264892578,41.130435943603516
122,18.390321731567383,29.44542694091797,31.14191436767578,33.48867416381836,36.216495513916016,35.51582336425781,36.23642349243164,34.50455856323242,37.39252471923828,43.15237808227539
123,16.77777862548828,28.829431533813477,31.09540367126465,33.95924758911133,35.719722747802734,35.26006317138672,36.47249221801758,38.48136520385742,37.03767776489258,40.6305046081543
124,19.954023361206055,29.294933319091797,33.99641418457031,31.434640884399414,37.16608810424805,33.858489990234375,35.51410675048828,37.935184478759766,37.29069900512695,42.546104431152344
125,18.94301986694336,27.750707626342773,32.71428680419922,33.536048889160156,37.54545593261719,37.061920166015625,37.0362548828125,40.127037048339844,36.311763763427734,42.786441802978516
126,19.90561866760254,31.460317611694336,36.40678024291992,31.86046600341797,34.93197250366211,35.85382080078125,34.80979919433594,37.437286376953125,39.40111541748047,42.93204116821289
127,18.93356704711914,31.44444465637207,32.59235382080078,32.45659255981445,37.306339263916016,36.53376388549805,33.84750747680664,41.20191955566406,37.33232498168945,43.41509246826172
128,18.805883407592773,31.576778411865234,31.902685165405273,32.53374099731445,38.10526657104492,37.218650817871094,36.21131134033203,37.375,37.317508697509766,43.429046630859375
129,20.779891967773438,32.60784149169922,34.494625091552734,33.459877014160156,37.66666793823242,35.25324630737305,35.98280715942383,36.62578582763672,36.72239685058594,42.487178802490234
130,18.899259567260742,30.78125,34.373538970947266,33.95098114013672,37.66319274902344,37.58662796020508,37.416168212890625,38.39374923706055,34.861637115478516,42.07718276977539
131,19.179431915283203,29.84048843383789,34.57706069946289,35.49839401245117,35.55479431152344,35.83641815185547,38.10971450805664,36.12827682495117,38.80183029174805,42.817588806152344
132,19.64727210998535,30.901586532592773,34.47810363769531,32.92698287963867,39.2400016784668,37.85901641845703,39.326351165771484,37.55043411254883,37.83280944824219,41.99333190917969
133,21.6842098236084,30.60769271850586,34.72348403930664,32.50156784057617,36.26667022705078,35.81736373901367,37.7003288269043,38.71720504760742,37.73451232910156,39.641197204589844
134,22.028207778930664,34.318626403808594,34.11553955078125,36.030120849609375,36.68301773071289,35.20606231689453,39.14802169799805,37.05830764770508,36.3739128112793,39.96154022216797
135,20.00308609008789,32.554283142089844,37.34099578857422,34.86925506591797,38.48365783691406,36.0186882019043,38.804412841796875,39.167171478271484,38.17948532104492,44.18633270263672
136,20.246511459350586,33.7312126159668,36.2338981628418,34.753787994384766,37.879310607910156,34.55555725097656,37.346405029296875,36.71739196777344,36.298851013183594,42.532257080078125
137,16.505836486816406,30.92833137512207,36.16504669189453,38.058441162109375,40.145389556884766,38.011905670166016,35.827117919921875,37.60182189941406,37.05352020263672,42.71617126464844
138,16.5625,34.43568420410156,35.393619537353516,35.280704498291016,39.1212158203125,36.370147705078125,37.327274322509766,39.5583610534668,40.19585037231445,44.97115707397461
139,21.34977149963379,31.80605697631836,36.335872650146484,34.73404312133789,42.057044982910156,35.61962890625,39.25222396850586,37.339866638183594,38.649696350097656,43.95792770385742
140,20.7966365814209,32.273529052734375,35.877933502197266,36.21452331542969,39.2890625,36.14565658569336,36.81651306152344,37.969329833984375,38.13750076293945,43.3012809753418
141,19.86924934387207,33.216373443603516,36.79037857055664,35.64615249633789,38.97810363769531,38.062686920166016,38.843475341796875,36.69999694824219,38.200645446777344,44.05466079711914
142,18.862207412719727,33.031036376953125,36.67398452758789,34.47517776489258,39.85887145996094,40.056217193603516,38.01428985595703,39.98823547363281,41.14516067504883,42.98662185668945
143,19.546051025390625,34.46288299560547,33.7406005859375,36.79447937011719,38.27822494506836,38.31632614135742,36.69148635864258,36.49546432495117,38.9028205871582,43.02622985839844
144,21.813186645507812,28.322978973388672,34.69291305541992,36.79999542236328,38.107139587402344,38.27737045288086,37.591033935546875,38.0,40.07054901123047,43.3878173828125
145,19.24801254272461,32.32558059692383,34.93427276611328,35.02482223510742,40.418365478515625,37.849815368652344,37.761905670166016,38.18055725097656,38.867740631103516,42.539432525634766
146,20.92443084716797,34.56195831298828,37.51459884643555,36.467681884765625,39.93511199951172,37.778499603271484,39.620460510253906,37.649169921875,36.187313079833984,42.2532844543457
147,18.783334732055664,34.09782791137695,36.70065689086914,35.60661697387695,37.79999923706055,39.746795654296875,36.23404312133789,38.96994400024414,36.270896911621094,43.006649017333984
148,18.4489803314209,33.15237808227539,36.286739349365234,38.08881759643555,39.4638786315918,39.75747299194336,38.39297103881836,37.54790496826172,39.63259506225586,43.490840911865234
149,21.77644920349121,32.6013069152832,37.35039520263672,36.97153091430664,40.03956985473633,37.753379821777344,38.582801818847656,39.69523620605469,37.81016159057617,42.97749328613281
150,20.052297592163086,32.21407699584961,37.4600944519043,35.17482376098633,36.443660736083984,40.885135650634766,39.14657974243164,40.91167068481445,37.84782791137695,41.16012954711914
151,20.255474090576172,34.40456008911133,35.77952575683594,35.955718994140625,40.82653045654297,39.13261795043945,37.83225631713867,38.865623474121094,40.61357116699219,41.3575439453125
152,20.566801071166992,34.36394500732422,37.11960220336914,38.5498161315918,40.77935791015625,37.15194320678711,36.45808410644531,39.86394500732422,39.595306396484375,43.62803268432617
153,19.624162673950195,32.54298782348633,35.49668884277344,38.61052703857422,43.38022994995117,38.535484313964844,39.68571472167969,39.69178009033203,38.30838394165039,42.21917724609375
154,23.691749572753906,33.068748474121094,34.88381576538086,38.87371826171875,39.27436828613281,37.66667175292969,39.40264129638672,38.560508728027344,40.4151496887207,41.84161376953125
155,22.287443161010742,34.2253532409668,38.49308776855469,39.385494232177734,40.9300651550293,40.46154022216797,38.01265335083008,39.764896392822266,39.23219680786133,45.37303924560547
156,20.66121482849121,34.69613265991211,35.021976470947266,37.868316650390625,39.553504943847656,39.796974182128906,39.88386917114258,40.8163948059082,39.48122787475586,41.94047546386719
157,21.802419662475586,35.76100540161133,37.58922576904297,40.2961540222168,39.726932525634766,39.443363189697266,39.62221908569336,39.551719665527344,39.35409927368164,42.592472076416016
158,19.071943283081055,36.2115364074707,35.64337921142578,38.351722717285156,38.89299011230469,41.04347610473633,40.07740020751953,41.89710235595703,40.19999694824219,41.978797912597656
159,24.50136947631836,31.006134033203125,38.306819915771484,41.29513931274414,39.479854583740234,38.256229400634766,37.42856979370117,36.89622497558594,40.64024353027344,44.562068939208984
160,22.71974754333496,34.964481353759766,38.67727279663086,39.287357330322266,40.79861068725586,40.23256301879883,40.21630096435547,38.813507080078125,38.699058532714844,45.202571868896484
161,23.522077560424805,36.6569938659668,39.5217399597168,39.983333587646484,42.08633041381836,41.27692413330078,41.78157043457031,40.458465576171875,41.858463287353516,44.14657974243164
162,22.60087776184082,35.59321975708008,38.516319274902344,40.14126205444336,41.907752990722656,39.70861053466797,39.685123443603516,41.484153747558594,38.15873336791992,42.767974853515625
163,20.7062931060791,34.45754623413086,38.02236557006836,37.5544548034668,41.085269927978516,40.204471588134766,39.638980865478516,39.51234436035156,39.51234436035156,44.410423278808594
164,25.47426414489746,36.28289031982422,37.098854064941406,39.60197448730469,40.09540557861328,41.2802734375,39.5875358581543,40.06019973754883,39.755950927734375,42.54869842529297
165,22.44338035583496,34.86723327636719,34.2899169921875,37.54545593261719,41.14191436767578,40.76124572753906,41.00604248046875,42.046051025390625,41.389217376708984,44.300655364990234
166,21.053434371948242,36.97726821899414,37.35178756713867,39.11023712158203,40.98310852050781,40.07931137084961,41.796775817871094,40.069278717041016,40.71028518676758,42.33538055419922
167,23.95833396911621,35.95439910888672,39.93333053588867,39.609317779541016,40.27797317504883,41.23717498779297,38.89690399169922,41.381919860839844,41.69774627685547,43.20596694946289
168,21.984251022338867,35.344539642333984,39.01369857788086,39.0231819152832,41.04067611694336,40.5559196472168,39.66666793823242,42.717041015625,40.28025436401367,43.23739242553711
169,24.866788864135742,34.048484802246094,36.3198356628418,40.85173034667969,40.44999694824219,40.006248474121094,41.85064697265625,40.590274810791016,39.75739288330078,41.29999542236328
170,23.952302932739258,33.5224723815918,35.937232971191406,40.694244384765625,40.83766174316406,44.25328826904297,40.13650894165039,43.03413009643555,39.94751739501953,45.76470184326172
171,24.099462509155273,35.603214263916016,38.1740608215332,39.775001525878906,42.903221130371094,42.69565200805664,39.951839447021484,40.817543029785156,40.6646842956543,42.931678771972656
172,23.440757751464844,35.53845977783203,37.2491569519043,39.8801383972168,42.33928680419922,40.33793258666992,42.26801300048828,41.22697830200195,40.82099151611328,43.74397659301758
173,24.267240524291992,34.7931022644043,38.69144821166992,40.5391845703125,42.49103927612305,38.88704299926758,39.86970901489258,42.846370697021484,39.82236862182617,44.64134216308594
174,26.271699905395508,33.75138473510742,38.851356506347656,42.16271209716797,42.229454040527344,41.31661605834961,38.30344772338867,40.51445388793945,41.80555725097656,45.73186111450195
175,25.119529724121094,36.56111145019531,38.50724792480469,39.06324005126953,42.25,39.75617218017578,40.860321044921875,40.247623443603516,40.92899703979492,44.08823776245117
176,24.110795974731445,36.937320709228516,36.74182891845703,38.19917297363281,42.99641418457031,42.46769332885742,42.238670349121094,42.026668548583984,42.24225616455078,43.5472297668457
177,22.736040115356445,37.20000076293945,39.55270767211914,39.19844436645508,42.88284683227539,41.92424392700195,40.8982048034668,43.51768493652344,42.025936126708984,43.605770111083984
178,25.274999618530273,37.356021881103516,38.72641372680664,42.18060302734375,42.43852615356445,41.0268440246582,40.65340805053711,41.60883331298828,41.67584228515625,44.39296340942383
179,27.66041374206543,37.623191833496094,37.50833511352539,39.309444427490234,42.15901565551758,41.122745513916016,40.2173957824707,41.55271911621094,42.1273307800293,44.28089904785156
180,24.032533645629883,37.28302001953125,37.8543701171875,40.85915756225586,42.571922302246094,41.90140914916992,40.13665008544922,40.42638397216797,42.390769958496094,44.22190475463867
181,25.708454132080078,38.50833511352539,37.60553741455078,41.55918502807617,42.45515060424805,40.320945739746094,41.19355010986328,41.29411697387695,42.24850082397461,43.00322341918945
182,26.76884651184082,37.04561233520508,38.8343391418457,42.07725143432617,42.80623245239258,42.189876556396484,40.141937255859375,41.99382781982422,43.34862518310547,43.931678771972656
183,27.371681213378906,37.7298583984375,37.28333282470703,40.92499923706055,41.516605377197266,42.27384567260742,41.05825424194336,42.88571548461914,42.502960205078125,44.03216552734375
184,27.087038040161133,37.350318908691406,38.42292404174805,40.50349807739258,39.85920715332031,40.80344772338867,41.72140884399414,41.08360290527344,42.17241287231445,43.99430465698242
185,26.419353485107422,37.30232238769531,38.0515022277832,42.145591735839844,42.2110710144043,44.342464447021484,40.377193450927734,42.928802490234375,42.05607223510742,43.81415557861328
186,24.70467758178711,34.42048645019531,36.803226470947266,40.573123931884766,42.70000076293945,42.657623291015625,42.24340057373047,42.022361755371094,43.685359954833984,43.374996185302734
187,26.546875,37.96625518798828,40.19218826293945,39.88571548461914,42.92988586425781,41.32081604003906,43.642852783203125,42.31562042236328,43.50613021850586,43.96676254272461
188,27.90625,36.25,40.92508316040039,41.87260818481445,43.593360900878906,42.44816207885742,43.274757385253906,42.52225112915039,42.40683364868164,43.53412628173828
189,28.01138687133789,34.123291015625,37.888893127441406,42.8163948059082,43.56475067138672,40.85616683959961,42.61695098876953,43.55132293701172,44.571868896484375,44.81288528442383
190,27.881624221801758,38.435691833496094,35.50419998168945,41.86111068725586,42.107688903808594,41.118465423583984,42.06999969482422,41.81587219238281,43.20943832397461,42.154541015625
191,26.265174865722656,37.107818603515625,38.76557922363281,42.99193572998047,40.978179931640625,42.67812728881836,43.500003814697266,41.95937728881836,43.04166793823242,43.994049072265625
192,29.039329528808594,38.578125,38.96541213989258,43.22743606567383,43.28825759887695,42.398712158203125,42.27891540527344,43.25080490112305,44.06645584106445,43.599998474121094
193,30.268817901611328,36.9555549621582,39.550819396972656,42.23287582397461,43.12925338745117,42.30976486206055,43.3701286315918,45.549522399902344,43.44171905517578,45.59375
194,30.033493041992188,38.52413558959961,37.903099060058594,42.227115631103516,43.63398361206055,42.19397735595703,42.47784423828125,43.34811782836914,42.5791130065918,44.466854095458984
195,26.922548294067383,38.105125427246094,40.201717376708984,42.160919189453125,42.72425079345703,42.36075973510742,43.145633697509766,42.76744079589844,44.45511245727539,45.362274169921875
196,27.15501594543457,38.34383773803711,41.04666519165039,41.654903411865234,42.320556640625,42.91743469238281,40.888179779052734,42.96154022216797,42.973331451416016,44.89881134033203
197,30.883331298828125,39.65480422973633,40.08083724975586,43.121212005615234,42.8838005065918,41.08414077758789,41.86969757080078,42.213375091552734,43.56810760498047,43.293209075927734
198,26.590909957885742,39.252525329589844,40.45192337036133,43.16279220581055,42.15729904174805,44.76433181762695,44.072509765625,41.092655181884766,44.0097770690918,46.18806076049805
199,29.925498962402344,38.0625,40.193180084228516,42.470394134521484,44.531463623046875,42.37333297729492,41.735294342041016,41.87687683105469,42.708900451660156,44.828121185302734
200,28.557971954345703,37.63055419921875,41.08481979370117,42.54981231689453,41.033782958984375,43.78525161743164,40.477561950683594,42.183563232421875,42.42856979370117,43.78386688232422
201,27.73786735534668,41.36363983154297,37.6864128112793,42.615386962890625,42.945457458496094,43.00326156616211,43.589595794677734,42.504615783691406,43.86707305908203,45.69696807861328
202,28.29545783996582,37.08771896362305,39.929412841796875,42.099605560302734,43.99632263183594,43.14887237548828,42.22222137451172,42.56060791015625,43.312686920166016,45.13014221191406
203,28.586210250854492,36.83414840698242,40.046730041503906,43.21561813354492,41.49122619628906,43.21908187866211,41.79393768310547,42.29325485229492,44.02381134033203,45.92156982421875
204,31.36756134033203,39.157894134521484,40.23255920410156,42.80068588256836,42.129825592041016,44.4666633605957,43.66054916381836,43.32937240600586,44.3455696105957,44.03384780883789
205,27.679576873779297,38.077518463134766,42.53488540649414,43.97709655761719,44.31632614135742,44.1489372253418,44.530155181884766,42.33032989501953,43.95454406738281,44.97604751586914
206,28.776119232177734,38.14285659790039,37.45423889160156,42.518985748291016,44.51228332519531,43.87248229980469,44.515464782714844,43.686275482177734,42.95808410644531,44.4970588684082
207,27.476470947265625,38.39739227294922,39.16616439819336,42.637855529785156,42.85861587524414,43.85017013549805,41.76051330566406,42.584373474121094,43.19230651855469,43.437870025634766
208,28.68604278564453,38.59640884399414,41.72413635253906,42.53546142578125,43.583656311035156,41.63013458251953,41.54275894165039,43.60897445678711,44.48432922363281,44.798831939697266
209,31.814176559448242,36.89361572265625,39.623016357421875,44.11688232421875,43.66165542602539,42.27814483642578,43.13621139526367,43.068851470947266,42.49128341674805,46.27793884277344
210,31.060834884643555,40.07913589477539,40.95433807373047,42.85282516479492,43.64119338989258,41.5559196472168,43.1929817199707,44.821083068847656,43.858821868896484,46.17856979370117
211,27.552631378173828,39.22222137451172,42.66134262084961,41.50210952758789,44.68647003173828,43.79344177246094,45.10580062866211,41.59809875488281,44.7826042175293,45.6696662902832
212,28.326086044311523,39.50680160522461,41.2048225402832,43.089107513427734,43.55839538574219,43.33860778808594,43.06311798095703,44.89028549194336,44.854732513427734,44.45454406738281
213,33.70769119262695,37.50526428222656,40.36222839355469,45.01980209350586,42.54744338989258,43.58461380004883,42.5890007019043,42.53583908081055,46.0318489074707,44.55555725097656
214,33.545631408691406,37.19166564941406,38.720306396484375,43.65131759643555,41.763580322265625,43.06959533691406,42.60451889038086,43.169612884521484,42.66987228393555,47.04705810546875
215,30.514448165893555,38.033653259277344,39.861385345458984,43.34558868408203,44.14328384399414,45.60563278198242,44.225521087646484,44.1309928894043,45.1026496887207,44.91964340209961
216,29.873563766479492,40.977500915527344,42.86478042602539,42.76595687866211,44.89189529418945,43.820289611816406,45.17753601074219,44.34819030761719,43.583335876464844,45.80000305175781
217,28.477941513061523,37.50177764892578,41.61002731323242,44.274436950683594,43.84132766723633,44.27887725830078,43.089969635009766,42.47922897338867,43.540985107421875,46.02243423461914
218,30.04347801208496,41.480873107910156,39.95098114013672,45.185298919677734,44.79853057861328,42.737003326416016,43.68975830078125,44.62963104248047,45.443782806396484,44.30921173095703
219,33.439613342285156,39.17171859741211,39.46530532836914,43.02013397216797,43.5767936706543,44.13029479980469,43.27900695800781,43.16556167602539,44.64606857299805,44.907283782958984
220,31.015625,39.67661666870117,41.33333206176758,44.00380325317383,43.6091194152832,44.306190490722656,43.76878356933594,44.55937576293945,43.586002349853516,44.90936279296875
221,30.889326095581055,40.59114456176758,41.518394470214844,41.784481048583984,43.634918212890625,44.57281494140625,43.373085021972656,45.62686538696289,43.23283386230469,45.750732421875
222,30.804880142211914,41.36206817626953,42.43952941894531,43.52830123901367,44.02439498901367,45.171875,43.4920654296875,43.27627944946289,45.80409622192383,43.95335388183594
223,33.78947448730469,40.7611083984375,41.94174575805664,44.24451446533203,44.33216857910156,44.68292236328125,44.35014724731445,44.24011993408203,44.27678680419922,46.13314437866211
224,33.39844512939453,39.52586364746094,41.95595169067383,44.11526870727539,44.06644821166992,42.698585510253906,43.73030471801758,42.5843391418457,44.80000305175781,45.82597351074219
225,31.047800064086914,39.808929443359375,40.37430191040039,43.791969299316406,45.599998474121094,44.621620178222656,44.230262756347656,43.20058822631836,45.04267883300781,44.88268280029297
226,32.32575607299805,41.68717956542969,40.28052520751953,44.25763702392578,44.45695495605469,42.742034912109375,44.1290283203125,43.73823547363281,44.85803985595703,45.426963806152344
227,29.71074104309082,41.396427154541016,41.430076599121094,43.1046028137207,43.404178619384766,44.94654083251953,43.281646728515625,44.18292236328125,45.018924713134766,46.38418197631836
228,26.238094329833984,40.77586364746094,43.24290084838867,45.799373626708984,45.18846130371094,45.72012710571289,44.60567855834961,43.76852035522461,44.764366149902344,45.0362548828125
229,36.187984466552734,38.523807525634766,39.956520080566406,43.82089614868164,44.73161697387695,43.16118240356445,44.243751525878906,45.09969711303711,42.3994140625,45.3446159362793
230,31.830543518066406,39.18454360961914,41.87977981567383,43.86572265625,44.09900665283203,44.21782302856445,42.9096565246582,43.949527740478516,44.05247497558594,45.85013961791992
231,32.98749923706055,40.549503326416016,41.201236724853516,43.02155303955078,45.526641845703125,45.57347869873047,44.41916275024414,43.89905548095703,46.509037017822266,45.14285659790039
232,31.09734535217285,41.55218505859375,42.98214340209961,44.74489974975586,43.97091293334961,45.60691833496094,43.97492218017578,45.33934020996094,44.66666793823242,46.83988952636719
233,35.41666793823242,41.269229888916016,40.23728942871094,44.94782257080078,44.72348403930664,46.003135681152344,44.2670783996582,43.33015823364258,44.71999740600586,45.40974044799805
234,35.25511169433594,41.88349151611328,41.291664123535156,43.622642517089844,44.166114807128906,45.687049865722656,45.625728607177734,42.116764068603516,45.776023864746094,46.33917999267578
235,34.24302673339844,41.19499969482422,40.09793472290039,43.80479431152344,44.66764831542969,45.36000061035156,43.38739013671875,44.32344055175781,44.75083923339844,45.891815185546875
236,32.5578498840332,41.27461242675781,41.87458801269531,41.724281311035156,43.035926818847656,46.417545318603516,44.594425201416016,42.568450927734375,43.256248474121094,46.92424011230469
237,33.261680603027344,40.736061096191406,43.301937103271484,44.87455368041992,45.014286041259766,45.30952453613281,44.62369155883789,42.934326171875,45.304595947265625,45.24764633178711
238,31.404258728027344,41.17877197265625,43.408103942871094,46.43421173095703,44.08680725097656,45.44409942626953,45.187076568603516,44.385963439941406,42.581661224365234,43.44267654418945
239,35.77375030517578,38.91743087768555,40.76050567626953,46.0625,44.003299713134766,46.16171646118164,46.76877212524414,43.83333206176758,45.23809814453125,46.87861251831055
240,33.600399017333984,41.38129425048828,40.03260803222656,43.055145263671875,45.657142639160156,45.856651306152344,45.29585647583008,44.21834945678711,46.44985580444336,45.011558532714844
241,33.32530212402344,42.16749954223633,42.74366760253906,44.132076263427734,45.01290512084961,44.40196228027344,44.90322494506836,43.647560119628906,45.60922622680664,46.3843994140625
242,35.52727127075195,42.006874084472656,43.942359924316406,45.12544631958008,45.501930236816406,45.97398376464844,45.39730453491211,43.35897445678711,46.400630950927734,46.24269104003906
243,31.680849075317383,40.8563232421875,42.44236373901367,44.375816345214844,44.334571838378906,44.791927337646484,43.90764236450195,43.79213333129883,45.27444839477539,44.0916633605957
244,35.312252044677734,41.33707809448242,42.065887451171875,46.0631217956543,44.862064361572266,46.494625091552734,46.03216552734375,44.10062789916992,46.078487396240234,44.22674560546875
245,33.68089294433594,40.87651443481445,42.863155364990234,45.88129425048828,44.990501403808594,46.304962158203125,46.06990432739258,43.85459518432617,43.95627975463867,45.32120895385742
246,31.440155029296875,41.39119338989258,43.84950256347656,45.895652770996094,45.17475891113281,45.49044418334961,45.269107818603516,45.90571594238281,44.93586349487305,43.972225189208984
247,33.55038833618164,39.67017364501953,43.03571319580078,46.2109375,44.62199401855469,45.15806579589844,43.67500305175781,44.05248260498047,45.988059997558594,46.663978576660156
248,33.45161437988281,40.869110107421875,42.16901397705078,44.189369201660156,45.3781852722168,46.6203727722168,44.38838195800781,45.4422492980957,44.23287582397461,46.35568618774414
249,36.049564361572266,43.69841384887695,42.27231979370117,45.56711196899414,45.70774459838867,45.58899688720703,45.28571319580078,43.5472297668457,45.39775466918945,46.24483871459961
250,34.140594482421875,41.07175827026367,42.7931022644043,46.19200134277344,44.74662399291992,45.000003814697266,44.21839141845703,43.70461654663086,44.585140228271484,46.28653335571289
251,35.474788665771484,41.935035705566406,43.19133377075195,46.027523040771484,45.6184196472168,45.8227424621582,44.79525375366211,44.59821319580078,45.21895217895508,45.44959259033203
252,33.90909194946289,41.46984100341797,42.953487396240234,45.08641815185547,45.347328186035156,45.90032196044922,44.835960388183594,44.19722366333008,44.30744171142578,46.46783447265625
253,38.94231033325195,42.39785385131836,44.64670944213867,45.71062469482422,44.21348190307617,48.04999923706055,46.1888542175293,42.156593322753906,44.70278549194336,46.95238494873047
254,37.81568145751953,41.52830123901367,43.657371520996094,44.671974182128906,44.784671783447266,46.95138931274414,47.35628128051758,44.341949462890625,44.187679290771484,46.30546188354492
255,36.01731491088867,42.50224304199219,44.2994384765625,43.05033493041992,46.927337646484375,45.478416442871094,45.51250457763672,45.82521438598633,45.18715286254883,45.8144645690918
256,35.02912521362305,41.27184295654297,43.90303421020508,44.239131927490234,44.76253890991211,45.70608901977539,45.70606994628906,45.49137878417969,43.93854522705078,45.8433723449707
257,36.91666793823242,43.099998474121094,41.99423599243164,44.82795715332031,45.72340393066406,47.471946716308594,44.82392120361328,43.318450927734375,45.619319915771484,46.55774688720703
258,40.166664123535156,43.47023391723633,43.732521057128906,45.45819091796875,44.8344841003418,45.911659240722656,45.441558837890625,44.56615447998047,46.675750732421875,45.697547912597656
259,38.40945053100586,40.95283126831055,40.5,45.743831634521484,46.294700622558594,46.52447509765625,44.25796127319336,44.157100677490234,44.9395751953125,46.43466567993164
260,35.484989166259766,42.5950927734375,43.15675735473633,45.14015197753906,46.36759948730469,46.547943115234375,44.72611618041992,44.30091094970703,45.64564514160156,45.94808578491211
261,35.19306945800781,43.64096450805664,43.62574768066406,44.99541473388672,45.725486755371094,44.95469284057617,45.68077850341797,45.18037796020508,45.401214599609375,45.68870544433594
262,37.26041793823242,43.58871078491211,42.8337287902832,45.979339599609375,45.658180236816406,46.1476936340332,45.34868240356445,46.20370101928711,45.92792892456055,46.42228698730469
263,36.82352828979492,44.43918991088867,43.91044616699219,45.906978607177734,45.46721267700195,46.76971435546875,45.87974548339844,44.945159912109375,47.20808792114258,45.69161605834961
264,38.78740310668945,45.6619758605957,44.83132553100586,45.870094299316406,44.167808532714844,47.2047004699707,44.63914489746094,45.25233840942383,46.12576675415039,45.5345344543457
265,36.907283782958984,41.34013748168945,43.493751525878906,46.56690216064453,43.986488342285156,46.30268096923828,44.51796340942383,45.45337677001953,44.71739196777344,45.713890075683594
266,37.37383270263672,43.2164192199707,43.99310302734375,45.188594818115234,46.312320709228516,47.040950775146484,44.42856979370117,46.524391174316406,46.355350494384766,45.863887786865234
267,35.089744567871094,42.772560119628906,43.373985290527344,46.169490814208984,44.322914123535156,47.8983039855957,43.75884246826172,44.542057037353516,45.358428955078125,45.819766998291016
268,36.26315689086914,42.939849853515625,43.697330474853516,46.11842346191406,45.755558013916016,46.81924057006836,46.08668899536133,44.34355926513672,45.74551010131836,46.915409088134766
269,39.63079833984375,42.90625,43.57017517089844,46.07120895385742,44.21543884277344,46.86254119873047,44.67222213745117,44.578460693359375,45.23147964477539,46.81952667236328
270,37.16363525390625,42.52314376831055,42.97972869873047,45.78156661987305,46.240623474121094,46.3213005065918,45.917110443115234,43.03999710083008,46.361698150634766,45.47159194946289
271,38.0634880065918,44.150245666503906,43.68531036376953,46.90653610229492,46.097923278808594,46.8684196472168,45.98511505126953,44.68937301635742,45.73025894165039,47.19942092895508
272,35.90361785888672,43.15037536621094,44.62784194946289,44.60714340209961,46.90425491333008,45.77643585205078,45.941558837890625,45.62933349609375,45.95692443847656,45.83768081665039
273,31.52777862548828,44.90140914916992,43.8284797668457,46.439998626708984,45.669456481933594,46.26047897338867,44.43037796020508,45.21270751953125,47.26856994628906,47.321876525878906
274,40.57956314086914,38.78480911254883,42.27149200439453,45.90064239501953,46.35191345214844,45.068851470947266,43.85756301879883,43.67499542236328,47.212120056152344,46.33431625366211
275,37.449440002441406,43.94267654418945,43.2071418762207,45.973880767822266,45.766273498535156,47.606178283691406,45.543418884277344,44.789306640625,45.81666564941406,47.605342864990234
276,36.358699798583984,44.416290283203125,44.61341857910156,45.5224723815918,46.851966857910156,46.441078186035156,45.83939743041992,44.61042785644531,45.99112319946289,45.40489196777344
277,36.21052551269531,42.006900787353516,44.05714416503906,46.29718780517578,45.561798095703125,46.6858024597168,47.64210510253906,46.17438507080078,45.61585235595703,46.17582321166992
278,35.88571548461914,43.17544174194336,43.85219955444336,45.849056243896484,47.34599685668945,45.273555755615234,45.81939697265625,45.4888916015625,44.55522537231445,46.22841262817383
279,40.04232406616211,40.4878044128418,42.433589935302734,46.14814376831055,46.48275375366211,46.17973709106445,46.12540054321289,45.038211822509766,47.1008186340332,45.92528533935547
280,36.90358352661133,43.617576599121094,45.28834533691406,45.398643493652344,47.55910110473633,45.19999694824219,45.3834342956543,46.28758239746094,47.33153533935547,46.463558197021484
281,38.445499420166016,44.042606353759766,44.170494079589844,45.459228515625,47.201202392578125,46.4295768737793,46.725242614746094,46.516029357910156,46.83626174926758,46.077354431152344
282,37.95180892944336,43.57518768310547,43.69918441772461,45.37848663330078,46.8259391784668,46.05590057373047,44.77544021606445,44.578636169433594,45.726707458496094,46.99738311767578
283,34.13888931274414,44.540374755859375,45.4554443359375,46.42765426635742,44.63970947265625,45.88496017456055,46.73539733886719,45.36024856567383,47.603126525878906,46.71316146850586
284,39.50882339477539,42.279998779296875,43.58904266357422,46.5625,45.2601318359375,46.67936325073242,45.54268264770508,45.27687072753906,47.39329147338867,46.507164001464844
285,37.90827560424805,44.413944244384766,44.10869598388672,46.18992233276367,47.09356689453125,46.579124450683594,45.91544723510742,47.07973098754883,46.72114944458008,46.86856460571289
286,34.687503814697266,44.86570739746094,44.22500228881836,44.764102935791016,46.332298278808594,47.550819396972656,45.5756721496582,45.8962287902832,45.59501647949219,46.378379821777344
287,38.228912353515625,43.12890625,43.262027740478516,45.339839935302734,44.41295623779297,46.31700134277344,44.99686050415039,46.23031997680664,46.25925827026367,46.65336990356445
288,40.121212005615234,44.69444274902344,44.495269775390625,46.32522964477539,45.22175598144531,45.69279479980469,45.58858871459961,46.02058792114258,45.587303161621094,47.57878875732422
289,39.72063064575195,45.01315689086914,45.589107513427734,46.15430450439453,44.85416793823242,47.16071319580078,45.53888702392578,45.29206466674805,44.95209503173828,46.994102478027344
290,36.56220245361328,45.09828567504883,43.56028366088867,46.63082504272461,47.18390655517578,46.83657455444336,47.04970932006836,45.95833206176758,45.74858856201172,47.229103088378906
291,38.621212005615234,44.20347213745117,44.51504898071289,46.35585403442383,46.19032669067383,46.97476577758789,45.89399337768555,46.284183502197266,46.698280334472656,46.77946090698242
292,39.62963104248047,43.02941131591797,43.11666488647461,46.054473876953125,47.21804428100586,46.62429428100586,43.587120056152344,46.42547607421875,45.49854278564453,46.64265060424805
293,38.96666717529297,42.91279220581055,43.0539665222168,45.990318298339844,45.5859375,47.21364974975586,44.663333892822266,46.30519485473633,46.78329086303711,46.84702682495117
294,40.973270416259766,43.263736724853516,43.534481048583984,45.442073822021484,45.57857131958008,47.1602783203125,46.362396240234375,45.66926193237305,46.06735610961914,47.59392166137695
295,38.46428680419922,44.610023498535156,45.230770111083984,45.47311782836914,44.656959533691406,45.45353317260742,46.133705139160156,46.28522491455078,46.8781852722168,47.33893585205078
296,37.14583206176758,43.54707336425781,44.824771881103516,45.05286407470703,44.437889099121094,47.51557540893555,44.10793685913086,45.80672073364258,46.772239685058594,46.8046875
297,41.78377914428711,44.76752853393555,44.58021545410156,44.83076477050781,46.295135498046875,45.27482986450195,46.3162956237793,45.67597579956055,46.416961669921875,46.47395706176758
298,40.296295166015625,43.59748840332031,44.508419036865234,46.40571594238281,46.095420837402344,45.69182205200195,46.077171325683594,47.05421829223633,46.645259857177734,46.66762161254883
299,39.773040771484375,43.47674560546875,44.77778244018555,45.736698150634766,46.953487396240234,46.80906295776367,45.11589431762695,46.60185241699219,46.016483306884766,46.924137115478516
300,39.75,45.04545593261719,41.303226470947266,46.120140075683594,46.715171813964844,46.082786560058594,47.18266296386719,45.407283782958984,46.84782791137695,46.83491897583008
301,37.77948760986328,45.13532257080078,45.68852233886719,45.21717071533203,45.62608337402344,45.47770690917969,45.800628662109375,45.99085235595703,47.3684196472168,47.51621627807617
302,36.9871826171875,44.89788818359375,44.38802719116211,45.302040100097656,46.51590347290039,45.6558837890625,45.702877044677734,45.95454406738281,47.03144836425781,46.756690979003906
303,38.054054260253906,45.08860397338867,44.24464797973633,45.480709075927734,46.46090316772461,47.056819915771484,45.786373138427734,45.659305572509766,47.08615493774414,46.76502227783203
304,41.204524993896484,42.68000030517578,45.36399841308594,45.87384796142578,47.66666793823242,47.595890045166016,47.564247131347656,46.4720458984375,46.58558654785156,46.10734558105469
305,40.8407096862793,44.578125,44.854652404785156,46.477508544921875,46.61728286743164,46.34865951538086,46.144771575927734,47.386226654052734,46.49848937988281,46.25532150268555
306,37.47096633911133,45.00226593017578,44.10606002807617,45.85407638549805,46.10322570800781,47.03322219848633,44.69207763671875,46.160003662109375,46.329307556152344,47.63768005371094
307,37.54545593261719,43.9501953125,44.576229095458984,46.29136657714844,45.90613555908203,47.69047927856445,47.799312591552734,46.46175003051758,46.58160400390625,46.72537612915039
308,31.21875,43.272151947021484,46.01618576049805,45.90168380737305,46.518943786621094,47.221187591552734,46.50162887573242,45.735633850097656,46.45000457763672,48.08308792114258
309,41.43701171875,43.246158599853516,44.909481048583984,45.193450927734375,45.14240646362305,45.565372467041016,47.620296478271484,45.720001220703125,47.65266036987305,46.40168380737305
310,39.656715393066406,45.35456085205078,44.0489501953125,46.72312545776367,45.89795684814453,47.93115997314453,47.11594009399414,48.00640869140625,47.51142883300781,46.1761474609375
311,39.43850326538086,45.837005615234375,44.98371505737305,43.766056060791016,46.08132553100586,47.61027145385742,46.48504638671875,46.993953704833984,46.66762161254883,47.45989227294922
312,38.25640869140625,45.77859878540039,44.79136657714844,44.86345291137695,46.16151428222656,47.35628890991211,45.953182220458984,45.76770782470703,45.78086853027344,46.51948165893555
313,44.878787994384766,48.30232620239258,45.15135192871094,46.11696243286133,46.56640625,46.94357681274414,47.387569427490234,46.67301559448242,46.77809143066406,47.87215805053711
314,41.01592254638672,44.65151596069336,43.14522933959961,46.089744567871094,45.77364730834961,46.70588302612305,45.91279220581055,46.88179016113281,47.63817596435547,47.57306671142578
315,40.46784973144531,44.96736526489258,45.358821868896484,45.00613021850586,46.447757720947266,46.77550506591797,45.58382797241211,47.2049674987793,46.76384735107422,47.361270904541016
316,42.435752868652344,46.28398132324219,43.93929672241211,46.10887145996094,47.125,48.11880874633789,47.39143753051758,47.574466705322266,46.60436248779297,47.04802322387695
317,38.578948974609375,45.699275970458984,45.338382720947266,46.5390625,45.57691955566406,48.033992767333984,45.09493637084961,46.35542297363281,47.021148681640625,47.69889450073242
318,39.66666793823242,46.4307746887207,44.85879135131836,45.81269073486328,47.659175872802734,45.55464553833008,46.909908294677734,46.71893310546875,46.15454864501953,47.5738639831543
319,42.53386306762695,43.39285659790039,43.270042419433594,45.600589752197266,44.793331146240234,48.34700393676758,47.214874267578125,46.83024215698242,47.36201477050781,46.58959197998047
320,40.617923736572266,44.6209831237793,41.11724090576172,45.385379791259766,45.50310516357422,47.572391510009766,46.89445877075195,46.31595230102539,46.770591735839844,47.29824447631836
321,41.186336517333984,45.49656677246094,45.874210357666016,45.13725662231445,46.15835952758789,47.236061096191406,46.480934143066406,46.85111999511719,46.91242980957031,48.126075744628906
322,38.62711715698242,45.44814682006836,44.913150787353516,46.08428955078125,46.19503402709961,47.00585174560547,45.26837158203125,47.68254089355469,46.29360580444336,47.02857208251953
323,39.400001525878906,44.51020050048828,44.6050910949707,47.40113067626953,44.42584991455078,46.77521514892578,47.410091400146484,46.173912048339844,46.183380126953125,47.454803466796875
324,42.338294982910156,48.13333511352539,45.008968353271484,45.880680084228516,47.526641845703125,46.10963439941406,46.423824310302734,45.714744567871094,46.79328155517578,47.72492980957031
325,41.54047775268555,44.553382873535156,45.400001525878906,47.36092758178711,46.715572357177734,47.59531784057617,46.522727966308594,45.561195373535156,47.57500076293945,47.784000396728516
326,38.871795654296875,46.11832809448242,44.88356018066406,44.85652160644531,46.505714416503906,46.77885055541992,47.53823471069336,46.234954833984375,46.327484130859375,47.16530990600586
327,32.41071319580078,46.0120964050293,44.640625,45.86475372314453,46.29617691040039,46.49287414550781,45.85620880126953,46.97035217285156,46.829410552978516,46.38399887084961
328,30.66666603088379,45.49166488647461,44.560245513916016,45.508094787597656,45.88405990600586,47.771427154541016,45.93968200683594,46.403953552246094,46.667606353759766,47.121883392333984
329,42.44015884399414,42.532257080078125,44.88479232788086,46.524391174316406,46.36271286010742,47.582523345947266,48.425289154052734,47.850318908691406,47.429317474365234,47.675071716308594
330,41.56029510498047,45.0438232421875,44.30215835571289,46.16083908081055,47.5264778137207,46.53546142578125,46.513736724853516,46.495323181152344,46.87700653076172,47.89655303955078
331,41.35000228881836,45.52655029296875,44.75325012207031,45.625640869140625,45.26993942260742,47.11428451538086,44.006370544433594,46.966102600097656,47.085548400878906,48.47058868408203
332,45.581817626953125,46.74444580078125,45.33168411254883,45.810699462890625,47.33962631225586,48.18263626098633,47.05296325683594,48.09196090698242,47.5933723449707,47.94118118286133
333,40.400001525878906,45.07258224487305,44.829200744628906,45.631736755371094,45.68376159667969,48.487342834472656,47.25871658325195,45.70570755004883,46.776161193847656,46.710811614990234
334,41.93220520019531,46.254547119140625,44.3836784362793,46.505714416503906,44.56184005737305,47.46808624267578,46.26271438598633,47.89263916015625,47.517242431640625,47.511627197265625
335,40.131263732910156,45.6315803527832,43.0640983581543,46.88963317871094,46.25,48.18288040161133,47.19314193725586,46.948272705078125,46.408573150634766,47.36723327636719
336,41.35664367675781,44.433406829833984,44.54717254638672,44.985713958740234,45.956520080566406,47.97153091430664,46.671051025390625,45.46647644042969,47.87647247314453,48.21883773803711
337,38.5,44.219329833984375,45.09774398803711,46.4225959777832,47.72114944458008,47.663551330566406,45.08218765258789,45.514366149902344,46.92441940307617,47.504249572753906
338,45.86363220214844,45.8897590637207,45.003013610839844,47.19822311401367,46.15708923339844,47.62678146362305,46.92258071899414,47.11249542236328,46.4880256652832,46.16622543334961
339,42.24052047729492,45.753623962402344,45.36538314819336,46.20506286621094,46.975528717041016,48.2149543762207,46.353981018066406,47.27457809448242,46.76648712158203,47.613643646240234
340,41.5570182800293,45.39318084716797,47.022727966308594,44.38275909423828,46.200592041015625,47.336769104003906,46.30958938598633,46.812503814697266,45.87392807006836,47.1384162902832
341,43.145347595214844,44.75565719604492,46.262413024902344,46.676326751708984,45.4180793762207,49.111488342285156,46.57821273803711,46.74539566040039,47.80250930786133,47.73118209838867
342,37.38775634765625,47.67918014526367,45.05376434326172,45.974788665771484,47.20608139038086,47.64417266845703,48.167171478271484,47.971988677978516,46.25987243652344,47.05026626586914
343,42.22222137451172,44.782257080078125,45.75498580932617,46.00967788696289,45.39393997192383,47.346500396728516,47.05937194824219,47.218990325927734,47.303680419921875,47.068965911865234
344,43.02691650390625,45.68421173095703,46.38678741455078,47.06026840209961,46.06428527832031,47.969383239746094,46.703590393066406,46.6418342590332,47.134769439697266,48.160606384277344
345,42.80256271362305,44.740234375,45.68217086791992,47.19426727294922,46.327274322509766,47.03515625,47.71977996826172,47.00308609008789,47.48020935058594,48.132720947265625
346,40.40876388549805,45.81425857543945,45.4089469909668,46.512691497802734,46.205406188964844,46.71428680419922,45.135807037353516,46.424072265625,48.20339584350586,46.42149353027344
347,44.175437927246094,45.21739196777344,44.52736282348633,47.38222122192383,46.26182556152344,47.142433166503906,47.27430725097656,46.13972473144531,47.83024597167969,48.20558547973633
348,45.125,44.94852828979492,46.755680084228516,45.993934631347656,45.65060806274414,48.25070571899414,45.71283721923828,46.4261360168457,47.471805572509766,48.465293884277344
349,42.27689743041992,46.01639175415039,46.48750305175781,46.58430099487305,47.51041793823242,48.556884765625,46.62614440917969,46.861385345458984,46.10803985595703,48.23719787597656
350,41.087806701660156,44.989105224609375,45.8273811340332,46.7188606262207,45.975608825683594,47.292518615722656,47.31880187988281,45.41401290893555,46.639888763427734,47.1588249206543
351,40.365516662597656,45.29637908935547,45.55986022949219,45.56828308105469,45.130435943603516,47.10000228881836,46.441925048828125,47.87147521972656,45.77876281738281,46.63736343383789
352,41.12727355957031,43.17741775512695,44.73434066772461,46.086273193359375,44.763938903808594,48.51402282714844,47.74359130859375,47.07713317871094,46.1378288269043,46.46260452270508
353,44.40909194946289,44.69173049926758,45.35514450073242,47.431610107421875,44.89513397216797,46.72340393066406,46.993995666503906,47.0056037902832,47.2909049987793,47.85399627685547
354,43.31976318359375,44.209678649902344,46.64285659790039,46.18605041503906,46.17770004272461,47.26115036010742,47.845916748046875,46.58891677856445,46.368568420410156,47.87853240966797
355,42.148681640625,44.876033782958984,46.44800567626953,46.59310531616211,46.79518127441406,47.73630142211914,46.13988494873047,47.52958679199219,46.850948333740234,48.00288009643555
356,42.064937591552734,46.359031677246094,46.36933898925781,47.16326904296875,47.24419021606445,47.48875045776367,47.1473388671875,46.41617202758789,47.40374755859375,48.1878662109375
357,40.79245376586914,44.169883728027344,46.786800384521484,44.209205627441406,45.91288375854492,47.757225036621094,45.88271713256836,47.014835357666016,45.92857360839844,45.93169403076172
358,40.33333206176758,43.953128814697266,46.72274398803711,47.17182922363281,45.06167221069336,47.56211471557617,46.790367126464844,47.87724685668945,46.5302619934082,48.049739837646484
359,43.70307922363281,47.349205017089844,44.95698928833008,45.69696807861328,47.849998474121094,48.12274169921875,46.47486114501953,46.5911750793457,48.04398727416992,47.75
360,42.458736419677734,45.502105712890625,46.00775146484375,45.64285659790039,45.407203674316406,47.48221206665039,46.20786666870117,47.754390716552734,47.10755920410156,47.80833435058594
361,42.91366958618164,45.967105865478516,46.25,47.25581359863281,44.9444465637207,48.687286376953125,46.657142639160156,47.641666412353516,46.80523681640625,47.832401275634766
362,44.261905670166016,46.40510940551758,46.17856979370117,46.62890625,45.674495697021484,47.95930099487305,47.274078369140625,46.90190887451172,46.52112579345703,47.430938720703125
363,38.16666793823242,45.96825408935547,47.1773681640625,47.9088249206543,45.80370330810547,48.216217041015625,47.43278503417969,45.30330276489258,47.156497955322266,48.20699691772461
364,43.77634048461914,44.52381134033203,46.89201736450195,46.44767379760742,46.902278900146484,47.843536376953125,47.43274688720703,47.38943862915039,48.264102935791016,47.447513580322266
365,42.28571319580078,45.66873550415039,47.55263137817383,47.1943473815918,47.229461669921875,46.906978607177734,47.105262756347656,45.74922561645508,46.53824234008789,47.677921295166016
366,41.702701568603516,45.12178039550781,45.14012908935547,48.4572868347168,46.33710861206055,47.189998626708984,47.530677795410156,47.86725997924805,46.67711639404297,47.62468338012695
367,40.04166793823242,46.72761535644531,47.08354949951172,47.594261169433594,47.09489059448242,47.660118103027344,45.44267654418945,47.27678680419922,47.350772857666016,47.45501708984375
368,47.0,42.934783935546875,45.756248474121094,47.5203742980957,46.40392303466797,47.70145034790039,47.48159408569336,46.920249938964844,46.781715393066406,47.20441818237305
369,42.987064361572266,45.93939208984375,45.7609748840332,47.20000457763672,47.02806854248047,47.71126937866211,46.35393142700195,48.23303985595703,47.89317321777344,48.00895690917969
370,41.09821319580078,45.611473083496094,45.47760772705078,47.039424896240234,46.22006607055664,47.31785583496094,46.3814697265625,46.25471496582031,47.54107666015625,47.86666488647461
371,42.2049674987793,45.86334228515625,47.185428619384766,48.032257080078125,46.874237060546875,47.632450103759766,47.5492057800293,46.926231384277344,46.83939743041992,48.025936126708984
372,42.236366271972656,45.63917541503906,47.74677658081055,47.800865173339844,47.33587646484375,47.568450927734375,46.59933853149414,46.68586349487305,47.17378234863281,47.94505310058594
373,48.05262756347656,45.17610168457031,46.941715240478516,46.69969177246094,46.739295959472656,48.02134323120117,47.46604537963867,47.44891357421875,46.91135787963867,47.13662338256836
374,44.65538024902344,44.31944274902344,46.914798736572266,47.591548919677734,47.080421447753906,48.80141830444336,47.88724136352539,46.293209075927734,46.882652282714844,47.9611930847168
375,41.944725036621094,46.33202362060547,47.97581100463867,47.769493103027344,47.45532989501953,47.673004150390625,48.24702453613281,46.137428283691406,47.36440658569336,46.98599624633789
376,42.96527862548828,45.19424057006836,46.89285659790039,46.248779296875,46.527931213378906,49.219932556152344,45.51602554321289,48.569400787353516,48.1656608581543,47.793968200683594
377,45.79069900512695,45.3684196472168,45.92631912231445,46.16783142089844,46.84558868408203,48.2400016784668,45.98625946044922,47.7758674621582,46.91566467285156,46.70719528198242
378,47.06666564941406,46.038455963134766,45.43356704711914,46.9765625,46.000003814697266,47.45608901977539,47.18122863769531,46.74050521850586,47.554317474365234,47.7304573059082
379,43.11354446411133,46.47367858886719,45.96728515625,45.90361404418945,47.10576629638672,47.38800811767578,46.9942512512207,47.83277130126953,47.57734680175781,48.12362289428711
380,42.90178680419922,46.074562072753906,44.95762634277344,47.52381134033203,47.56712341308594,48.41090774536133,47.379119873046875,46.02265548706055,46.95266342163086,47.843833923339844
381,43.60431671142578,46.109619140625,46.7328987121582,47.20098114013672,47.287357330322266,48.511253356933594,46.590362548828125,47.138729095458984,47.66453552246094,47.5703125
382,46.568180084228516,44.45724868774414,47.02211380004883,47.413787841796875,46.91843795776367,48.093833923339844,46.20469284057617,48.465606689453125,47.92255401611328,47.743167877197266
383,46.153846740722656,46.441864013671875,47.24324417114258,47.40616226196289,45.262298583984375,47.95335388183594,47.90390396118164,48.08955383300781,47.518310546875,48.28658676147461
384,43.20180130004883,46.552242279052734,47.27230453491211,47.03514099121094,47.49659729003906,47.89436721801758,47.46174621582031,46.620582580566406,48.18110275268555,47.87077713012695
385,42.98507308959961,45.482688903808594,46.61666488647461,48.21738815307617,46.1983642578125,47.17100524902344,46.935482025146484,46.8377571105957,48.02777099609375,48.01718521118164
386,43.6014518737793,44.71526336669922,46.422584533691406,48.14070510864258,47.02564239501953,47.037166595458984,46.53750228881836,46.8821907043457,46.84097671508789,47.672733306884766
387,38.45238494873047,45.75185012817383,47.441253662109375,46.5062255859375,46.69536590576172,47.04917907714844,47.027305603027344,47.73458480834961,47.97391128540039,46.13874435424805
388,47.29411315917969,45.29751968383789,47.14018249511719,46.0,46.99224853515625,47.50895309448242,46.747474670410156,47.260746002197266,47.661109924316406,47.59946060180664
389,44.5289421081543,47.14516067504883,46.96135330200195,47.400001525878906,47.783973693847656,46.80441665649414,47.080780029296875,47.65676498413086,47.32637023925781,47.73163986206055
390,42.179359436035156,45.91020965576172,46.66667175292969,47.29889678955078,47.01412582397461,47.59122085571289,46.84492111206055,46.622520446777344,47.88541793823242,47.92286682128906
391,42.94326400756836,45.94558334350586,46.449180603027344,47.72277069091797,47.74571990966797,48.07911682128906,47.27545166015625,48.025352478027344,46.878421783447266,48.76041793823242
392,41.54545593261719,44.78067398071289,47.0,47.52610397338867,46.19928741455078,47.91549301147461,47.693748474121094,47.842105865478516,48.18954086303711,47.24359130859375
393,44.823524475097656,45.606056213378906,46.626197814941406,47.331321716308594,45.060482025146484,48.239192962646484,46.52311706542969,47.866851806640625,47.582584381103516,47.86772537231445
394,43.79880905151367,40.661537170410156,47.3980598449707,46.87156295776367,47.86119842529297,48.22414016723633,46.53333282470703,47.54769515991211,47.497440338134766,48.093658447265625
395,41.83454895019531,46.010101318359375,46.97413635253906,47.22627258300781,47.18803024291992,48.02255630493164,47.70523452758789,47.35735321044922,46.71207809448242,47.54768753051758
396,42.400001525878906,45.73660659790039,46.511322021484375,47.08762741088867,46.60123062133789,48.080745697021484,47.74760055541992,47.273712158203125,46.97707748413086,47.119239807128906
397,43.433963775634766,45.68965530395508,48.40153503417969,46.56470489501953,47.64338684082031,48.26225280761719,46.54355239868164,48.65809631347656,48.667659759521484,46.749359130859375
398,42.3125,45.76811599731445,46.632911682128906,46.98860549926758,47.81557846069336,48.2068977355957,47.75297546386719,47.492584228515625,47.494415283203125,47.74185562133789
399,44.110557556152344,43.18571472167969,46.84848403930664,47.091148376464844,47.821163177490234,48.08218765258789,46.9514274597168,47.56996154785156,47.5175895690918,47.16042709350586
400,43.94102478027344,46.04606246948242,48.10619354248047,47.40593719482422,47.68000030517578,47.130767822265625,46.97041320800781,48.114906311035156,47.499996185302734,46.634666442871094
401,43.488189697265625,45.322940826416016,46.62460708618164,46.08000183105469,47.57391357421875,48.00655746459961,47.8870964050293,46.872833251953125,47.296974182128906,47.575069427490234
402,41.33333206176758,45.837833404541016,47.120967864990234,47.42145538330078,47.277584075927734,47.15300369262695,48.540924072265625,47.67448806762695,47.544071197509766,47.41752624511719
403,50.0,44.93893051147461,46.871620178222656,46.70919418334961,48.22692108154297,47.83852767944336,48.21333312988281,46.81602478027344,48.437870025634766,48.60497283935547
404,42.96906280517578,46.449275970458984,47.68877410888672,47.85793685913086,47.50908660888672,48.53650665283203,48.45217514038086,47.508304595947266,47.02513885498047,47.36335372924805
405,43.569087982177734,46.49364471435547,45.484615325927734,46.68132019042969,48.161678314208984,48.46996307373047,47.39118576049805,47.22883987426758,48.64637756347656,47.31623840332031
406,42.0,45.82167053222656,47.539878845214844,46.324466705322266,48.284847259521484,47.314754486083984,47.65395736694336,47.859195709228516,47.17575454711914,48.047752380371094
407,43.90909194946289,46.02263641357422,46.509708404541016,46.37860107421875,47.995948791503906,48.24507141113281,46.228187561035156,48.19524383544922,47.910491943359375,48.01108169555664
408,45.5,44.21897888183594,48.62424087524414,45.95402145385742,45.14655303955078,48.25981521606445,47.009315490722656,48.408695220947266,47.445072174072266,47.078948974609375
409,44.20717239379883,45.04838943481445,47.452735900878906,47.138816833496094,47.35689163208008,48.553035736083984,47.12568283081055,47.860389709472656,47.51020812988281,47.36858367919922
410,42.6546745300293,45.714576721191406,45.983333587646484,48.21160888671875,47.216217041015625,49.44140625,48.08670425415039,47.89423370361328,47.89610290527344,48.01152801513672
411,42.24647903442383,46.16783142089844,47.081321716308594,46.308074951171875,46.76612854003906,48.710880279541016,47.50719451904297,48.5714225769043,47.93063735961914,47.57512283325195
412,39.88372039794922,46.63953399658203,47.093597412109375,46.8972282409668,47.29268264770508,47.7422981262207,46.59999465942383,47.488948822021484,47.32817459106445,47.77915573120117
413,47.20000457763672,46.74336242675781,46.71556854248047,47.80548095703125,47.86065673828125,48.352149963378906,48.13310623168945,47.58169937133789,47.756614685058594,46.65564727783203
414,43.8358154296875,47.672725677490234,47.138248443603516,47.29670333862305,47.97618865966797,47.67531967163086,47.76589584350586,48.359588623046875,46.55949401855469,48.0982666015625
415,43.3051643371582,46.51641082763672,45.37272644042969,47.59197235107422,47.85912322998047,46.901458740234375,47.603675842285156,47.33898162841797,48.28612518310547,46.76685333251953
416,41.77777862548828,47.020267486572266,46.40666580200195,48.700531005859375,46.99423599243164,47.70058059692383,48.37897872924805,48.05585861206055,48.19122314453125,47.07957077026367
417,45.139530181884766,46.72761154174805,46.933162689208984,46.147186279296875,46.91901397705078,48.24083709716797,46.860069274902344,46.97010803222656,46.801856994628906,47.68021774291992
418,34.83333206176758,48.34710693359375,47.40524673461914,47.273006439208984,48.655738830566406,48.082191467285156,47.459877014160156,48.275569915771484,48.194610595703125,48.13544845581055
419,44.20576858520508,45.87036895751953,47.20918273925781,47.836788177490234,48.45985794067383,47.656768798828125,46.848243713378906,48.00651931762695,46.710105895996094,48.168678283691406
420,44.61190414428711,46.18619155883789,47.55045700073242,46.9155387878418,47.784481048583984,48.615108489990234,48.01813507080078,48.092655181884766,47.60916519165039,48.16617202758789
421,42.616004943847656,46.93376159667969,47.253334045410156,47.27941131591797,48.42458724975586,48.720394134521484,47.720237731933594,47.96581268310547,48.41926193237305,47.79213333129883
422,42.75862121582031,45.41353225708008,48.04197692871094,46.120967864990234,47.216026306152344,47.903682708740234,47.980133056640625,48.024070739746094,47.58333206176758,47.35714340209961
423,48.5,45.47058868408203,47.40439224243164,47.93767547607422,46.61693572998047,47.7408447265625,48.06168746948242,48.204917907714844,47.95441436767578,47.30503845214844
424,44.55378341674805,48.04166793823242,46.488037109375,48.01362228393555,47.1655158996582,48.06338119506836,48.008087158203125,47.67182540893555,48.085105895996094,46.92953872680664
425,44.76885223388672,46.485233306884766,46.715518951416016,46.637821197509766,47.41159439086914,48.56391143798828,47.67119598388672,47.380950927734375,46.76439666748047,47.42104721069336
426,43.67692184448242,47.275108337402344,46.6757698059082,46.06770706176758,47.74504089355469,47.84244155883789,46.167701721191406,48.098628997802734,47.69913864135742,47.22715377807617
427,45.833335876464844,45.31060791015625,47.6180419921875,47.03076934814453,46.48973083496094,48.315494537353516,48.28956604003906,47.83761215209961,47.57017517089844,47.84634780883789
428,39.727272033691406,46.31654739379883,47.82373046875,46.59946060180664,47.65625,47.411930084228516,48.318180084228516,48.11890411376953,48.16438293457031,47.44986343383789
429,43.688934326171875,45.814815521240234,47.66831588745117,47.47353744506836,47.81999969482422,48.69964599609375,47.80769348144531,47.4339599609375,47.55710220336914,48.31694030761719
430,42.63571548461914,46.23077392578125,47.725494384765625,47.3445930480957,47.048912048339844,47.78599548339844,47.33333206176758,48.04969024658203,48.24932098388672,48.01401138305664
431,44.22818374633789,45.743099212646484,46.50178909301758,46.41666793823242,47.42329406738281,48.35258102416992,47.59449768066406,47.57412338256836,47.54867172241211,47.55145263671875
432,44.377777099609375,47.23943328857422,47.471649169921875,46.72072219848633,47.416378021240234,48.2282600402832,48.235294342041016,48.870269775390625,47.527530670166016,48.56684112548828
433,34.09090805053711,46.25547409057617,46.99065017700195,47.44674301147461,46.95867919921875,46.880592346191406,46.999996185302734,47.530155181884766,48.41315841674805,48.79154968261719
434,43.71230697631836,45.10714340209961,46.8317756652832,46.478759765625,46.884891510009766,48.352943420410156,48.44444274902344,48.25517654418945,47.35877990722656,48.32941818237305
435,43.71058654785156,45.56087112426758,45.626014709472656,46.901058197021484,47.85185241699219,48.60966491699219,47.62352752685547,48.07692337036133,48.449440002441406,47.68767166137695
436,42.79999923706055,46.82978820800781,48.45205307006836,48.25480651855469,47.856266021728516,48.52824020385742,48.30275344848633,48.47813415527344,47.83231735229492,47.20466232299805
437,47.394737243652344,45.441856384277344,46.856449127197266,46.89873123168945,46.83985900878906,47.34592819213867,47.771331787109375,48.127479553222656,48.80695724487305,47.992401123046875
438,46.08333206176758,45.564517974853516,46.87423324584961,47.67790985107422,47.62015151977539,47.839393615722656,47.5033073425293,47.64515686035156,48.49565124511719,47.516666412353516
439,44.07270812988281,46.75471115112305,45.735843658447266,46.79656219482422,45.96071243286133,48.36805725097656,47.798851013183594,48.14715576171875,47.946807861328125,47.01818084716797
440,43.247528076171875,46.553279876708984,48.367523193359375,46.48263931274414,47.78841018676758,48.339698791503906,48.47761535644531,47.431678771972656,47.701148986816406,48.912681579589844
441,42.840904235839844,46.547298431396484,46.628204345703125,47.36216354370117,46.69013977050781,48.182796478271484,48.20063781738281,47.6610107421875,48.41485595703125,47.45329666137695
442,43.02325439453125,47.30453109741211,47.81534957885742,48.079830169677734,47.71527862548828,48.181270599365234,47.41811752319336,47.85795593261719,47.931251525878906,47.39946746826172
443,50.0,48.043861389160156,47.238670349121094,47.41225814819336,48.364036560058594,48.41739273071289,47.99673080444336,48.127906799316406,47.84477233886719,46.583797454833984
444,44.037967681884766,44.437503814697266,47.59708786010742,46.23711395263672,47.294342041015625,48.2939338684082,47.76012420654297,48.479366302490234,47.956756591796875,47.11799240112305
445,43.34027862548828,46.62929153442383,46.912696838378906,47.735191345214844,47.18611145019531,48.86274337768555,48.016807556152344,47.46357727050781,48.12568283081055,47.38643264770508
446,43.74468231201172,47.05689239501953,46.78102493286133,46.8138313293457,47.33512496948242,49.318023681640625,47.62727737426758,47.18769454956055,47.68115997314453,48.11320877075195
447,40.75,47.934696197509766,47.94321060180664,47.37614822387695,47.02013397216797,47.35674285888672,48.71724319458008,48.77428436279297,48.80000305175781,48.578670501708984
448,47.125,46.7843132019043,47.82544708251953,48.00912094116211,48.319332122802734,48.057376861572266,47.73379135131836,47.74647903442383,47.82316970825195,48.33149337768555
449,44.236289978027344,44.69811248779297,48.475677490234375,46.59042739868164,47.377288818359375,48.02272415161133,48.02253341674805,48.977638244628906,48.92647171020508,48.2598876953125
450,42.588096618652344,46.834407806396484,49.546390533447266,47.53268051147461,47.35102844238281,48.219696044921875,48.522666931152344,49.37113571166992,47.9315071105957,47.59195327758789
451,43.18367385864258,46.82630157470703,48.556251525878906,47.96482467651367,47.85756301879883,48.587459564208984,47.53395080566406,49.286136627197266,48.35243606567383,47.92485427856445
452,43.79545593261719,45.3934440612793,47.186527252197266,48.192771911621094,47.84717559814453,47.713844299316406,47.989654541015625,48.14435577392578,49.092063903808594,47.8991813659668
453,47.30769348144531,47.938594818115234,46.990291595458984,47.207393646240234,48.514522552490234,48.34560775756836,47.74276351928711,47.66666793823242,47.786354064941406,48.603824615478516
454,44.23352813720703,45.367347717285156,47.23857879638672,47.92716979980469,46.61565399169922,47.83850860595703,47.378379821777344,47.677520751953125,48.13420867919922,47.70674133300781
455,43.49758529663086,46.654659271240234,46.61363220214844,47.59016418457031,46.38081741333008,48.5246467590332,48.60439682006836,47.789825439453125,48.572208404541016,47.50144958496094
456,43.66423034667969,46.27853775024414,47.35202407836914,47.463680267333984,48.086822509765625,48.908782958984375,47.95587921142578,48.875,47.56024169921875,47.81769561767578
457,45.840911865234375,45.16400146484375,47.539241790771484,48.158538818359375,47.59191131591797,48.93696212768555,47.3033332824707,48.675071716308594,48.00973892211914,48.44332504272461
458,30.090909957885742,47.3671875,48.038333892822266,47.843135833740234,47.67727279663086,48.329376220703125,48.430419921875,48.285301208496094,47.71714401245117,48.0
459,45.3061637878418,44.733333587646484,47.926109313964844,47.39839553833008,46.77153396606445,48.138301849365234,48.26856994628906,47.839508056640625,48.398860931396484,48.63422393798828
460,44.41895294189453,46.348453521728516,47.20000076293945,47.46551513671875,47.77712631225586,47.11336135864258,48.46063995361328,48.37617492675781,48.84096908569336,47.748573303222656
461,42.07633590698242,45.47747802734375,47.17549514770508,47.45588302612305,47.98285675048828,48.33573913574219,48.828670501708984,48.9525146484375,48.800594329833984,47.255374908447266
462,42.55555725097656,47.5113639831543,46.91666793823242,46.107295989990234,48.329673767089844,48.39884567260742,48.07575988769531,47.75139617919922,48.03658676147461,48.17837905883789
463,34.749996185302734,46.74106979370117,47.03845977783203,47.688045501708984,47.6291618347168,48.37101364135742,48.253379821777344,47.663429260253906,47.77118682861328,47.345298767089844
464,44.656375885009766,47.33332824707031,46.882354736328125,48.15485382080078,47.38909149169922,48.26779556274414,47.27793884277344,48.3510627746582,47.846988677978516,47.24858856201172
465,43.6978874206543,47.43124771118164,44.016807556152344,47.215545654296875,47.42276382446289,49.23643493652344,48.24860382080078,49.338924407958984,48.68404769897461,48.52445602416992
466,42.28776550292969,47.657894134521484,47.9411735534668,46.57476043701172,47.41926193237305,48.86759567260742,48.17628860473633,48.0,48.887786865234375,47.41099548339844
467,41.224998474121094,47.373538970947266,47.86318588256836,46.85020065307617,46.37704849243164,48.220237731933594,48.034725189208984,48.26388931274414,47.996700286865234,47.87977981567383
468,39.0625,46.35185241699219,47.89240264892578,46.71703338623047,47.410850524902344,47.72622299194336,46.60472869873047,47.690059661865234,48.85093307495117,48.53824234008789
469,45.34989547729492,46.6274528503418,45.136905670166016,47.41265869140625,48.66197204589844,48.45541000366211,48.03845977783203,47.559486389160156,48.0823860168457,48.20058822631836
470,42.74494934082031,45.578311920166016,47.55963134765625,48.010990142822266,47.41572952270508,48.139286041259766,47.989418029785156,48.769493103027344,48.1648063659668,48.410491943359375
471,44.703121185302734,46.710113525390625,46.405059814453125,46.39130401611328,46.73198699951172,48.39556884765625,46.890907287597656,47.44242477416992,47.03571319580078,48.43258285522461
472,39.74193572998047,45.73046875,47.13317108154297,47.266056060791016,47.79719924926758,48.8375358581543,47.41216278076172,46.80533218383789,47.61488723754883,47.4781494140625
473,50.0,48.26415252685547,46.455360412597656,46.93854904174805,47.57207489013672,48.938716888427734,48.56074905395508,48.13314437866211,49.00621032714844,47.49161911010742
474,45.052947998046875,45.42499923706055,47.92307662963867,46.78947448730469,47.050193786621094,46.95608139038086,47.401084899902344,47.090030670166016,48.40750503540039,48.68098449707031
475,44.0372200012207,46.373443603515625,46.57500076293945,45.92604446411133,48.00572967529297,48.1164665222168,47.78590774536133,48.10429000854492,48.31635284423828,47.89164352416992
476,43.25862121582031,46.889122009277344,47.453643798828125,47.521366119384766,47.30769348144531,47.17762756347656,47.8780517578125,48.93428421020508,48.51774978637695,48.63143539428711
477,46.682926177978516,47.474510192871094,47.77598190307617,46.239131927490234,47.06907653808594,48.00859451293945,49.06923294067383,47.50129699707031,47.978721618652344,47.47761154174805
478,47.777774810791016,47.38052749633789,49.071632385253906,48.15915298461914,48.0,47.73652648925781,47.35888671875,48.599998474121094,47.91520309448242,48.31619644165039
479,44.5858268737793,47.977272033691406,48.03960418701172,47.779747009277344,48.41999816894531,48.91390609741211,49.331478118896484,49.35438919067383,48.849998474121094,48.26630401611328
480,42.38516616821289,46.477420806884766,46.69091033935547,47.524845123291016,47.92156982421875,47.79598617553711,48.880950927734375,48.25,47.55641174316406,47.29661178588867
481,44.13013458251953,47.830020904541016,48.79496383666992,47.159793853759766,47.05208206176758,47.647972106933594,48.951927185058594,47.691429138183594,48.21519088745117,48.694236755371094
482,44.44230651855469,45.54878234863281,46.31392288208008,47.204254150390625,47.407283782958984,48.75331497192383,48.21724319458008,48.297000885009766,48.608699798583984,47.94174575805664
483,46.46154022216797,46.39024353027344,47.75077819824219,47.20731735229492,47.121952056884766,47.82442855834961,48.10577392578125,47.48546600341797,48.061092376708984,48.656410217285156
484,44.118404388427734,45.35593032836914,48.00495147705078,48.0684928894043,47.40316390991211,47.5667610168457,47.39622497558594,47.996707916259766,48.26445770263672,48.28273391723633
485,43.679588317871094,47.60000228881836,46.8991584777832,46.67010498046875,48.59816360473633,48.323848724365234,47.47938537597656,48.41587448120117,46.858726501464844,47.79939270019531
486,42.279998779296875,47.453269958496094,46.904762268066406,46.94607925415039,47.74418640136719,48.38754653930664,47.20000076293945,47.804595947265625,47.983009338378906,47.10588073730469
487,47.45454406738281,45.59111022949219,47.980770111083984,47.75862121582031,48.522029876708984,47.687686920166016,47.02631759643555,48.098445892333984,47.61561584472656,48.712364196777344
488,32.0,47.33333206176758,48.77887725830078,46.675071716308594,47.386451721191406,48.5848503112793,48.05678176879883,48.932960510253906,48.15342330932617,48.11748504638672
489,44.63473129272461,43.20588302612305,48.26776123046875,47.65104293823242,47.56296157836914,48.22666549682617,48.23893737792969,47.46749496459961,49.0625,47.953487396240234
490,43.82666778564453,47.3796501159668,45.918365478515625,47.55123519897461,47.546512603759766,48.67021560668945,48.65406799316406,48.48220443725586,48.207698822021484,48.158905029296875
491,41.323307037353516,47.24881362915039,47.68867874145508,47.04571533203125,48.03824996948242,47.74402618408203,48.95267868041992,46.979652404785156,49.029762268066406,48.380245208740234
492,44.48780059814453,47.81147384643555,48.37092590332031,46.62660598754883,48.21200942993164,49.05882263183594,48.27239990234375,48.65768051147461,48.639610290527344,48.96690368652344
493,50.0,47.90435028076172,47.13538360595703,47.76557922363281,47.30836868286133,47.78097915649414,48.159610748291016,48.13677978515625,47.78550720214844,48.15561294555664
494,4.0,46.85714340209961,47.73429870605469,47.63823699951172,47.62671661376953,48.56446075439453,49.0524787902832,47.894569396972656,48.7899169921875,48.162723541259766
495,50.000003814697266,50.000003814697266,46.414894104003906,47.42904281616211,48.153377532958984,47.728302001953125,49.31428527832031,48.47419357299805,48.357723236083984,47.97935104370117
496,nan,50.0,48.82051467895508,46.51777267456055,47.690185546875,48.68370819091797,48.548500061035156,48.067447662353516,46.10227584838867,47.9207649230957
497,nan,50.0,45.818180084228516,47.19047546386719,48.687076568603516,48.204402923583984,48.31672668457031,47.80112075805664,48.40303039550781,48.3862419128418
498,nan,nan,49.999996185302734,44.20408248901367,47.4033088684082,48.744808197021484,49.843135833740234,47.52322006225586,48.545196533203125,48.66849136352539
499,nan,nan,nan,48.275856018066406,48.119564056396484,47.67973709106445,49.124996185302734,48.2786865234375,48.39095687866211,47.878334045410156
500,nan,nan,nan,44.0,47.339622497558594,48.04568099975586,48.0638313293457,48.199363708496094,47.87395095825195,48.38888931274414
501,nan,nan,nan,50.0,48.43333435058594,47.75925827026367,48.93569564819336,48.76038360595703,47.85585403442383,48.3582878112793
502,nan,nan,nan,50.0,45.45454788208008,50.0,48.9375,48.242332458496094,47.61094665527344,48.293060302734375
503,nan,nan,nan,nan,49.999996185302734,45.79999923706055,49.21367645263672,48.10818862915039,46.74397659301758,48.66374206542969
504,nan,nan,nan,nan,50.0,47.125,48.730770111083984,48.4878044128418,48.002784729003906,48.258460998535156
505,nan,nan,nan,nan,nan,50.0,47.650001525878906,48.79487228393555,48.80453872680664,48.92470169067383
506,nan,nan,nan,nan,nan,50.0,50.0,47.43955612182617,48.50165939331055,48.14971923828125
507,nan,nan,nan,nan,nan,nan,50.0,49.16071319580078,48.10256576538086,48.210243225097656
508,nan,nan,nan,nan,nan,nan,50.000003814697266,48.344825744628906,47.6065559387207,49.03508758544922
509,nan,nan,nan,nan,nan,nan,49.999996185302734,50.0,47.701297760009766,47.758750915527344
510,nan,nan,nan,nan,nan,nan,nan,50.0,47.5,47.79309844970703
511,nan,nan,nan,nan,nan,nan,nan,50.0,49.999996185302734,49.14285659790039
512,nan,nan,nan,nan,nan,nan,nan,nan,50.0,46.76271438598633
513,nan,nan,nan,nan,nan,nan,nan,nan,50.000003814697266,42.97058868408203
514,nan,nan,nan,nan,nan,nan,nan,nan,50.0,47.578948974609375
515,nan,nan,nan,nan,nan,nan,nan,nan,nan,50.0
516,nan,nan,nan,nan,nan,nan,nan,nan,nan,50.0
517,nan,nan,nan,nan,nan,nan,nan,nan,nan,50.0
