iteration,1,2,3,4,5,6,7,8,9,10
0,5.89300012588501,nan,nan,nan,nan,nan,nan,nan,nan,nan
1,6.377747058868408,5.079999923706055,5.0,nan,nan,nan,nan,nan,nan,nan
2,5.619819641113281,7.22352933883667,9.100000381469727,nan,nan,nan,nan,nan,nan,nan
3,5.933823585510254,6.228699684143066,8.208333015441895,25.0,nan,nan,nan,nan,nan,nan
4,5.416666507720947,6.25,8.285714149475098,16.83333396911621,nan,nan,nan,nan,nan,nan
5,5.9344940185546875,6.2007575035095215,5.9610395431518555,7.545454502105713,4.5,nan,nan,nan,nan,nan
6,6.099067687988281,5.772454738616943,7.583332538604736,8.368420600891113,5.0,nan,nan,nan,nan,nan
7,5.703525543212891,6.2840094566345215,6.474820137023926,9.090909004211426,14.75,nan,nan,nan,nan,nan
8,5.252136707305908,6.026252746582031,6.580110549926758,7.270833969116211,5.125,2.0,nan,nan,nan,nan
9,4.984894275665283,5.599508762359619,6.315788745880127,7.7313432693481445,4.692307472229004,4.0,nan,nan,nan,nan
10,5.750609874725342,5.20519495010376,6.064777851104736,6.989474296569824,8.421053886413574,4.666666507720947,nan,nan,nan,nan
11,6.1306304931640625,5.736485958099365,5.7984490394592285,6.428570747375488,8.205881118774414,10.399999618530273,nan,nan,nan,nan
12,5.929411888122559,5.563440799713135,5.954861164093018,5.656488418579102,6.818181991577148,12.625,nan,nan,nan,nan
13,5.657787322998047,5.382591247558594,6.203883647918701,5.528662204742432,5.821429252624512,4.099999904632568,nan,nan,nan,nan
14,5.515068054199219,5.499999523162842,6.17133903503418,5.3947367668151855,6.969696521759033,6.866666793823242,nan,nan,nan,nan
15,5.891097068786621,5.4161224365234375,5.926900386810303,6.390697479248047,6.350649833679199,6.38095235824585,nan,nan,nan,nan
16,5.894852161407471,5.3320465087890625,5.5,6.087719440460205,6.161616325378418,6.5652174949646,nan,nan,nan,nan
17,5.523255825042725,5.793961048126221,5.659897804260254,6.395917892456055,5.643477916717529,5.285714149475098,nan,nan,nan,nan
18,5.171483993530273,5.831192493438721,5.6022725105285645,6.305660724639893,5.927419662475586,5.594594955444336,5.333333492279053,nan,nan,nan
19,5.843406677246094,5.794174671173096,5.950749397277832,5.752727508544922,5.532467365264893,5.682927131652832,5.599999904632568,nan,nan,nan
20,5.909234523773193,5.75,5.68017053604126,6.2515339851379395,5.005917549133301,5.976744174957275,5.25,nan,nan,nan
21,5.641408920288086,5.489879131317139,6.265822887420654,6.008571624755859,6.193877696990967,5.090909004211426,7.699999809265137,nan,nan,nan
22,5.387275218963623,5.826962471008301,5.622641563415527,6.597403049468994,5.888888835906982,5.710144996643066,4.5,nan,nan,nan
23,5.148698329925537,5.894840717315674,5.465163230895996,6.17587947845459,6.157024383544922,5.488371849060059,7.25,nan,nan,nan
24,5.27680778503418,6.190380573272705,5.5213847160339355,6.246192932128906,5.757246971130371,5.049019813537598,5.642857074737549,nan,nan,nan
25,5.681573390960693,5.825807094573975,5.796040058135986,5.834134578704834,5.346938610076904,5.463414669036865,7.000000476837158,nan,nan,nan
26,6.081760883331299,5.791498184204102,5.458417892456055,5.350797176361084,6.366241931915283,5.346153736114502,4.611111164093018,4.0,nan,nan
27,6.00281286239624,5.707143306732178,5.513078689575195,6.211663722991943,5.643533706665039,5.979865550994873,6.095238208770752,8.0,nan,nan
28,5.394941806793213,5.693662166595459,6.063953399658203,6.48734188079834,6.240355968475342,5.594285488128662,5.230769157409668,7.000000476837158,nan,nan
29,5.167130470275879,5.6733574867248535,5.653306007385254,5.806584358215332,5.991803169250488,5.7669901847839355,4.4285712242126465,2.3333332538604736,nan,nan
30,5.698323726654053,5.938976287841797,6.127744674682617,5.9464287757873535,5.603217124938965,5.5089287757873535,4.560975551605225,3.3999996185302734,nan,nan
31,5.86210823059082,5.436089992523193,5.766046047210693,5.954717636108398,5.555556297302246,5.443548202514648,6.370370388031006,6.333333969116211,nan,nan
32,5.74332332611084,5.577817440032959,5.507307052612305,5.634765625,6.0165486335754395,5.653846263885498,6.791666030883789,5.1666669845581055,nan,nan
33,5.659405708312988,5.578096866607666,5.580578327178955,5.75728178024292,5.532557964324951,5.763250827789307,5.056818008422852,6.285714149475098,nan,nan
34,5.472375392913818,5.959031105041504,5.713438510894775,5.875,5.696506023406982,5.327814102172852,5.597938060760498,5.888888359069824,nan,nan
35,5.945011615753174,5.786007881164551,5.625482082366943,6.031936168670654,5.644067287445068,5.573667526245117,5.779816150665283,6.090909004211426,nan,nan
36,5.820815563201904,5.9078688621521,5.873293876647949,6.014402866363525,6.003991603851318,5.285714149475098,5.858267307281494,7.083333492279053,nan,nan
37,5.471346855163574,5.629834175109863,5.5291829109191895,5.964000225067139,5.769538879394531,5.558659076690674,5.621428489685059,5.4666666984558105,nan,nan
38,5.471374034881592,5.619133472442627,6.1161417961120605,5.340816497802734,5.757225513458252,5.243455410003662,5.865385055541992,4.857142925262451,nan,nan
39,5.4833760261535645,6.104046821594238,6.346457004547119,6.025242805480957,6.061302661895752,5.316195487976074,6.0233917236328125,5.800000190734863,nan,nan
40,5.8211188316345215,6.039762020111084,5.957537651062012,6.012820720672607,5.606177806854248,5.329355716705322,5.307291507720947,6.161290168762207,13.000000953674316,nan
41,6.097614288330078,5.567050457000732,5.774590015411377,6.372623443603516,5.60405158996582,5.259259223937988,5.622641563415527,5.599999904632568,7.0,nan
42,5.647807598114014,6.103896617889404,6.295634746551514,5.941860675811768,5.528233051300049,5.622270584106445,5.931330680847168,6.045454502105713,4.0,nan
43,5.384469032287598,6.501937389373779,6.335968017578125,5.579815864562988,5.794918060302734,5.615711212158203,5.916666507720947,5.211538314819336,2.0,nan
44,5.005063533782959,5.893003940582275,6.119607925415039,5.621621608734131,5.990958213806152,5.440816402435303,5.597014904022217,4.96875,6.0,nan
45,6.024199485778809,5.977628707885742,5.799999713897705,5.82539701461792,5.990494251251221,5.427221298217773,5.982269287109375,5.945945739746094,4.666666507720947,nan
46,5.856052398681641,5.878243923187256,5.94779109954834,5.935943603515625,5.562852382659912,4.968864917755127,5.356436252593994,6.024691581726074,7.166667461395264,nan
47,5.783744812011719,5.583025932312012,6.505285263061523,5.30742073059082,5.726432800292969,5.223570346832275,6.302839279174805,6.041666507720947,4.333333492279053,nan
48,5.955513000488281,6.106464385986328,6.105691432952881,5.9031147956848145,5.639405250549316,5.725086212158203,5.874233722686768,5.213675022125244,6.625,nan
49,5.380319118499756,5.630831718444824,5.938492298126221,6.309909820556641,6.21015739440918,5.403812408447266,5.947213649749756,5.829628944396973,6.909090042114258,nan
50,5.614715099334717,6.183982849121094,5.844793796539307,5.434950828552246,5.8228068351745605,5.2003607749938965,5.653284549713135,5.43055534362793,8.571428298950195,nan
51,6.004385948181152,5.755186557769775,5.860557556152344,6.1875,5.335087776184082,5.034735202789307,6.026315689086914,5.679487705230713,3.9166667461395264,nan
52,5.695906639099121,5.873805046081543,6.036961078643799,5.920849323272705,5.832215309143066,5.42647123336792,6.2844038009643555,5.206185817718506,6.307693004608154,nan
53,5.4969940185546875,5.970315456390381,6.290123462677002,6.2444891929626465,5.7305192947387695,5.426470756530762,5.887282848358154,6.805309772491455,5.4666666984558105,nan
54,5.432961463928223,6.053704261779785,6.215686798095703,5.852941036224365,6.055380344390869,5.01094913482666,5.956639766693115,6.4918036460876465,5.333333969116211,nan
55,6.09913444519043,6.621242523193359,6.7139739990234375,5.982387542724609,6.404682159423828,5.58742618560791,5.732142925262451,6.320000171661377,6.666667461395264,nan
56,5.816192626953125,5.834600925445557,6.276824474334717,5.5182342529296875,5.858407497406006,5.140222072601318,5.899665832519531,6.079545497894287,5.5714287757873535,nan
57,5.857566833496094,6.429615497589111,6.259634494781494,5.973535060882568,5.687160968780518,5.137010097503662,6.255520343780518,6.631067752838135,4.875,nan
58,5.43326473236084,6.429111480712891,6.467557430267334,5.911196708679199,6.614034652709961,5.10689640045166,5.951514720916748,6.304347991943359,7.5,nan
59,5.45892333984375,6.107003688812256,6.282442569732666,6.0545806884765625,6.372583389282227,5.199672698974609,6.322580814361572,6.626984119415283,4.437499523162842,nan
60,5.756821632385254,6.527720928192139,5.946850299835205,6.202334403991699,6.3707051277160645,5.346221446990967,6.8621907234191895,6.456789970397949,4.25,nan
61,6.15239143371582,6.179104328155518,6.034205436706543,5.696324825286865,6.5223612785339355,5.239316463470459,6.238095283508301,6.389999866485596,7.499999523162842,2.0
62,5.821959018707275,6.1361260414123535,6.635051727294922,6.0683112144470215,6.34782600402832,5.626003265380859,6.156740188598633,7.165138244628906,5.090909481048584,14.000000953674316
63,5.793522357940674,6.121908187866211,5.773584842681885,6.232142925262451,6.1944990158081055,5.030534267425537,6.194690227508545,6.78151273727417,6.882352828979492,2.999999761581421
64,5.490028381347656,5.925373077392578,6.494781494140625,6.185053825378418,5.752399921417236,5.3023600578308105,5.639999866485596,6.716535568237305,7.320000171661377,4.0
65,5.971955299377441,6.273100852966309,5.929018974304199,6.090909004211426,5.876425743103027,5.538335800170898,6.628571510314941,6.2923078536987305,7.199999809265137,nan
66,6.113883018493652,5.935999870300293,6.056337833404541,5.734657287597656,6.4210524559021,5.212071895599365,5.90508508682251,6.363636493682861,5.454545497894287,nan
67,5.603448390960693,6.391969680786133,6.573929786682129,6.29038143157959,5.998103141784668,5.227200031280518,6.12618350982666,6.106382846832275,6.69230842590332,nan
68,5.442042827606201,6.045619964599609,6.109374523162842,5.603321075439453,6.189138412475586,5.623210906982422,6.499999523162842,6.308411121368408,5.624999523162842,nan
69,5.231197834014893,6.133455276489258,6.067209720611572,6.098418712615967,6.072243690490723,5.279675006866455,6.478149890899658,8.132231712341309,5.75,nan
70,6.099285125732422,5.891519069671631,6.539916038513184,5.817543983459473,6.307262420654297,5.407207012176514,6.453376293182373,7.397059440612793,4.555555820465088,nan
71,5.914224147796631,5.870674133300781,5.959314823150635,6.187713146209717,6.4372758865356445,5.239640235900879,6.071005821228027,6.844155788421631,9.333333015441895,nan
72,5.865583419799805,6.2802653312683105,6.041753768920898,5.934142112731934,6.968084812164307,5.276408672332764,6.210083961486816,6.918604850769043,6.125,nan
73,5.647749423980713,6.663851737976074,6.397541522979736,5.926956653594971,6.4090094566345215,5.607321262359619,6.018666744232178,6.960000038146973,5.176470756530762,nan
74,5.276536464691162,6.237226486206055,6.019723892211914,6.017452239990234,6.3249101638793945,5.608902931213379,6.322077751159668,7.198276519775391,5.823529243469238,nan
75,5.878281593322754,6.441056728363037,6.579847812652588,6.404719352722168,6.0931901931762695,5.424657821655273,5.914473533630371,6.386666774749756,3.8333332538604736,2.0
76,5.911764621734619,5.928982734680176,5.9901580810546875,6.2114386558532715,6.035523891448975,6.039182186126709,6.703592777252197,7.2134833335876465,6.833333492279053,1.0
77,5.99716329574585,6.08253288269043,6.386193752288818,6.949300765991211,6.238515377044678,5.91349458694458,6.315363883972168,6.8316826820373535,5.25,3.0
78,5.548689365386963,6.546139240264893,6.023765563964844,6.913919448852539,6.5008544921875,5.673469066619873,6.3975300788879395,7.396395683288574,7.999999046325684,3.999999761581421
79,5.222222328186035,6.227450847625732,6.892138957977295,6.452514171600342,6.538461685180664,5.597039699554443,6.5720930099487305,6.666666507720947,6.5714287757873535,6.666666507720947
80,5.997669219970703,6.629787445068359,6.145251274108887,6.274582386016846,7.414507865905762,5.751748085021973,6.831250190734863,6.599999904632568,9.0,nan
81,5.983923435211182,5.880807876586914,6.652985095977783,6.528985500335693,6.253520965576172,5.135906219482422,6.8522725105285645,7.393617153167725,8.44444465637207,nan
82,5.828080177307129,6.61966609954834,6.217726230621338,6.4991021156311035,7.010362148284912,5.903278827667236,6.529411792755127,6.222222328186035,7.384615421295166,nan
83,5.312500476837158,6.086879253387451,6.5403852462768555,6.381386756896973,6.054145812988281,5.5024309158325195,6.776000499725342,7.919118404388428,4.357142925262451,6.000000476837158
84,5.370180130004883,6.47258996963501,6.572266101837158,6.626593589782715,6.4983110427856445,5.839313507080078,6.984924793243408,6.844594478607178,6.611111640930176,7.000000476837158
85,5.843505859375,6.36713981628418,6.489109039306641,6.738657474517822,5.873935222625732,5.602006912231445,6.739811897277832,7.242424964904785,7.400000095367432,nan
86,6.095238208770752,6.258620738983154,6.317525863647461,6.618466854095459,6.654173851013184,5.940298557281494,7.194202899932861,6.283185958862305,5.111111164093018,nan
87,5.70441198348999,6.819615364074707,6.361999988555908,6.602914810180664,6.803691387176514,6.253635406494141,6.854881286621094,6.960318088531494,7.92307710647583,nan
88,5.384462356567383,6.559648513793945,5.903660297393799,6.546960830688477,6.7552666664123535,5.707993507385254,6.775818824768066,6.912161827087402,7.187499523162842,nan
89,5.2912917137146,6.227941513061523,6.344890594482422,6.261363983154297,6.8827362060546875,6.0890302658081055,7.68660306930542,6.696969509124756,7.05555534362793,nan
90,5.745981216430664,6.263803482055664,6.709024429321289,6.927203178405762,6.410214424133301,6.018612384796143,6.809091091156006,7.788462162017822,6.7272725105285645,nan
91,6.180722713470459,5.941883563995361,6.236598968505859,6.5804595947265625,6.545757293701172,6.011986255645752,7.329700469970703,7.650000095367432,5.92307710647583,nan
92,5.656387805938721,6.564150810241699,6.635009765625,6.3005571365356445,6.1862921714782715,6.22857141494751,7.040921211242676,7.820143699645996,5.1666669845581055,nan
93,5.4271650314331055,6.859314918518066,6.5944952964782715,6.608057975769043,7.042301177978516,5.993185043334961,7.048661231994629,6.59999942779541,7.041666507720947,20.999998092651367
94,5.704607009887695,6.6147541999816895,6.2070794105529785,6.696226596832275,6.770293712615967,6.033444881439209,7.4436936378479,7.057803630828857,5.679999828338623,3.499999761581421
95,5.955307483673096,6.431290149688721,6.707581043243408,7.231638431549072,6.9723663330078125,5.565862655639648,7.129973411560059,7.019230842590332,9.076923370361328,nan
96,5.69925594329834,6.778008460998535,6.367537498474121,6.94795560836792,7.2041168212890625,5.675045013427734,7.398477077484131,7.663934230804443,4.882352828979492,nan
97,5.6963791847229,6.77419376373291,6.756505489349365,6.860594272613525,6.907504081726074,5.972835540771484,7.669154167175293,7.1521735191345215,6.63157844543457,nan
98,5.390476226806641,6.267326831817627,6.500938415527344,7.214156150817871,6.8047943115234375,5.7350006103515625,7.114634037017822,7.975610733032227,6.5714287757873535,nan
99,5.293478488922119,6.570296764373779,6.803058624267578,7.229802131652832,6.951388359069824,6.196078300476074,7.966980457305908,7.962566375732422,5.352941036224365,nan
100,5.908372402191162,6.688340663909912,6.9361701011657715,6.852372646331787,7.194945812225342,6.430850982666016,8.3392333984375,7.357723712921143,6.050000190734863,nan
101,5.885228633880615,6.275862216949463,6.720532417297363,7.414035320281982,7.3624773025512695,6.114923000335693,6.994413375854492,9.05555534362793,4.150000095367432,5.0
102,5.356338024139404,6.95029878616333,6.5772199630737305,7.517117023468018,6.582746505737305,5.791379928588867,7.853471279144287,8.207317352294922,4.440000057220459,0.0
103,5.702803611755371,6.697395324707031,6.578449726104736,7.09193229675293,7.218058109283447,6.150662422180176,7.63265323638916,7.533708095550537,5.705882549285889,6.0
104,5.283854007720947,6.371485710144043,6.7330756187438965,6.609433650970459,7.108551979064941,5.7715229988098145,8.47088623046875,7.687804698944092,4.744185924530029,6.999999523162842
105,5.855038642883301,6.825263500213623,6.752987861633301,6.802281379699707,7.313659191131592,5.9630279541015625,8.052288055419922,7.696296215057373,6.3636369705200195,nan
106,5.884738445281982,6.533864498138428,6.693957328796387,6.861111164093018,7.351945877075195,5.923214435577393,8.97604751586914,8.789473533630371,6.4375,nan
107,5.868084907531738,7.013133525848389,6.545105457305908,7.187023162841797,7.371528625488281,5.912371635437012,8.166190147399902,7.588235855102539,7.52500057220459,nan
108,5.2366414070129395,6.794230937957764,7.606870651245117,7.090038299560547,7.543147087097168,6.338983058929443,8.613079071044922,8.909090995788574,5.9782609939575195,nan
109,5.236412525177002,6.419161796569824,7.208251476287842,7.589981555938721,7.266087055206299,5.636807918548584,8.509186744689941,8.157635688781738,6.090909004211426,nan
110,5.634692192077637,6.765690326690674,6.631249904632568,7.681901454925537,7.534270763397217,6.631756782531738,8.276224136352539,8.221518516540527,5.592592716217041,nan
111,6.00429630279541,6.535497188568115,6.838911533355713,7.011152267456055,7.455630779266357,6.123952865600586,8.781350135803223,6.977011680603027,5.666666030883789,nan
112,5.6049723625183105,7.048485279083252,7.208835601806641,6.947269916534424,7.614982604980469,6.145367622375488,8.219512939453125,7.957895278930664,4.348837375640869,nan
113,5.404452800750732,6.478431701660156,6.54890251159668,7.64760160446167,7.951958179473877,6.651491165161133,8.226744651794434,9.642857551574707,6.288461685180664,nan
114,5.631043434143066,6.936254978179932,6.655172824859619,6.873563766479492,7.3989362716674805,6.371429443359375,8.539726257324219,8.945701599121094,6.17460298538208,nan
115,5.839062690734863,6.795651435852051,7.309054851531982,7.820866107940674,7.730633735656738,6.620065689086914,9.477272033691406,8.132352828979492,5.4193549156188965,nan
116,5.9733757972717285,6.7817792892456055,7.001937389373779,7.7272725105285645,7.981067180633545,6.155115604400635,9.121950149536133,9.29487133026123,6.824999809265137,nan
117,5.738888740539551,6.823413372039795,7.1350812911987305,7.9032883644104,7.719789981842041,6.428109645843506,8.565714836120605,8.517441749572754,6.274510383605957,nan
118,5.699219226837158,7.003809928894043,7.081349849700928,6.962302207946777,8.278660774230957,6.504732608795166,9.643411636352539,7.9444451332092285,5.516666889190674,13.333334922790527
119,5.313316345214844,7.031682968139648,7.132382869720459,7.053149700164795,7.530466079711914,6.272307872772217,8.941605567932129,8.393939018249512,5.369863033294678,14.0
120,6.082742214202881,7.095238208770752,7.056565761566162,6.510638236999512,8.236940383911133,6.009677410125732,9.937143325805664,8.347107887268066,6.75,10.0
121,5.9776787757873535,7.061100006103516,6.936381816864014,7.730401515960693,7.361377239227295,6.543750762939453,8.99711799621582,8.767295837402344,6.3684210777282715,12.5
122,5.641369342803955,7.365048885345459,7.528265476226807,7.207364559173584,8.3812255859375,6.102134704589844,9.329578399658203,9.313186645507812,6.543478965759277,6.0
123,5.46787166595459,6.787233352661133,6.999999523162842,7.772221088409424,7.749011516571045,6.446586608886719,9.06970500946045,9.482757568359375,5.1186442375183105,7.666666507720947
124,5.794721603393555,7.282101631164551,6.274428367614746,7.552239418029785,8.00390625,5.947368621826172,9.15308666229248,9.159090995788574,5.91044807434082,6.0
125,6.025101184844971,6.717949390411377,7.539235591888428,8.1328125,8.163461685180664,6.686885356903076,8.782089233398438,8.904109954833984,6.760000228881836,1.0
126,6.252847194671631,7.21875,7.19279670715332,7.671814441680908,8.617753982543945,6.193181991577148,8.492918014526367,8.389937400817871,6.366666793823242,5.0
127,5.789062976837158,7.147114276885986,6.6338911056518555,7.809160232543945,8.620939254760742,6.330112934112549,10.141733169555664,9.365714073181152,7.5116286277771,7.333333492279053
128,5.655669689178467,7.274620532989502,7.327868938446045,7.4931769371032715,8.213903427124023,6.930081367492676,9.287439346313477,9.22631549835205,7.226415157318115,9.999999046325684
129,5.529745578765869,7.363821029663086,6.8410468101501465,7.500956058502197,8.372513771057129,6.467105388641357,8.62192440032959,8.455445289611816,6.179104328155518,5.0
130,6.007176876068115,7.143181800842285,7.274661540985107,7.1848249435424805,8.230769157409668,6.641975402832031,10.538461685180664,9.193333625793457,6.82608699798584,nan
131,6.015695095062256,6.536231994628906,7.281187534332275,8.671844482421875,8.116666793823242,6.183218955993652,9.10164737701416,8.65142822265625,5.017857074737549,9.0
132,5.484011650085449,7.416173934936523,7.150313854217529,7.648221969604492,8.658182144165039,6.941080093383789,10.475936889648438,8.902703285217285,5.582089424133301,4.0
133,5.394636631011963,7.411765098571777,7.4916672706604,7.82011604309082,8.872797966003418,6.827856063842773,10.786967277526855,8.44278621673584,5.620253562927246,4.000000476837158
134,5.497422695159912,6.529540538787842,6.8381147384643555,7.210427761077881,8.123529434204102,7.142409801483154,10.567500114440918,8.43514633178711,6.0459771156311035,6.400000095367432
135,6.2710280418396,7.531322479248047,7.07660436630249,7.287356376647949,8.38911247253418,6.4571428298950195,10.892441749572754,8.237837791442871,7.333333492279053,15.5
136,5.875406265258789,7.26086950302124,6.780320167541504,8.33515453338623,7.896907806396484,6.871753215789795,10.351351737976074,10.152284622192383,5.333333492279053,8.333333015441895
137,5.683748722076416,7.527132034301758,7.854304790496826,8.052530288696289,9.036538124084473,6.7166948318481445,10.805195808410645,8.473913192749023,7.344827651977539,5.5
138,5.617464065551758,6.756604194641113,7.771551609039307,7.98802375793457,9.23106861114502,7.099186897277832,10.573202133178711,8.369478225708008,5.972602844238281,7.666667461395264
139,5.588588714599609,6.92415189743042,8.096360206604004,7.739394664764404,8.590291023254395,6.9309210777282715,10.21090030670166,8.658363342285156,6.304878234863281,11.0
140,5.868653774261475,7.555056095123291,8.611940383911133,8.37325382232666,8.6560640335083,6.804635524749756,11.120447158813477,7.994924068450928,6.204545497894287,6.499999523162842
141,6.001137733459473,7.716418266296387,7.146929740905762,8.028903007507324,8.966403007507324,6.478548049926758,10.316216468811035,9.344979286193848,5.224489688873291,4.0
142,5.815431118011475,7.516806602478027,7.241164207458496,8.709163665771484,8.532289505004883,7.2973856925964355,10.92764949798584,8.245902061462402,6.409836769104004,4.666666507720947
143,5.568316459655762,7.694214820861816,7.318749904632568,8.506173133850098,8.829787254333496,6.626002311706543,11.222498893737793,10.085185050964355,4.85915470123291,7.333332538604736
144,5.5151519775390625,7.2784810066223145,7.4979166984558105,8.794816017150879,8.407407760620117,7.045669078826904,10.95566463470459,9.700996398925781,5.9746832847595215,10.0
145,5.93815279006958,7.073660850524902,8.5117769241333,7.940552234649658,9.121442794799805,7.640275478363037,10.716292381286621,9.291666984558105,6.212766170501709,3.0
146,6.138580322265625,6.9681525230407715,8.073990821838379,8.059184074401855,8.176352500915527,7.462310791015625,11.07774829864502,10.32800006866455,6.436363697052002,0.0
147,5.8453755378723145,7.573195934295654,7.863930702209473,7.742677688598633,8.841897010803223,6.731164455413818,11.234146118164062,9.641129493713379,7.50649356842041,9.000000953674316
148,5.8016037940979,8.465116500854492,7.821206092834473,8.371901512145996,8.996086120605469,7.475778579711914,11.952718734741211,8.681992530822754,6.8712873458862305,2.5
149,5.623595714569092,7.758620738983154,7.871901035308838,8.392354011535645,8.232741355895996,7.649826526641846,10.841629981994629,9.197880744934082,6.279661178588867,5.000000476837158
150,6.075939178466797,7.714284896850586,8.653060913085938,8.553535461425781,9.617063522338867,8.218114852905273,11.690666198730469,10.869369506835938,6.28000020980835,13.5
151,6.222467422485352,6.900442600250244,7.492341995239258,9.412474632263184,9.521127700805664,7.413670063018799,10.893940925598145,11.168001174926758,7.276923656463623,2.0
152,5.709439277648926,7.511247158050537,8.033482551574707,8.841364860534668,9.146340370178223,7.58506965637207,12.999999046325684,12.199999809265137,6.5121941566467285,7.25
153,5.5292887687683105,8.670782089233398,7.81779670715332,8.23155689239502,8.951020240783691,7.194958209991455,11.554186820983887,9.938356399536133,6.326732635498047,13.0
154,5.4986443519592285,7.849224090576172,8.486430168151855,8.286004066467285,9.445121765136719,7.739565849304199,12.06812572479248,11.333333015441895,6.405171871185303,7.571427822113037
155,5.91915225982666,7.655940532684326,8.419068336486816,9.138401985168457,9.519762992858887,7.695035457611084,12.41351318359375,9.735849380493164,7.741936206817627,11.0
156,6.103638172149658,6.986331939697266,7.92584228515625,8.7470121383667,9.425402641296387,6.973775863647461,11.874673843383789,10.87903118133545,6.637680530548096,9.833333015441895
157,5.838428020477295,8.343621253967285,7.2511210441589355,8.842741966247559,9.706611633300781,7.950342655181885,12.914729118347168,11.600000381469727,5.853658676147461,7.625
158,5.343395709991455,8.143468856811523,7.867494106292725,8.970401763916016,8.865702629089355,7.478849411010742,12.773300170898438,11.620688438415527,7.9811320304870605,7.999999046325684
159,5.383631706237793,7.707657337188721,7.786720275878906,9.596846580505371,10.243664741516113,7.334453582763672,12.824427604675293,10.407644271850586,6.954545974731445,6.909090995788574
160,6.407729148864746,8.13809585571289,8.376811981201172,9.391608238220215,9.088234901428223,8.219130516052246,13.179566383361816,12.01204776763916,7.987654209136963,8.833333015441895
161,6.091619968414307,7.457983493804932,8.058700561523438,9.144145011901855,9.731755256652832,8.061295509338379,13.831360816955566,10.510869979858398,6.709677219390869,10.25
162,5.7349772453308105,7.725925922393799,8.050209999084473,9.910480499267578,9.896130561828613,8.221071243286133,13.02686595916748,12.254902839660645,6.846153736114502,7.222222328186035
163,5.83613395690918,7.897769451141357,8.396624565124512,9.83495044708252,9.482691764831543,8.167832374572754,13.433427810668945,11.837422370910645,6.21830940246582,8.727272033691406
164,5.483679294586182,8.56147575378418,8.260162353515625,9.719715118408203,10.358120918273926,8.1813383102417,12.171582221984863,11.962318420410156,6.072727203369141,6.833333492279053
165,6.092948913574219,7.422802448272705,8.17907428741455,10.104211807250977,11.214583396911621,8.887272834777832,13.75,11.276000022888184,6.4571428298950195,9.125
166,6.232378959655762,7.845291614532471,8.621999740600586,9.582056999206543,10.660297393798828,8.165454864501953,14.051074981689453,11.065384864807129,7.807692527770996,8.727272987365723
167,5.488921165466309,7.548653602600098,8.372384071350098,8.870706558227539,9.828692436218262,8.94171142578125,13.658665657043457,10.39222526550293,7.324502468109131,8.125
168,5.588803291320801,7.745140552520752,8.725971221923828,10.8289213180542,10.39743709564209,8.685455322265625,13.725593566894531,11.622149467468262,7.193940162658691,14.727272987365723
169,5.50765323638916,7.415909767150879,9.0288667678833,10.122621536254883,10.068825721740723,8.333333015441895,14.34677505493164,10.780120849609375,7.279570579528809,10.461538314819336
170,5.905791759490967,7.568475246429443,7.816842555999756,9.495867729187012,10.482000350952148,9.647601127624512,14.311178207397461,12.909775733947754,6.801652908325195,9.307692527770996
171,6.208465576171875,7.956521511077881,8.482401847839355,9.465065956115723,11.199999809265137,9.162062644958496,15.692090034484863,12.006826400756836,7.2330827713012695,16.33333396911621
172,5.972106456756592,7.654507160186768,8.315451622009277,9.417607307434082,10.872047424316406,9.869484901428223,14.06117057800293,12.455974578857422,6.829113960266113,9.529411315917969
173,5.4873785972595215,8.441718101501465,8.65333366394043,9.691489219665527,10.157464027404785,8.129630088806152,14.150649070739746,12.137930870056152,6.914285659790039,8.363636016845703
174,5.72323751449585,7.769396781921387,8.76991081237793,9.344826698303223,10.97750473022461,8.815412521362305,13.983957290649414,11.32010555267334,7.365979194641113,13.862069129943848
175,5.898965835571289,8.309416770935059,8.528888702392578,9.247264862060547,11.279166221618652,9.33147144317627,14.041297912597656,12.585616111755371,7.882812976837158,8.454545021057129
176,5.9312639236450195,7.466522693634033,9.215645790100098,10.284753799438477,11.30277156829834,9.426230430603027,14.647564888000488,12.127945899963379,7.6878981590271,10.764705657958984
177,5.957910060882568,8.172839164733887,8.769230842590332,11.207207679748535,11.632034301757812,8.595281600952148,14.14168930053711,11.75,7.150537490844727,12.105262756347656
178,5.90543270111084,7.751540184020996,9.472574234008789,10.952493667602539,11.223140716552734,9.94784164428711,13.768816947937012,13.018461227416992,6.922329902648926,10.038461685180664
179,5.895773887634277,8.51745319366455,9.094218254089355,10.040475845336914,11.208500862121582,8.55985164642334,14.31185531616211,12.943284034729004,7.084388256072998,8.677419662475586
180,6.202735424041748,8.022989273071289,9.210309028625488,10.505827903747559,11.515021324157715,9.819819450378418,15.10179615020752,12.030075073242188,6.394904613494873,7.529411792755127
181,5.641408920288086,8.417633056640625,8.564583778381348,10.492273330688477,11.763675689697266,9.5,14.9375,13.355172157287598,8.392045021057129,10.105262756347656
182,5.76923131942749,7.814004898071289,8.785416603088379,11.060669898986816,11.581730842590332,9.741992950439453,14.25753402709961,13.7828950881958,6.976744174957275,11.050000190734863
183,5.673664093017578,8.091476440429688,9.211740493774414,10.62552261352539,11.190476417541504,9.80492115020752,14.567204475402832,14.160882949829102,7.942623138427734,12.777777671813965
184,5.302452087402344,8.800429344177246,8.997906684875488,10.596529006958008,12.200912475585938,9.498238563537598,16.542198181152344,13.052959442138672,8.586956024169922,13.617646217346191
185,6.3075103759765625,7.97560977935791,9.654885292053223,11.79871654510498,10.814898490905762,10.887885093688965,14.877778053283691,12.385455131530762,8.11111068725586,12.923076629638672
186,6.235358238220215,7.878103733062744,9.643011093139648,10.171366691589355,11.760085105895996,9.583658218383789,15.085858345031738,14.230240821838379,8.467289924621582,16.77777862548828
187,5.733624458312988,8.242485046386719,10.142539024353027,10.419700622558594,11.477801322937012,10.27237319946289,15.120512962341309,12.644230842590332,7.962184906005859,13.714285850524902
188,5.807157516479492,8.070850372314453,9.957208633422852,10.598726272583008,13.01656436920166,10.104743957519531,15.76296329498291,13.465045928955078,8.110687255859375,9.258064270019531
189,5.798295497894287,8.147916793823242,9.442176818847656,10.799155235290527,11.989361763000488,9.239130020141602,16.410629272460938,14.215298652648926,9.279311180114746,11.487180709838867
190,6.2850236892700195,7.757505893707275,9.361797332763672,11.679999351501465,11.068888664245605,10.001934051513672,14.023316383361816,13.234113693237305,8.113512992858887,14.848484992980957
191,5.878378391265869,8.200819969177246,9.184148788452148,11.759825706481934,12.721030235290527,9.870588302612305,16.394540786743164,14.211837768554688,7.643564224243164,15.375
192,5.556851863861084,8.414539337158203,9.57666015625,10.609814643859863,13.198745727539062,10.546667098999023,14.725441932678223,14.63939380645752,8.251029014587402,11.617022514343262
193,5.564547061920166,8.125506401062012,10.935555458068848,11.225118637084961,12.226163864135742,10.501805305480957,14.208954811096191,14.551020622253418,8.357400894165039,10.600000381469727
194,5.661498069763184,8.211663246154785,9.893424034118652,11.537035942077637,13.50900936126709,10.723326683044434,16.002391815185547,14.508668899536133,8.076923370361328,10.222222328186035
195,6.185591697692871,7.849878787994385,9.96371841430664,11.383027076721191,13.358139991760254,10.794171333312988,15.960199356079102,14.903448104858398,9.050419807434082,17.0
196,5.912996768951416,8.288248062133789,10.11007022857666,12.4965181350708,11.748804092407227,11.833333015441895,15.746231079101562,14.410595893859863,10.203508377075195,13.333333015441895
197,6.098591327667236,9.414376258850098,10.269952774047852,12.631205558776855,13.158256530761719,10.335807800292969,18.132850646972656,13.561046600341797,8.155709266662598,10.0
198,5.729084014892578,8.553062438964844,10.734066009521484,12.67574405670166,13.316259384155273,10.236191749572754,18.677804946899414,14.164022445678711,9.547618865966797,13.313432693481445
199,5.7681565284729,7.805845737457275,10.799545288085938,12.282879829406738,13.572053909301758,11.484674453735352,15.97283935546875,15.332541465759277,8.138263702392578,13.481928825378418
200,6.195809841156006,7.835526466369629,10.710345268249512,12.554986953735352,13.328292846679688,11.099796295166016,16.142499923706055,15.333333015441895,9.533040046691895,13.49056625366211
201,6.561581134796143,8.637450218200684,10.279805183410645,11.328431129455566,14.161290168762207,9.737672805786133,18.066831588745117,15.161457061767578,9.952940940856934,13.723076820373535
202,5.956140518188477,8.88483715057373,10.98774528503418,12.872037887573242,12.746929168701172,10.738490104675293,15.955026626586914,15.03649616241455,9.758993148803711,13.963855743408203
203,5.921875,9.353964805603027,10.408212661743164,13.394366264343262,13.022058486938477,11.613508224487305,15.986910820007324,13.381516456604004,9.375393867492676,12.382978439331055
204,5.73118257522583,8.952689170837402,11.94247817993164,12.84517765045166,13.563349723815918,10.592157363891602,18.01231575012207,14.390887260437012,8.892655372619629,12.88571548461914
205,6.25238037109375,9.669767379760742,11.28375244140625,13.312342643737793,14.260869979858398,10.858267784118652,15.291777610778809,14.859944343566895,9.600000381469727,13.791666984558105
206,6.448051452636719,8.81385326385498,10.596330642700195,14.292190551757812,12.477677345275879,11.80638599395752,17.295166015625,14.604972839355469,9.953487396240234,14.953125
207,6.41820764541626,8.135523796081543,12.262672424316406,12.76980209350586,14.035164833068848,11.872469902038574,17.727737426757812,14.888602256774902,10.087613105773926,14.9436616897583
208,6.02890157699585,9.252408027648926,10.865524291992188,15.140739440917969,14.835885047912598,10.910601615905762,17.381187438964844,15.664141654968262,9.967123031616211,14.597701072692871
209,5.695417881011963,9.454000473022461,11.883054733276367,14.506427764892578,14.580931663513184,10.350293159484863,17.447175979614258,14.738154411315918,9.524675369262695,12.679244995117188
210,6.254980087280273,9.346578598022461,10.302663803100586,11.8886079788208,14.081775665283203,10.604206085205078,17.841968536376953,15.085295677185059,10.44027328491211,16.246376037597656
211,6.159436225891113,8.781115531921387,10.627854347229004,14.269129753112793,14.468085289001465,11.534090042114258,18.262086868286133,13.498591423034668,10.75,14.189873695373535
212,6.0257134437561035,9.246315956115723,11.235566139221191,13.83375358581543,13.92682933807373,10.988805770874023,15.17539119720459,15.12919807434082,10.152905464172363,14.206185340881348
213,5.915887832641602,9.66739273071289,11.479211807250977,13.204545021057129,14.07575798034668,10.923497200012207,17.965333938598633,14.792499542236328,9.247191429138184,15.982144355773926
214,5.7727274894714355,8.882353782653809,11.592997550964355,13.844659805297852,14.937186241149902,10.89094352722168,17.466306686401367,14.732186317443848,10.798982620239258,14.191666603088379
215,6.479183197021484,9.216748237609863,11.919540405273438,15.211400985717773,14.952020645141602,10.719265937805176,17.816091537475586,14.163934707641602,9.675675392150879,16.04878044128418
216,6.659066200256348,8.803531646728516,11.055024147033691,13.670024871826172,16.148147583007812,11.039999961853027,16.864641189575195,13.668449401855469,9.749225616455078,17.4777774810791
217,6.116666793823242,9.200819969177246,10.866348266601562,13.872501373291016,14.340153694152832,12.456294059753418,18.97547721862793,15.255815505981445,9.463127136230469,12.768518447875977
218,5.713080406188965,8.881889343261719,11.824938774108887,12.768261909484863,17.062971115112305,11.92504596710205,15.25128173828125,14.392946243286133,8.761773109436035,14.259541511535645
219,5.970149040222168,9.333332061767578,12.071428298950195,14.16546630859375,15.210957527160645,13.300358772277832,18.10590934753418,14.948978424072266,9.77750015258789,12.531913757324219
220,6.504815101623535,9.215826988220215,11.876810073852539,14.969194412231445,16.245332717895508,11.789772987365723,16.802597045898438,12.507041931152344,9.909090042114258,13.313953399658203
221,6.488636493682861,8.914027214050293,11.06295394897461,14.263032913208008,15.483027458190918,11.511449813842773,18.233081817626953,14.756756782531738,8.694189071655273,14.610525131225586
222,6.058371543884277,9.537155151367188,11.350364685058594,15.844124794006348,15.459317207336426,11.748062133789062,17.62621307373047,13.51688289642334,9.615385055541992,14.583333015441895
223,6.310492515563965,9.257511138916016,13.033175468444824,13.816425323486328,18.247474670410156,12.015841484069824,17.842857360839844,13.953086853027344,10.168000221252441,13.940677642822266
224,6.111454963684082,9.593220710754395,12.974620819091797,14.119718551635742,16.582244873046875,12.9457368850708,17.58254623413086,13.6618013381958,9.977157592773438,17.207143783569336
225,5.885298728942871,8.507281303405762,11.684614181518555,16.690475463867188,16.65885353088379,13.415478706359863,17.689573287963867,13.715787887573242,10.766773223876953,14.764705657958984
226,6.332251071929932,8.471654891967773,10.95121955871582,14.84289264678955,16.157623291015625,12.696281433105469,18.201404571533203,14.723039627075195,9.732937812805176,13.881720542907715
227,6.041847229003906,9.314102172851562,11.477922439575195,14.959785461425781,16.10344886779785,13.512604713439941,18.345373153686523,14.140552520751953,10.305785179138184,14.242990493774414
228,5.93678092956543,9.202558517456055,12.673075675964355,14.973760604858398,18.05759048461914,11.67477798461914,16.547945022583008,14.135775566101074,9.570311546325684,13.311999320983887
229,5.850948333740234,9.48701286315918,12.507211685180664,15.102041244506836,18.07988929748535,13.012319564819336,17.475637435913086,14.718219757080078,10.165802001953125,16.389936447143555
230,6.515738487243652,9.079120635986328,11.410319328308105,15.180514335632324,17.164772033691406,13.032719612121582,17.969045639038086,13.289473533630371,10.7848482131958,13.681818008422852
231,6.5493903160095215,8.853707313537598,11.758620262145996,16.518413543701172,17.058996200561523,13.165631294250488,17.992700576782227,13.049886703491211,10.424732208251953,14.676470756530762
232,6.249253749847412,9.945945739746094,12.443349838256836,15.742209434509277,16.610795974731445,12.987730026245117,17.488372802734375,13.262365341186523,10.305343627929688,17.5859375
233,6.196721076965332,9.380309104919434,12.021687507629395,16.3171443939209,16.64788818359375,12.546809196472168,17.27751350402832,12.254274368286133,10.41147232055664,17.27027130126953
234,6.0949554443359375,9.48962688446045,14.059771537780762,15.66379451751709,17.608572006225586,12.906444549560547,17.781326293945312,12.089211463928223,10.869767189025879,15.636364936828613
235,6.578775405883789,9.916666984558105,13.346246719360352,17.226367950439453,15.55279541015625,13.648591041564941,17.407407760620117,12.75821590423584,11.225626945495605,14.613636016845703
236,6.929864406585693,9.251626968383789,13.457002639770508,16.418136596679688,16.667613983154297,11.946067810058594,17.658353805541992,13.698448181152344,9.498659133911133,17.132076263427734
237,6.414244174957275,10.231760025024414,11.231770515441895,15.464372634887695,16.394020080566406,14.988739013671875,18.95419692993164,12.360086441040039,10.54364013671875,16.1328125
238,6.035644054412842,10.361884117126465,13.940298080444336,17.566667556762695,16.242666244506836,13.86182689666748,17.592041015625,12.540373802185059,11.365386009216309,16.81507110595703
239,6.258427143096924,9.522974967956543,12.935565948486328,16.028871536254883,18.658353805541992,14.191283226013184,18.833332061767578,12.795918464660645,10.831048965454102,18.458332061767578
240,6.507987022399902,10.720296859741211,12.60880184173584,16.497238159179688,17.112499237060547,15.763723373413086,16.784574508666992,12.170114517211914,11.150141716003418,17.990991592407227
241,6.758432865142822,9.412301063537598,13.244551658630371,17.543909072875977,16.82994842529297,13.453012466430664,17.648242950439453,13.013014793395996,10.781420707702637,20.117647171020508
242,6.478954792022705,9.85537338256836,12.57441234588623,16.848398208618164,16.731828689575195,12.931349754333496,18.718345642089844,12.862213134765625,10.007874488830566,18.97887420654297
243,6.258585453033447,10.785123825073242,13.508904457092285,15.40974235534668,18.529998779296875,14.459953308105469,18.505102157592773,11.853657722473145,10.967901229858398,16.851350784301758
244,6.237681865692139,10.590309143066406,13.428571701049805,17.901100158691406,15.193029403686523,14.443957328796387,16.370182037353516,11.794060707092285,9.490697860717773,18.57575798034668
245,6.571084499359131,10.31839656829834,13.176021575927734,17.131366729736328,17.584699630737305,13.501099586486816,19.372751235961914,11.567100524902344,10.65625,15.73831844329834
246,6.513362884521484,10.474614143371582,14.51150894165039,18.049999237060547,18.184783935546875,14.213530540466309,17.7486629486084,11.254737854003906,10.794736862182617,17.069564819335938
247,6.0761637687683105,9.829545021057129,14.398977279663086,16.322751998901367,16.65633773803711,14.156576156616211,19.538461685180664,12.247899055480957,10.632097244262695,17.559999465942383
248,6.542145729064941,10.541572570800781,13.706493377685547,16.571428298950195,16.844633102416992,13.817805290222168,16.56958770751953,11.393074989318848,10.774418830871582,17.83098602294922
249,6.04532527923584,11.380629539489746,13.792838096618652,19.78533935546875,16.114360809326172,14.450215339660645,17.422883987426758,10.965585708618164,10.715595245361328,14.814371109008789
250,6.64211368560791,11.303483009338379,14.306174278259277,18.597061157226562,17.588943481445312,16.381166458129883,18.276382446289062,10.938298225402832,9.47706413269043,17.596637725830078
251,6.825466632843018,10.505800247192383,15.366161346435547,18.62039566040039,17.00493812561035,14.243792533874512,16.48267936706543,11.63519287109375,10.25561809539795,19.614173889160156
252,6.574184894561768,10.471490859985352,14.478482246398926,18.518918991088867,17.42995262145996,15.277389526367188,16.087059020996094,11.137014389038086,9.537036895751953,18.783218383789062
253,6.439834117889404,10.913934707641602,15.26701545715332,18.510988235473633,18.9417724609375,16.097949981689453,17.0274600982666,11.021781921386719,10.43034839630127,18.41059684753418
254,5.886850357055664,10.29809856414795,15.34816837310791,17.22662925720215,16.14322853088379,15.411895751953125,16.410024642944336,12.213482856750488,9.229117393493652,16.01242446899414
255,6.857259273529053,9.711943626403809,15.666666984558105,17.3518009185791,18.515623092651367,16.111618041992188,17.611841201782227,12.108559608459473,10.857988357543945,20.257732391357422
256,6.486766338348389,10.172566413879395,14.877333641052246,18.337661743164062,17.441987991333008,15.67599105834961,17.445859909057617,11.015840530395508,10.154696464538574,15.23232364654541
257,6.016742706298828,10.425764083862305,16.383838653564453,18.151935577392578,16.648935317993164,16.85780906677246,16.302574157714844,11.848368644714355,10.283164024353027,15.920353889465332
258,6.502118110656738,11.516129493713379,16.082901000976562,19.43010711669922,18.0235595703125,15.496503829956055,17.76210594177246,11.464815139770508,9.345499038696289,16.872180938720703
259,6.20987606048584,10.290698051452637,14.560410499572754,19.16094970703125,18.904884338378906,16.160091400146484,17.104923248291016,11.973867416381836,9.632941246032715,17.148387908935547
260,6.593954086303711,10.378446578979492,15.787566184997559,18.138811111450195,18.10370445251465,15.070257186889648,16.938730239868164,11.3421049118042,10.52601146697998,17.13888931274414
261,6.521111011505127,10.420804023742676,14.117166519165039,16.509803771972656,16.393033981323242,15.753986358642578,17.61395263671875,13.01230239868164,9.5600004196167,18.149606704711914
262,6.6753997802734375,11.095670700073242,14.740437507629395,16.28285789489746,17.569683074951172,15.20634937286377,17.045129776000977,11.103327751159668,10.100961685180664,16.369230270385742
263,6.392000675201416,10.585254669189453,15.05526351928711,16.809524536132812,16.562341690063477,14.53917121887207,18.929079055786133,11.733447074890137,11.304348945617676,19.04794692993164
264,5.815125942230225,11.262910842895508,15.628032684326172,17.840782165527344,17.18041229248047,13.789115905761719,17.980815887451172,11.75,10.291576385498047,14.593548774719238
265,6.515637397766113,9.793532371520996,16.784313201904297,16.760562896728516,16.74611473083496,16.75109100341797,16.23056983947754,10.86619758605957,10.497435569763184,16.696969985961914
266,7.113081932067871,10.097222328186035,15.008955001831055,19.002660751342773,16.258153915405273,14.103838920593262,17.289785385131836,11.791071891784668,9.96867561340332,15.991304397583008
267,6.374251365661621,11.616740226745605,15.886567115783691,17.439437866210938,17.91863441467285,15.5,17.706161499023438,10.723443031311035,10.722342491149902,16.112781524658203
268,6.147541046142578,11.536105155944824,14.808823585510254,17.988826751708984,17.99741554260254,13.695555686950684,17.71498680114746,11.46864128112793,9.259714126586914,14.619047164916992
269,6.511363506317139,10.235828399658203,15.419618606567383,17.386503219604492,17.787500381469727,14.305987358093262,16.476884841918945,10.934514045715332,9.815093994140625,13.75
270,6.7971014976501465,11.456730842590332,16.0583553314209,18.077611923217773,17.441801071166992,15.621146202087402,17.375303268432617,11.33203125,10.450116157531738,17.066667556762695
271,6.401117324829102,10.741070747375488,14.651226043701172,17.879878997802734,17.37007713317871,14.80227279663086,15.672018051147461,12.527131080627441,9.482222557067871,16.424461364746094
272,6.667171001434326,10.580246925354004,15.237196922302246,16.316923141479492,17.789472579956055,15.306305885314941,16.982337951660156,12.031434059143066,9.343157768249512,18.429410934448242
273,5.985137939453125,11.193346977233887,15.642297744750977,19.954286575317383,18.14011001586914,15.060811042785645,17.519737243652344,11.572265625,9.846757888793945,16.580644607543945
274,6.003105640411377,11.391592979431152,15.791979789733887,18.182926177978516,17.645334243774414,13.88888931274414,15.374717712402344,11.593632698059082,9.286267280578613,16.551219940185547
275,6.986885070800781,10.820253372192383,16.37343406677246,17.356922149658203,18.618925094604492,14.172185897827148,17.126462936401367,11.98591423034668,9.821596145629883,17.678571701049805
276,6.913580417633057,11.083744049072266,15.879356384277344,17.292753219604492,17.708662033081055,15.185022354125977,15.701421737670898,11.424124717712402,10.414474487304688,18.200000762939453
277,6.431164741516113,10.755707740783691,15.813559532165527,18.298152923583984,18.27977752685547,14.741935729980469,15.748826026916504,11.544401168823242,9.334736824035645,14.904191970825195
278,6.002114295959473,12.438201904296875,16.389503479003906,17.297815322875977,17.46388816833496,14.042827606201172,17.033937454223633,10.651164054870605,9.799591064453125,16.603092193603516
279,5.964285850524902,10.825358390808105,14.868632316589355,17.377410888671875,15.916441917419434,13.419068336486816,15.736263275146484,11.567049980163574,9.165702819824219,16.343435287475586
280,6.949716091156006,11.156410217285156,16.665746688842773,16.87704849243164,17.09308433532715,14.641426086425781,17.932559967041016,12.578094482421875,10.145540237426758,18.4761905670166
281,6.97165584564209,11.557376861572266,16.642011642456055,16.918848037719727,16.648794174194336,14.865116119384766,16.91990852355957,11.870905876159668,9.63431167602539,16.321918487548828
282,6.377566814422607,11.832229614257812,16.45786476135254,16.31937026977539,17.946523666381836,13.889655113220215,15.20046615600586,12.852941513061523,10.13725471496582,14.55555534362793
283,6.198276042938232,11.812641143798828,16.908309936523438,16.422391891479492,17.5108699798584,13.803571701049805,16.667457580566406,11.313619613647461,10.410526275634766,17.781421661376953
284,6.661442756652832,11.498796463012695,16.81690216064453,18.498735427856445,17.77358627319336,15.756638526916504,14.677186012268066,12.185965538024902,10.188867568969727,14.73869514465332
285,6.8515496253967285,12.131868362426758,16.126373291015625,18.032346725463867,18.27692222595215,16.033708572387695,15.80145263671875,12.88759708404541,10.459657669067383,17.54966926574707
286,7.046718120574951,11.253196716308594,17.065155029296875,19.151260375976562,17.414573669433594,16.729602813720703,14.737078666687012,10.796813011169434,11.260673522949219,16.96318817138672
287,6.937313556671143,12.632941246032715,16.153125762939453,18.780555725097656,17.990049362182617,13.742459297180176,15.869658470153809,13.128968238830566,10.092134475708008,17.580001831054688
288,6.833675384521484,11.797203063964844,18.26035499572754,16.732192993164062,17.915842056274414,15.125560760498047,14.70562744140625,11.923849105834961,10.006316184997559,16.604650497436523
289,6.981481552124023,12.638636589050293,16.527606964111328,19.412256240844727,17.783920288085938,16.14847183227539,14.698690414428711,13.302969932556152,9.940119743347168,15.095890045166016
290,6.921422481536865,11.844388008117676,17.811763763427734,17.68389129638672,16.84914779663086,14.937901496887207,14.534042358398438,12.948081016540527,11.77904224395752,17.962121963500977
291,7.49370002746582,11.886650085449219,18.0,16.24629020690918,17.515893936157227,15.634199142456055,15.029166221618652,13.185022354125977,11.383116722106934,18.00653648376465
292,6.955484867095947,11.903890609741211,19.56342124938965,17.711864471435547,17.974294662475586,15.39148998260498,15.434874534606934,10.672489166259766,11.28925609588623,16.571428298950195
293,6.46563196182251,12.576837539672852,16.7180233001709,17.748571395874023,18.561307907104492,15.570212364196777,15.624481201171875,11.472504615783691,12.172484397888184,16.359222412109375
294,6.282051086425781,12.07819938659668,17.17597770690918,16.55722999572754,18.726343154907227,14.272527694702148,14.341514587402344,11.930692672729492,10.276422500610352,16.376033782958984
295,6.974610805511475,13.067024230957031,16.799427032470703,17.67422103881836,16.746030807495117,14.96218490600586,13.837953567504883,12.191983222961426,11.021126747131348,16.57575798034668
296,7.222098350524902,11.940569877624512,18.35000228881836,17.291316986083984,17.696569442749023,15.128756523132324,12.648033142089844,11.544535636901855,11.002293586730957,18.021621704101562
297,6.62666654586792,11.750582695007324,18.15506362915039,16.66757583618164,17.039369583129883,15.448936462402344,13.456740379333496,12.859127044677734,10.970046043395996,17.463302612304688
298,6.847134113311768,12.651805877685547,15.993487358093262,17.73369598388672,17.634714126586914,15.074946403503418,14.966666221618652,12.708415031433105,10.926666259765625,18.040817260742188
299,6.889571189880371,13.152778625488281,15.269796371459961,17.06686019897461,17.837629318237305,14.722343444824219,14.038313865661621,12.077359199523926,11.19205379486084,16.960786819458008
300,7.0016326904296875,11.90225601196289,16.468210220336914,16.50287437438965,18.87466812133789,13.857768058776855,13.529411315917969,12.547130584716797,11.583098411560059,16.587879180908203
301,6.9277777671813965,11.902612686157227,17.76589584350586,15.109193801879883,16.983604431152344,16.30296516418457,15.126705169677734,12.664693832397461,11.946523666381836,15.730335235595703
302,6.762917995452881,14.053648948669434,16.466869354248047,16.97267723083496,16.863014221191406,15.224944114685059,13.125245094299316,13.015625,11.645161628723145,17.520000457763672
303,7.122105121612549,11.424718856811523,18.82162094116211,16.044076919555664,15.84022045135498,15.692307472229004,12.47480583190918,11.761996269226074,12.841269493103027,16.60416603088379
304,6.765431880950928,12.229024887084961,16.278593063354492,17.083951950073242,16.983470916748047,15.216470718383789,13.653257369995117,13.701923370361328,12.178495407104492,18.557693481445312
305,7.374488830566406,12.038363456726074,18.786516189575195,16.344913482666016,17.66853904724121,14.92235279083252,13.865233421325684,12.947474479675293,12.762803077697754,18.860139846801758
306,6.9522223472595215,12.756218910217285,17.03468132019043,16.746957778930664,14.55678653717041,15.571428298950195,12.836614608764648,12.596078872680664,12.564885139465332,14.792454719543457
307,7.526881694793701,12.980306625366211,17.494382858276367,17.997312545776367,18.70145606994629,15.20744800567627,12.292365074157715,12.814741134643555,12.995338439941406,17.288888931274414
308,6.874720573425293,12.321199417114258,17.114944458007812,15.288411140441895,19.137441635131836,15.30077075958252,13.045027732849121,13.880626678466797,11.932433128356934,17.42288589477539
309,6.313725471496582,13.635965347290039,16.525074005126953,16.099729537963867,16.03061294555664,16.562946319580078,12.615678787231445,12.466019630432129,12.828025817871094,17.870967864990234
310,7.4189300537109375,14.243523597717285,15.738161087036133,16.534574508666992,16.23677635192871,15.834549903869629,12.565048217773438,12.682672500610352,12.304909706115723,18.025972366333008
311,7.184818267822266,13.129533767700195,16.120878219604492,17.863998413085938,16.073047637939453,15.655502319335938,12.527777671813965,11.466135025024414,12.476543426513672,18.034883499145508
312,6.456752777099609,13.167832374572754,17.91643524169922,15.787466049194336,16.1243896484375,17.066509246826172,12.742632865905762,11.547205924987793,12.126829147338867,16.319149017333984
313,6.966873645782471,12.43317985534668,15.27988338470459,15.526854515075684,18.641277313232422,15.942928314208984,12.198487281799316,12.249516487121582,12.514084815979004,16.314815521240234
314,6.595166206359863,13.810503005981445,15.145772933959961,15.765743255615234,15.994608879089355,16.572139739990234,12.713013648986816,12.494117736816406,12.89018726348877,15.453816413879395
315,7.303745746612549,13.87564754486084,18.40102767944336,17.76438331604004,16.071807861328125,15.517985343933105,12.088679313659668,12.124463081359863,12.468085289001465,18.65517234802246
316,7.941374778747559,12.904282569885254,16.337696075439453,15.906593322753906,15.278350830078125,17.478260040283203,12.360593795776367,12.223175048828125,13.186274528503418,19.773481369018555
317,6.970991611480713,14.074073791503906,16.284236907958984,15.6485013961792,15.97974681854248,17.34586524963379,11.976234436035156,11.98322868347168,12.805353164672852,17.08808135986328
318,7.062098979949951,13.72535228729248,17.68020248413086,16.23482894897461,15.716455459594727,15.03069019317627,12.40290355682373,11.538152694702148,13.286746978759766,17.055299758911133
319,6.668749809265137,13.335821151733398,18.452499389648438,17.711442947387695,15.486772537231445,14.71875,12.234082221984863,11.950592994689941,13.157407760620117,16.558441162109375
320,7.462418079376221,13.306233406066895,15.779291152954102,17.173171997070312,17.235000610351562,15.757281303405762,11.141472816467285,12.49350643157959,12.420613288879395,16.49711036682129
321,7.261797904968262,13.614397048950195,15.879121780395508,15.910892486572266,16.894607543945312,15.74457836151123,10.955770492553711,10.865385055541992,12.219388008117676,16.629213333129883
322,7.305683612823486,13.828916549682617,17.951221466064453,17.113990783691406,16.48946189880371,15.727058410644531,11.5761079788208,11.68507194519043,12.793451309204102,15.693467140197754
323,7.327510833740234,12.57209300994873,17.55172348022461,17.815217971801758,15.395401954650879,16.895591735839844,12.12969970703125,12.305999755859375,12.90250015258789,16.982221603393555
324,7.118811130523682,13.816091537475586,17.89314842224121,14.840456008911133,15.352272987365723,15.838635444641113,11.11574935913086,11.18823528289795,11.958837509155273,17.049997329711914
325,7.757903575897217,13.607426643371582,16.282546997070312,16.73575210571289,16.53571319580078,15.489655494689941,11.39245319366455,13.947916984558105,12.821316719055176,16.871166229248047
326,7.605714321136475,14.007177352905273,17.514284133911133,17.053569793701172,15.457284927368164,15.589164733886719,12.22810173034668,11.073529243469238,13.163203239440918,16.01036262512207
327,7.870968341827393,13.220454216003418,16.912792205810547,15.374345779418945,16.67464256286621,17.416475296020508,11.025641441345215,12.45656681060791,12.196721076965332,16.33333396911621
328,7.189931392669678,13.304720878601074,17.916906356811523,16.339109420776367,17.46666717529297,16.527149200439453,11.679577827453613,11.638776779174805,14.017766952514648,17.260663986206055
329,7.634409427642822,14.582056999206543,17.311763763427734,16.81796646118164,14.435696601867676,15.814988136291504,10.902027130126953,12.454729080200195,14.11194133758545,16.477066040039062
330,7.8390326499938965,14.0802001953125,16.720932006835938,14.626505851745605,14.691177368164062,15.38709831237793,11.30272102355957,11.880952835083008,13.651515007019043,16.329267501831055
331,7.890173435211182,13.544811248779297,16.601123809814453,15.832115173339844,15.34134578704834,16.190593719482422,10.652397155761719,11.926004409790039,14.326704978942871,15.127778053283691
332,7.766505718231201,13.874733924865723,16.872222900390625,16.279701232910156,16.44827651977539,15.655501365661621,11.259696006774902,12.675675392150879,13.193276405334473,15.565656661987305
333,7.357303142547607,14.006651878356934,17.64358901977539,13.579634666442871,16.39215660095215,14.736109733581543,10.082332611083984,13.016031265258789,13.837465286254883,13.936363220214844
334,7.5078864097595215,14.975902557373047,17.414506912231445,16.009851455688477,16.440505981445312,17.058273315429688,10.83305549621582,11.191057205200195,13.073298454284668,15.353657722473145
335,7.574835300445557,13.965332984924316,17.685039520263672,17.04938316345215,16.888324737548828,15.313769340515137,11.58013916015625,12.069327354431152,15.121212005615234,15.938888549804688
336,7.904109477996826,14.587653160095215,16.68218994140625,16.50255012512207,15.25120735168457,15.26185131072998,10.720279693603516,12.394059181213379,13.871794700622559,15.1063814163208
337,8.136713027954102,13.639423370361328,17.94906234741211,16.66243553161621,16.497663497924805,14.995443344116211,10.102967262268066,10.949317932128906,14.765578269958496,15.256155967712402
338,7.830626487731934,14.78768539428711,16.83142852783203,15.70813274383545,15.726367950439453,15.773242950439453,10.888888359069824,12.134724617004395,14.232142448425293,13.972850799560547
339,7.417543888092041,15.632828712463379,17.617319107055664,16.74698829650879,16.04347801208496,15.89011001586914,10.850339889526367,11.825279235839844,15.428571701049805,16.4110164642334
340,7.97579288482666,14.972899436950684,17.41984748840332,16.196125030517578,16.138816833496094,17.25164222717285,10.664965629577637,11.62118148803711,15.16333293914795,15.539878845214844
341,8.195260047912598,14.443548202514648,17.064268112182617,13.296385765075684,14.784653663635254,15.267139434814453,9.463054656982422,11.65531063079834,14.645768165588379,16.32804298400879
342,7.830744743347168,14.662651062011719,18.186813354492188,16.385486602783203,15.24759578704834,15.887289047241211,10.927535057067871,12.185627937316895,14.260604858398438,16.41666603088379
343,8.007125854492188,15.34110164642334,16.124277114868164,15.025463104248047,15.691588401794434,15.269767761230469,10.883333206176758,12.532957077026367,14.795389175415039,16.382076263427734
344,7.232975006103516,16.5202693939209,17.962366104125977,17.377403259277344,14.68764591217041,14.997723579406738,11.638751983642578,12.608365058898926,14.301076889038086,14.052632331848145
345,8.195615768432617,14.242742538452148,18.488550186157227,16.76865577697754,13.700873374938965,16.264236450195312,11.581666946411133,11.773017883300781,15.95512866973877,14.316770553588867
346,7.841920375823975,14.186567306518555,17.124338150024414,16.16748809814453,14.898128509521484,14.439613342285156,10.524618148803711,12.675097465515137,14.355345726013184,14.543010711669922
347,7.430842399597168,15.050458908081055,17.35869598388672,16.156478881835938,15.354167938232422,15.922534942626953,10.531986236572266,11.404942512512207,14.769462585449219,16.53499984741211
348,7.738095283508301,15.444953918457031,17.072383880615234,15.148614883422852,15.126337051391602,17.054943084716797,10.536751747131348,12.03125,15.856303215026855,16.69333267211914
349,7.5033111572265625,15.141826629638672,16.380462646484375,15.079404830932617,14.229580879211426,16.556560516357422,11.167488098144531,12.839926719665527,15.844633102416992,14.279165267944336
350,8.30942440032959,16.81182861328125,15.66840648651123,16.260562896728516,13.782815933227539,16.712718963623047,10.381271362304688,13.465164184570312,16.604650497436523,17.30674934387207
351,8.044032096862793,15.510049819946289,18.348051071166992,16.69876480102539,14.309793472290039,15.726027488708496,10.890728950500488,13.65686321258545,15.284788131713867,17.768815994262695
352,8.076069831848145,15.01435375213623,18.007692337036133,16.22195053100586,15.05643367767334,14.788371086120605,10.948963165283203,12.243999481201172,14.573169708251953,16.83902359008789
353,8.102739334106445,15.07465934753418,17.307479858398438,16.650943756103516,14.139689445495605,14.547727584838867,10.546773910522461,12.517646789550781,15.668539047241211,18.568073272705078
354,7.834532260894775,16.02669906616211,18.246753692626953,15.780952453613281,13.682608604431152,15.661252975463867,10.70096492767334,13.988142013549805,15.578125,16.070175170898438
355,8.143216133117676,15.044943809509277,15.943243026733398,15.328054428100586,13.703862190246582,14.702031135559082,10.570247650146484,13.461198806762695,17.394821166992188,18.80132484436035
356,8.755403518676758,14.293057441711426,18.117143630981445,15.258660316467285,14.016596794128418,15.411765098571777,10.121709823608398,12.78153133392334,17.06804656982422,17.568965911865234
357,8.194805145263672,16.21881675720215,16.28834342956543,16.281463623046875,15.771428108215332,15.572429656982422,10.86949348449707,14.049783706665039,15.195965766906738,18.620512008666992
358,7.767326831817627,16.18958282470703,17.13005828857422,14.61556625366211,14.747880935668945,13.954741477966309,9.287128448486328,13.077242851257324,15.288409233093262,16.808612823486328
359,7.23574161529541,16.89655113220215,17.259357452392578,15.262019157409668,13.68466567993164,14.105809211730957,9.498360633850098,12.239174842834473,16.363874435424805,15.77489185333252
360,8.577777862548828,16.33613395690918,18.721519470214844,16.811763763427734,14.15170955657959,14.877338409423828,10.021416664123535,12.906458854675293,15.73178768157959,15.98795223236084
361,8.472769737243652,15.019831657409668,16.162668228149414,15.842352867126465,14.845833778381348,14.995952606201172,9.310569763183594,12.166306495666504,15.261590957641602,16.83957290649414
362,8.0179443359375,15.529975891113281,18.09115982055664,15.178240776062012,13.556249618530273,14.098970413208008,9.463608741760254,14.471092224121094,15.763753890991211,16.894737243652344
363,8.111922264099121,16.57272720336914,15.218836784362793,16.678239822387695,13.46804141998291,14.00626277923584,9.960245132446289,13.10988998413086,17.636363983154297,18.786008834838867
364,7.859922409057617,16.299528121948242,16.784061431884766,15.574999809265137,13.742514610290527,13.96617317199707,10.570149421691895,13.576754570007324,14.332344055175781,17.48872184753418
365,8.858620643615723,15.959893226623535,15.769619941711426,15.033573150634766,13.37576961517334,14.674418449401855,11.449231147766113,12.889951705932617,16.76618766784668,16.4887638092041
366,8.593178749084473,15.677419662475586,17.10126495361328,15.899262428283691,14.529046058654785,15.04140853881836,10.69905948638916,11.975982666015625,14.856643676757812,15.228261947631836
367,8.494754791259766,15.566160202026367,17.51813507080078,16.54791259765625,13.603854179382324,15.786561965942383,10.185243606567383,13.602941513061523,13.72402572631836,15.761422157287598
368,8.357723236083984,16.49698257446289,16.148717880249023,14.9399995803833,13.993576049804688,14.48118782043457,10.342592239379883,11.893877983093262,15.95705509185791,15.970588684082031
369,7.875,16.35555648803711,16.330049514770508,15.60705280303955,13.111587524414062,14.77689266204834,9.888198852539062,13.125242233276367,15.802985191345215,15.177570343017578
370,9.014781951904297,16.638586044311523,17.272058486938477,15.307141304016113,13.010869979858398,14.224532127380371,10.592704772949219,12.30505084991455,15.284614562988281,16.397350311279297
371,8.763593673706055,15.891960144042969,16.849489212036133,15.44063949584961,13.27489185333252,13.193965911865234,10.554055213928223,12.379047393798828,14.164233207702637,17.10714340209961
372,8.36439323425293,15.925753593444824,17.160104751586914,14.706521987915039,13.381974220275879,13.52978801727295,10.302255630493164,13.058161735534668,15.264604568481445,16.0744686126709
373,8.338823318481445,16.634920120239258,16.157215118408203,15.48888874053955,13.233905792236328,14.019107818603516,9.736517906188965,13.21222972869873,15.079113960266113,14.786069869995117
374,8.231035232543945,17.66921043395996,16.524940490722656,13.8422269821167,14.147302627563477,13.763486862182617,10.3953857421875,13.50467300415039,14.667607307434082,15.949541091918945
375,8.655461311340332,16.713394165039062,16.595401763916016,15.06637191772461,13.242220878601074,14.642126083374023,10.161600112915039,13.144601821899414,15.368243217468262,15.22535228729248
376,8.506285667419434,15.10221004486084,16.248119354248047,16.859243392944336,13.485458374023438,14.485477447509766,10.94505500793457,11.730693817138672,16.367923736572266,14.580645561218262
377,8.71860122680664,16.31775665283203,15.752717018127441,15.953744888305664,13.647313117980957,13.706238746643066,10.033019065856934,13.66920280456543,17.237653732299805,11.890172958374023
378,8.042154312133789,16.351648330688477,16.13576889038086,14.922534942626953,15.545271873474121,14.193877220153809,9.951788902282715,12.414121627807617,16.15186309814453,13.731707572937012
379,8.672534942626953,17.785715103149414,15.047499656677246,13.802409172058105,13.773662567138672,14.826693534851074,10.995391845703125,12.572504997253418,14.0,13.739910125732422
380,8.418166160583496,16.492021560668945,16.64096450805664,15.567376136779785,13.671546936035156,14.216431617736816,10.819645881652832,12.822734832763672,14.458902359008789,14.859648704528809
381,8.536470413208008,16.128686904907227,15.659314155578613,13.827506065368652,13.613734245300293,13.176714897155762,10.3389310836792,12.15384578704834,15.126936912536621,16.56684684753418
382,8.947284698486328,16.56970977783203,15.423469543457031,15.732101440429688,14.029914855957031,14.795876502990723,11.178898811340332,12.671101570129395,14.4940824508667,15.357141494750977
383,8.72706413269043,16.859447479248047,14.651741027832031,14.19483470916748,12.869564056396484,13.676767349243164,10.767912864685059,13.217082023620605,14.296406745910645,14.594141006469727
384,8.590909004211426,17.34718894958496,17.077646255493164,12.625,13.452991485595703,14.645962715148926,10.953030586242676,12.79195785522461,13.168974876403809,13.032787322998047
385,9.289472579956055,17.476964950561523,16.376848220825195,15.337154388427734,13.857767105102539,13.008213996887207,11.420560836791992,12.990215301513672,14.459183692932129,16.737499237060547
386,8.711843490600586,17.374025344848633,17.40193748474121,14.586288452148438,14.594883918762207,14.52556324005127,11.043062210083008,13.304015159606934,15.988059997558594,14.736196517944336
387,8.89383602142334,16.119903564453125,15.041884422302246,16.46841049194336,14.00434684753418,12.951120376586914,10.886075973510742,12.870722770690918,14.26358699798584,14.255555152893066
388,8.045000076293945,16.31797218322754,16.765012741088867,13.793181419372559,14.755693435668945,13.561508178710938,11.018455505371094,13.62277603149414,14.557291984558105,13.383495330810547
389,8.784615516662598,15.61800479888916,15.50385570526123,14.852349281311035,14.359243392944336,13.47480583190918,10.85308837890625,14.041145324707031,14.941176414489746,13.031818389892578
390,9.242583274841309,16.264305114746094,15.87345027923584,15.063348770141602,13.396963119506836,14.988658905029297,11.312286376953125,12.508096694946289,14.184210777282715,15.538461685180664
391,9.033817291259766,15.933674812316895,14.649214744567871,13.456332206726074,15.568628311157227,14.017308235168457,11.73569107055664,12.99410629272461,15.483333587646484,13.188570976257324
392,8.854701042175293,15.665188789367676,16.30526351928711,13.62098503112793,14.165576934814453,14.518664360046387,11.478404998779297,12.400386810302734,16.506738662719727,14.981042861938477
393,9.37402629852295,15.204741477966309,16.254592895507812,13.359307289123535,12.936542510986328,13.357999801635742,10.37320613861084,12.527619361877441,15.978947639465332,13.908713340759277
394,8.342741966247559,17.206209182739258,14.984210968017578,13.600001335144043,13.71238899230957,13.459017753601074,11.385580062866211,11.664783477783203,17.10769271850586,13.960573196411133
395,9.463456153869629,17.01369857788086,15.106481552124023,13.541020393371582,14.593147277832031,13.062761306762695,11.748437881469727,13.230611801147461,15.78136157989502,14.13471508026123
396,8.933002471923828,15.319796562194824,16.096059799194336,15.111597061157227,14.633928298950195,14.034274101257324,11.14084529876709,14.170000076293945,14.469255447387695,13.405529975891113
397,8.545138359069824,16.89244842529297,15.395990371704102,14.492135047912598,13.51298713684082,13.820987701416016,11.281105995178223,13.369261741638184,15.434523582458496,12.970953941345215
398,9.30727767944336,16.824323654174805,15.056788444519043,14.54444408416748,13.439745903015137,14.066666603088379,11.833072662353516,13.439306259155273,15.861878395080566,13.70040512084961
399,8.66960334777832,14.865059852600098,14.995226860046387,14.709172248840332,13.002049446105957,13.683871269226074,11.765175819396973,13.43122673034668,13.67724895477295,13.670289993286133
400,9.410618782043457,17.160104751586914,15.377449989318848,14.439908981323242,13.13888931274414,12.344827651977539,11.36986255645752,13.366864204406738,14.251612663269043,12.291666984558105
401,9.395709037780762,16.728260040283203,15.997669219970703,14.344661712646484,13.703985214233398,12.37578296661377,11.807144165039062,13.461248397827148,14.63173770904541,13.869999885559082
402,8.998258590698242,16.212669372558594,15.478469848632812,13.802380561828613,13.358382225036621,14.022541999816895,11.461122512817383,13.90328598022461,16.251380920410156,12.972223281860352
403,9.02872085571289,15.890830039978027,15.352246284484863,14.065269470214844,13.822580337524414,15.359183311462402,11.22282600402832,12.757246971130371,16.081632614135742,11.95850658416748
404,9.149377822875977,17.06620979309082,15.183961868286133,14.41395378112793,14.186274528503418,13.469979286193848,11.692035675048828,13.375445365905762,15.62094783782959,11.420849800109863
405,9.183245658874512,15.684895515441895,17.307512283325195,15.084473609924316,14.306451797485352,13.631147384643555,11.405974388122559,13.457141876220703,14.60383415222168,12.632978439331055
406,9.385167121887207,16.590909957885742,15.30904483795166,14.949114799499512,14.494024276733398,13.1573486328125,12.317646980285645,14.034552574157715,13.821958541870117,12.229268074035645
407,9.471476554870605,15.864168167114258,14.37305736541748,15.673913955688477,14.525458335876465,13.318095207214355,12.763251304626465,13.082329750061035,15.56951904296875,12.932735443115234
408,9.311111450195312,16.170679092407227,16.137405395507812,14.889951705932617,13.408366203308105,14.497237205505371,13.10727310180664,14.841391563415527,17.368810653686523,14.098361015319824
409,8.880658149719238,16.778017044067383,16.179893493652344,11.35897445678711,14.133732795715332,13.378327369689941,12.28777027130127,13.520231246948242,14.739436149597168,13.434945106506348
410,10.251097679138184,15.968522071838379,17.089004516601562,13.721029281616211,12.470967292785645,14.64684009552002,13.637706756591797,12.921775817871094,13.753799438476562,12.471428871154785
411,9.219999313354492,14.763032913208008,15.42627239227295,14.106338500976562,13.14864730834961,14.978303909301758,13.112279891967773,12.155241966247559,16.383285522460938,13.39555549621582
412,9.424138069152832,15.595890045166016,17.00527572631836,14.05756950378418,14.010330200195312,14.806653022766113,13.510563850402832,13.173583984375,14.078431129455566,13.495902061462402
413,9.019125938415527,16.285106658935547,16.510360717773438,13.94298267364502,13.215568542480469,12.48701286315918,12.561312675476074,13.07522964477539,13.718832015991211,13.13703727722168
414,9.545454978942871,16.543577194213867,16.220842361450195,13.466959953308105,14.903100967407227,13.241379737854004,12.454225540161133,13.44424819946289,14.346939086914062,10.096085548400879
415,9.822280883789062,15.464753150939941,16.104217529296875,14.079832077026367,13.457489967346191,13.609053611755371,12.050657272338867,13.57475757598877,14.909621238708496,11.1827974319458
416,9.441176414489746,15.275324821472168,14.460197448730469,13.793617248535156,13.465346336364746,13.549180030822754,12.607009887695312,13.19615364074707,15.60164737701416,11.85116195678711
417,9.556683540344238,16.438753128051758,14.56202507019043,14.805739402770996,13.773736953735352,13.227272987365723,12.434782981872559,13.325048446655273,14.889763832092285,12.672268867492676
418,9.020998001098633,16.53508758544922,15.918793678283691,12.917840003967285,14.091089248657227,13.119922637939453,13.17235279083252,12.0546875,15.067960739135742,11.421456336975098
419,8.711934089660645,16.195898056030273,16.09827995300293,13.285086631774902,14.05378532409668,13.786126136779785,13.898575782775879,13.220077514648438,15.019417762756348,11.257627487182617
420,9.920207977294922,17.56700897216797,14.783783912658691,12.735966682434082,13.613588333129883,12.268939018249512,11.988763809204102,12.663156509399414,13.863353729248047,12.068181991577148
421,9.60473346710205,16.75,15.163366317749023,14.183673858642578,14.553191184997559,13.229166984558105,12.3804349899292,12.524415969848633,14.179190635681152,11.436214447021484
422,9.386666297912598,16.42729377746582,15.944303512573242,12.619246482849121,14.466951370239258,13.767317771911621,11.928308486938477,12.54716968536377,15.705721855163574,11.0823974609375
423,9.570270538330078,16.899192810058594,16.57868003845215,14.695740699768066,14.048245429992676,13.057450294494629,13.25268840789795,13.164299964904785,16.384408950805664,9.456445693969727
424,9.200892448425293,18.299348831176758,18.127403259277344,12.357575416564941,13.663020133972168,13.298213958740234,13.06306266784668,12.961165428161621,12.459677696228027,10.796296119689941
425,10.081416130065918,16.0787410736084,15.59285831451416,13.626641273498535,15.041850090026855,12.491743087768555,11.8973388671875,13.174635887145996,14.18006420135498,10.828054428100586
426,9.697929382324219,16.155080795288086,14.277904510498047,13.597222328186035,13.745182037353516,13.877324104309082,12.92500114440918,12.143736839294434,14.433436393737793,10.875
427,9.409011840820312,17.384260177612305,14.090277671813965,13.006024360656738,16.00412368774414,14.701348304748535,11.657293319702148,12.920318603515625,13.582608222961426,11.07661247253418
428,8.934959411621094,17.39912223815918,14.161592483520508,13.103657722473145,14.29958724975586,13.135133743286133,13.994999885559082,12.254403114318848,14.949602127075195,12.228137016296387
429,9.27983570098877,16.79391098022461,15.732101440429688,13.23469352722168,13.91038703918457,13.64370059967041,12.969156265258789,13.417939186096191,14.360103607177734,11.214285850524902
430,10.272647857666016,15.02319622039795,14.993022918701172,11.795918464660645,14.37148666381836,13.081674575805664,12.287145614624023,12.389121055603027,14.015923500061035,11.479591369628906
431,9.317307472229004,14.27889347076416,16.86172866821289,14.076458930969238,13.089430809020996,11.372745513916016,12.554256439208984,13.043306350708008,13.718181610107422,13.660550117492676
432,10.043252944946289,16.13829803466797,16.08356475830078,13.769841194152832,13.584615707397461,11.454724311828613,12.248723030090332,11.604247093200684,14.852691650390625,12.220338821411133
433,9.711956977844238,16.645097732543945,15.46505355834961,14.31789493560791,14.083954811096191,12.305660247802734,13.110320091247559,12.74678897857666,13.38964557647705,10.450980186462402
434,9.350231170654297,15.70920467376709,16.129114151000977,14.636165618896484,12.66480541229248,11.78659725189209,12.623595237731934,11.591623306274414,13.938302993774414,11.57090950012207
435,10.305976867675781,16.88344955444336,14.696890830993652,13.53006649017334,14.659010887145996,12.504378318786621,13.201597213745117,11.924074172973633,15.530744552612305,10.481481552124023
436,9.702702522277832,15.492856979370117,15.23227310180664,13.752252578735352,12.74764633178711,13.370065689086914,12.359281539916992,12.38503646850586,13.293051719665527,10.758294105529785
437,9.721649169921875,15.727667808532715,16.022443771362305,15.583333015441895,13.833023071289062,13.057724952697754,13.205607414245605,11.88721752166748,14.20165729522705,11.874459266662598
438,9.783783912658691,15.565041542053223,14.766010284423828,13.047945022583008,14.672794342041016,12.195578575134277,12.9296293258667,12.40827465057373,14.797901153564453,11.418326377868652
439,9.743362426757812,16.2640323638916,14.997530937194824,14.514223098754883,13.90361499786377,12.55954360961914,12.894927978515625,12.575592041015625,12.771845817565918,9.619403839111328
440,10.38044548034668,15.817156791687012,15.666667938232422,13.988814353942871,13.541752815246582,12.011419296264648,13.891459465026855,12.941058158874512,13.6994047164917,11.535294532775879
441,9.816454887390137,15.944700241088867,15.280097961425781,12.85558032989502,14.985685348510742,13.331136703491211,13.998249053955078,13.584940910339355,13.579545021057129,11.533679008483887
442,9.809782981872559,15.46137809753418,14.675127029418945,13.398323059082031,13.67328929901123,12.3317232131958,13.424448013305664,13.640316009521484,13.895000457763672,12.41395378112793
443,10.115818977355957,16.186046600341797,14.47258472442627,14.397380828857422,13.553378105163574,12.181373596191406,12.82263469696045,13.574758529663086,14.16241455078125,12.061225891113281
444,9.326204299926758,17.144268035888672,15.134177207946777,13.289130210876465,13.229613304138184,13.42833423614502,12.887755393981934,13.059590339660645,14.021979331970215,10.538461685180664
445,10.47623348236084,16.119436264038086,15.3632173538208,14.564444541931152,13.383259773254395,13.23581600189209,12.509965896606445,13.179133415222168,14.627507209777832,11.608247756958008
446,9.8886137008667,15.742094039916992,14.390697479248047,13.694196701049805,14.177967071533203,12.761220932006836,12.429038047790527,12.836894035339355,12.52688217163086,11.596331596374512
447,9.969533920288086,15.07826042175293,16.60663414001465,13.067264556884766,13.981133460998535,12.421533584594727,12.998372077941895,12.656488418579102,13.606966018676758,10.707627296447754
448,9.960674285888672,15.491968154907227,14.627737045288086,13.95842456817627,12.69473648071289,13.611428260803223,12.099041938781738,12.244444847106934,14.051764488220215,10.14230728149414
449,9.793103218078613,16.408246994018555,14.205377578735352,14.095860481262207,15.833992004394531,13.145418167114258,11.888178825378418,12.432337760925293,13.241049766540527,11.479591369628906
450,10.26871109008789,15.375000953674316,13.63013744354248,13.360801696777344,13.144373893737793,13.38697338104248,12.356551170349121,12.816981315612793,13.878698348999023,11.084159851074219
451,9.969504356384277,16.9456787109375,15.776286125183105,12.173625946044922,12.69777774810791,13.045198440551758,12.612313270568848,12.245841026306152,13.572237968444824,12.441047668457031
452,10.266186714172363,15.78538703918457,15.009069442749023,13.292951583862305,13.930041313171387,13.282050132751465,12.704131126403809,11.891695976257324,15.01856803894043,13.921567916870117
453,10.207283973693848,16.178495407104492,13.69833755493164,13.380753517150879,13.107216835021973,12.786561012268066,12.891761779785156,12.630824089050293,13.997493743896484,12.158273696899414
454,9.642156600952148,16.874448776245117,14.357144355773926,12.512500762939453,14.8594388961792,12.273092269897461,11.581633567810059,13.70238208770752,15.104878425598145,12.996689796447754
455,10.872530937194824,14.728682518005371,15.220489501953125,12.679088592529297,13.470833778381348,12.564515113830566,12.231833457946777,12.311687469482422,13.827988624572754,12.680201530456543
456,10.208762168884277,14.73444938659668,15.353918075561523,12.78073787689209,12.983158111572266,13.599244117736816,13.107394218444824,12.512773513793945,14.127424240112305,11.915887832641602
457,10.177902221679688,15.709543228149414,13.926952362060547,14.70775318145752,12.711864471435547,13.318785667419434,13.632246017456055,12.314035415649414,14.235751152038574,11.74683666229248
458,9.646342277526855,16.81744384765625,14.997642517089844,11.661765098571777,13.68639087677002,12.603025436401367,11.59107780456543,12.360280990600586,13.612049102783203,12.114943504333496
459,9.9414644241333,16.47222328186035,15.56479263305664,13.0098237991333,13.524654388427734,12.052225112915039,12.489871978759766,11.889473915100098,12.239631652832031,12.04498291015625
460,10.754480361938477,15.772727012634277,14.344261169433594,12.46307373046875,12.32741641998291,12.704119682312012,12.167618751525879,12.732672691345215,13.659217834472656,10.452735900878906
461,10.321382522583008,15.628639221191406,13.807692527770996,12.55289363861084,13.472440719604492,14.497196197509766,12.149252891540527,12.575201988220215,14.394871711730957,11.405404090881348
462,10.0,16.774267196655273,14.967667579650879,12.483263969421387,14.071566581726074,13.276391983032227,13.41906452178955,12.692307472229004,14.12195110321045,12.630081176757812
463,10.227405548095703,16.690322875976562,14.278688430786133,11.633064270019531,14.834990501403809,13.056817054748535,12.69473648071289,12.892000198364258,13.944055557250977,11.022221565246582
464,9.845745086669922,16.772727966308594,14.89885139465332,12.870259284973145,12.056485176086426,12.408679962158203,12.435399055480957,12.03632926940918,14.555556297302246,10.67101001739502
465,10.725878715515137,16.443037033081055,13.800000190734863,12.739130020141602,13.844444274902344,12.77396011352539,12.386157035827637,12.722792625427246,12.086688041687012,11.356097221374512
466,10.257692337036133,17.44862174987793,14.82758617401123,12.248000144958496,13.318087577819824,13.3721342086792,12.766488075256348,11.71629810333252,12.375375747680664,10.986899375915527
467,10.1487455368042,16.713655471801758,14.933333396911621,12.699203491210938,13.13559341430664,13.024735450744629,11.987654685974121,12.007827758789062,12.376730918884277,11.82304573059082
468,9.300000190734863,17.45661163330078,14.812356948852539,13.34567928314209,14.390592575073242,12.856101989746094,13.194585800170898,13.246063232421875,12.357702255249023,11.35114574432373
469,10.39805793762207,15.389262199401855,15.118942260742188,14.266940116882324,13.37854290008545,12.842779159545898,13.152657508850098,12.23269271850586,11.992907524108887,11.2600736618042
470,11.260089874267578,17.18766212463379,15.22298812866211,11.668058395385742,14.062015533447266,13.131296157836914,13.960854530334473,11.800408363342285,12.096572875976562,11.542168617248535
471,10.28125,15.257894515991211,14.584951400756836,12.193857192993164,13.542168617248535,13.72170639038086,13.088285446166992,12.483429908752441,13.00293254852295,10.160919189453125
472,9.855595588684082,16.752784729003906,14.019465446472168,12.367705345153809,12.47010326385498,13.307262420654297,13.819256782531738,11.93854808807373,12.35405445098877,11.525252342224121
473,9.792022705078125,16.85093116760254,15.3672456741333,11.823528289794922,12.834661483764648,13.950942993164062,13.438240051269531,10.999999046325684,12.437186241149902,10.44859790802002
474,9.42364501953125,16.589130401611328,13.65931224822998,12.909274101257324,13.207170486450195,13.865346908569336,14.160919189453125,12.597955703735352,13.15482234954834,11.161826133728027
475,11.159394264221191,15.657567977905273,14.877880096435547,11.311159133911133,13.227798461914062,13.032520294189453,14.297063827514648,13.717117309570312,11.80317497253418,12.222929954528809
476,10.747879028320312,15.80759334564209,14.256038665771484,12.61995792388916,13.51428508758545,14.2188138961792,14.602836608886719,12.727272033691406,13.892127990722656,12.462857246398926
477,10.292035102844238,16.7553653717041,14.684727668762207,12.055326461791992,14.27613353729248,14.27845573425293,12.845601081848145,12.123199462890625,12.512535095214844,11.499999046325684
478,10.041297912597656,16.24356460571289,15.371006965637207,12.340508460998535,13.046939849853516,12.742971420288086,13.566666603088379,12.450636863708496,12.639798164367676,10.568888664245605
479,10.302563667297363,15.356700897216797,14.586034774780273,12.678776741027832,12.713724136352539,12.360396385192871,13.434164047241211,12.12234878540039,13.428250312805176,12.052207946777344
480,10.942291259765625,16.967060089111328,14.0625,12.965116500854492,12.077393531799316,13.142585754394531,13.60037899017334,12.821943283081055,13.997244834899902,11.968153953552246
481,10.199749946594238,14.997428894042969,14.068431854248047,12.541921615600586,11.383697509765625,11.948668479919434,14.463460922241211,12.317290306091309,12.108038902282715,9.522727012634277
482,10.37313461303711,15.903083801269531,14.11290454864502,13.07943058013916,12.379575729370117,13.355087280273438,13.851190567016602,12.130584716796875,13.161904335021973,11.80512809753418
483,9.720634460449219,17.508981704711914,14.287702560424805,13.888429641723633,13.70260238647461,12.768145561218262,13.89230728149414,12.85814380645752,12.745574951171875,9.37768268585205
484,10.616216659545898,15.824175834655762,13.860732078552246,12.354378700256348,12.437616348266602,12.518234252929688,14.38582706451416,11.923211097717285,14.606122016906738,9.606557846069336
485,11.296531677246094,17.323684692382812,15.319998741149902,13.989856719970703,11.885819435119629,13.534111976623535,15.617283821105957,11.990328788757324,13.296494483947754,11.238887786865234
486,10.358344078063965,16.767810821533203,16.273149490356445,13.76673412322998,13.0407075881958,13.470019340515137,13.675789833068848,12.411438941955566,12.036175727844238,11.341584205627441
487,9.958412170410156,16.81531524658203,14.373494148254395,14.177083015441895,13.677083015441895,12.815938949584961,14.07383918762207,12.228828430175781,12.973872184753418,11.331819534301758
488,10.349111557006836,16.058950424194336,14.992924690246582,13.776823997497559,13.996478080749512,14.148147583007812,15.170082092285156,12.158536911010742,13.776188850402832,11.39245319366455
489,10.584795951843262,16.202505111694336,14.430288314819336,12.19264030456543,13.537071228027344,14.34046459197998,14.741107940673828,11.611806869506836,13.022830963134766,11.667774200439453
490,11.090826034545898,15.493796348571777,15.219905853271484,13.108333587646484,12.357677459716797,13.138376235961914,14.150097846984863,11.682974815368652,11.971264839172363,11.294416427612305
491,10.50634479522705,16.542713165283203,14.331670761108398,12.265849113464355,12.644486427307129,13.057144165039062,14.194604873657227,12.660194396972656,13.483870506286621,12.844340324401855
492,9.841034889221191,16.24222183227539,14.917072296142578,12.698311805725098,12.54802131652832,12.48462963104248,14.37969970703125,12.116981506347656,13.096858978271484,10.82186222076416
493,10.335366249084473,16.598424911499023,15.307086944580078,13.190476417541504,12.41526985168457,13.0,14.356060981750488,13.183969497680664,12.823230743408203,11.239699363708496
494,10.530611991882324,15.652453422546387,15.84711742401123,12.757085800170898,12.93307876586914,12.762652397155762,14.359315872192383,12.983784675598145,12.874385833740234,11.38644027709961
495,10.995467185974121,16.528396606445312,17.377172470092773,13.00204086303711,14.222012519836426,13.264214515686035,14.39558219909668,12.306483268737793,14.161765098571777,12.635416984558105
496,9.98218822479248,16.561403274536133,15.182991027832031,13.06483268737793,14.096339225769043,15.179487228393555,13.682262420654297,11.949416160583496,12.809651374816895,11.790698051452637
497,10.68173885345459,17.233409881591797,15.373656272888184,13.522504806518555,12.790321350097656,14.38850212097168,13.530465126037598,12.864150047302246,13.173126220703125,11.329217910766602
498,9.79651165008545,17.881391525268555,15.077746391296387,13.46812629699707,14.41020393371582,12.697391510009766,14.379310607910156,12.194174766540527,12.265114784240723,10.699999809265137
499,10.367647171020508,16.898679733276367,15.645729064941406,12.739754676818848,14.491904258728027,14.003491401672363,13.71137523651123,11.79737377166748,12.602273941040039,10.845878601074219
500,9.504504203796387,16.13144302368164,14.616336822509766,12.461538314819336,12.853249549865723,13.698081016540527,15.549915313720703,13.053061485290527,13.961325645446777,13.5591402053833
501,10.571428298950195,16.60784339904785,15.16919231414795,13.34754753112793,14.289682388305664,13.04562759399414,15.303030014038086,12.064029693603516,13.221052169799805,10.230392456054688
502,10.966666221618652,15.484444618225098,14.505290985107422,12.712787628173828,13.699203491210938,13.062028884887695,15.930314064025879,11.539007186889648,13.600000381469727,12.099138259887695
503,12.266666412353516,15.058479309082031,13.732558250427246,13.418947219848633,13.117171287536621,13.058932304382324,14.873562812805176,12.693780899047852,12.479798316955566,10.63878345489502
504,11.250000953674316,14.03703784942627,12.353742599487305,14.006356239318848,12.824999809265137,13.0147066116333,14.166991233825684,12.744744300842285,12.153265953063965,10.129825592041016
505,5.5,13.289999961853027,12.682171821594238,11.63448429107666,13.5557861328125,13.216573715209961,14.173306465148926,12.912052154541016,13.413793563842773,10.134716033935547
506,17.0,13.87324047088623,12.58666706085205,11.80048656463623,12.072649955749512,13.587800979614258,14.900809288024902,12.765290260314941,14.202217102050781,11.267943382263184
507,3.999999761581421,12.739999771118164,12.4031400680542,12.841689109802246,14.276548385620117,13.312028884887695,14.53658390045166,12.422828674316406,12.939698219299316,11.211453437805176
508,nan,8.756096839904785,12.35256290435791,10.689023971557617,13.281595230102539,14.719608306884766,14.335892677307129,13.8511323928833,12.640844345092773,11.649402618408203
509,nan,13.212120056152344,12.18103313446045,11.096344947814941,12.393795013427734,14.056112289428711,13.815442085266113,13.401653289794922,12.877155303955078,12.090909004211426
510,nan,15.61111068725586,12.135416984558105,11.416666030883789,11.968831062316895,12.979466438293457,14.647727966308594,12.425331115722656,12.665060043334961,12.266666412353516
511,nan,11.59999942779541,11.808218955993652,11.227272987365723,13.285331726074219,14.66954517364502,15.001864433288574,12.73674201965332,12.156599998474121,11.822428703308105
512,nan,6.875,9.508474349975586,11.294416427612305,11.895774841308594,13.944933891296387,13.688090324401855,12.493457794189453,13.222679138183594,11.112554550170898
513,nan,9.666666984558105,14.040816307067871,12.12804889678955,13.003067016601562,13.561201095581055,13.77137565612793,12.32645320892334,12.21484375,11.03515625
514,nan,16.33333396911621,9.580645561218262,11.078571319580078,12.029801368713379,15.179669380187988,15.163777351379395,12.98366641998291,12.52173900604248,12.507143020629883
515,nan,17.0,9.642857551574707,9.84615421295166,11.219608306884766,13.034314155578613,14.078471183776855,12.137795448303223,12.85952377319336,11.352380752563477
516,nan,36.0,11.0,10.308510780334473,12.340707778930664,13.958333015441895,13.506097793579102,12.053333282470703,13.882487297058105,12.336363792419434
517,nan,nan,9.0,9.573333740234375,10.485849380493164,13.350829124450684,15.32210636138916,13.525424003601074,12.264976501464844,11.637066841125488
518,nan,nan,11.4375,10.34375,10.404145240783691,13.791411399841309,14.224719047546387,13.739208221435547,12.919565200805664,11.079136848449707
519,nan,nan,6.916666507720947,10.418181419372559,11.707317352294922,13.983277320861816,13.28899097442627,12.919642448425293,12.560001373291016,12.996753692626953
520,nan,nan,9.571428298950195,11.666666984558105,10.256943702697754,14.187739372253418,13.475960731506348,13.79503059387207,12.906914710998535,11.448112487792969
521,nan,nan,9.666666984558105,11.270270347595215,11.5496187210083,12.690583229064941,12.429267883300781,13.133334159851074,13.586901664733887,11.92765998840332
522,nan,nan,6.333333492279053,8.5,11.830357551574707,13.175000190734863,14.142156600952148,13.16844367980957,12.650485038757324,10.619048118591309
523,nan,nan,2.6666667461395264,9.545454978942871,11.189474105834961,12.20218563079834,12.139473915100098,13.21861457824707,11.879350662231445,10.521275520324707
524,nan,nan,6.0,6.833333492279053,11.662337303161621,12.375722885131836,12.558404922485352,12.637777328491211,11.823787689208984,11.266233444213867
525,nan,nan,7.666666507720947,8.857142448425293,12.215383529663086,11.551020622253418,13.069697380065918,12.287958145141602,12.478610038757324,9.984770774841309
526,nan,nan,4.666666507720947,9.444445610046387,13.272727012634277,12.558140754699707,11.958763122558594,12.671643257141113,13.154450416564941,10.654868125915527
527,nan,nan,10.666666030883789,12.125,11.90476131439209,14.865545272827148,12.698112487792969,14.012953758239746,12.617128372192383,10.715415000915527
528,nan,nan,5.500000476837158,22.285717010498047,11.323529243469238,12.714286804199219,13.571429252624512,11.462185859680176,13.696898460388184,11.874551773071289
529,nan,nan,1.0,4.666666507720947,15.387096405029297,11.337079048156738,13.461538314819336,12.083333015441895,12.497549057006836,10.629392623901367
530,nan,nan,12.999999046325684,5.666666507720947,7.142857074737549,14.565789222717285,12.855669975280762,12.853896141052246,12.438270568847656,10.033815383911133
531,nan,nan,nan,12.0,13.5625,11.176470756530762,13.766081809997559,11.30434799194336,12.148935317993164,10.00865650177002
532,nan,nan,nan,9.666666984558105,10.615386009216309,13.053571701049805,11.87248420715332,11.623287200927734,12.182371139526367,10.80555534362793
533,nan,nan,nan,9.666666984558105,12.600000381469727,13.574466705322266,12.440943717956543,12.245675086975098,11.086153984069824,9.560885429382324
534,nan,nan,nan,9.999999046325684,6.142857074737549,10.756756782531738,13.658333778381348,12.670454025268555,13.342181205749512,9.58510684967041
535,nan,nan,nan,10.0,14.399999618530273,13.129032135009766,11.279069900512695,11.820512771606445,10.958333015441895,9.474860191345215
536,nan,nan,nan,7.0,3.75,10.375,12.329267501831055,11.548571586608887,13.619266510009766,10.479798316955566
537,nan,nan,nan,8.0,10.749999046325684,12.421052932739258,11.632352828979492,11.3630952835083,11.281818389892578,10.218274116516113
538,nan,nan,nan,9.0,9.666666984558105,12.125,10.557376861572266,12.363636016845703,12.973684310913086,11.266331672668457
539,nan,nan,nan,9.0,12.5,13.933334350585938,12.566039085388184,12.899999618530273,11.502182960510254,12.334929466247559
540,nan,nan,nan,10.0,5.0,9.666666984558105,12.764705657958984,12.15384578704834,13.891666412353516,9.8613862991333
541,nan,nan,nan,nan,10.5,7.0,10.137930870056152,10.86486530303955,10.743589401245117,10.899999618530273
542,nan,nan,nan,nan,6.0,14.833333015441895,12.34782600402832,14.579710006713867,13.663636207580566,13.439655303955078
543,nan,nan,nan,nan,5.5,12.0,12.47826099395752,11.275861740112305,11.81308364868164,11.13559341430664
544,nan,nan,nan,nan,8.0,7.0,14.47826099395752,13.06382942199707,13.56862735748291,12.49593448638916
